<?xml version="1.0" encoding="UTF-8" standalone="no"?>
<svg viewBox="0 0 1172 524" version="1.1" xmlns="http://www.w3.org/2000/svg" xmlns:xlink="http://www.w3.org/1999/xlink">
    <!-- Generator: Sketch 3.8.2 (29753) - http://www.bohemiancoding.com/sketch -->
    <title>maps</title>
    <desc>Created with Sketch.</desc>
    <defs></defs>
    <g id="Page-1" stroke="none" stroke-width="1" fill="none" fill-rule="evenodd">
        <g id="enterprise-v1-copy-3" transform="translate(-134.000000, -2453.000000)">
            <g id="we-scale-with-you" transform="translate(0.000000, 2152.000000)">
                <g id="maps" transform="translate(134.000000, 301.000000)">
                    <g id="map" opacity="0.1" fill="#F2F4F4">
                        <g id="Layer_1">
                            <path d="M182.927653,36.2384106 C186.322186,37.9370861 189.150965,48.5066225 193.488424,44.7317881 C197.637299,40.9569536 203.294855,44.9205298 209.518167,44.9205298 C215.741479,44.9205298 222.153376,41.7119205 223.850643,38.3145695 C225.54791,35.1059603 225.17074,28.1225166 221.399035,30.5761589 C217.627331,33.0298013 205.557878,34.3509934 200.277492,32.2748344 C194.997106,30.1986755 187.642283,26.2350993 183.493408,25.6688742 C179.533119,25.2913907 171.23537,26.8013245 171.423955,32.2748344 C171.23537,37.7483444 179.344534,34.5397351 182.927653,36.2384106 L182.927653,36.2384106 Z" id="Shape"></path>
                            <path d="M290.609807,54.1688742 C291.929904,52.4701987 293.25,48.3178808 298.341801,50.9602649 C303.433601,53.602649 312.674277,50.9602649 314.371543,59.6423841 C316.06881,68.3245033 310.599839,72.4768212 306.828135,73.6092715 C303.056431,74.7417219 304.942283,77.384106 314.748714,81.3476821 C324.555145,85.1225166 326.063826,85.6887417 326.063826,82.102649 C326.063826,78.5165563 323.612219,73.7980132 327.572508,74.1754967 C331.532797,74.3642384 333.984405,70.9668874 332.475723,68.7019868 C330.967042,66.4370861 330.401286,62.0960265 332.852894,59.6423841 C335.493087,57.1887417 336.247428,54.7350993 330.024116,50.5827815 C323.800804,46.4304636 321.914952,41.3344371 313.617203,41.1456954 C305.319453,40.7682119 305.319453,44.5430464 301.170579,42.8443709 C297.021704,41.1456954 295.513023,40.2019868 292.118489,42.089404 C292.118489,42.089404 283.632154,45.6754967 285.518006,49.0728477 C287.403859,52.281457 289.289711,55.8675497 290.609807,54.1688742 L290.609807,54.1688742 Z" id="Shape"></path>
                            <path d="M300.416238,349.360927 C292.495659,343.887417 278.540354,347.284768 278.540354,347.284768 C278.540354,347.284768 283.82074,340.301325 282.877814,330.298013 C281.934887,320.294702 269.299678,323.880795 264.773633,320.294702 C260.247588,316.708609 252.892765,309.913907 247.235209,308.970199 C241.766238,308.02649 230.26254,297.07947 227.056592,297.834437 C223.850643,298.589404 211.404019,294.437086 209.706752,292.927152 C208.009486,291.417219 204.803537,303.68543 202.7291,304.629139 C200.654662,305.572848 198.580225,291.794702 194.997106,291.039735 C191.413987,290.47351 188.585209,303.307947 184.436334,303.874172 C183.493408,304.062914 182.739068,304.251656 182.173312,304.629139 C179.344534,300.854305 173.686977,295.192053 173.309807,289.907285 C172.744051,283.112583 176.704341,278.016556 171.801125,274.996689 C166.89791,271.976821 156.714309,274.996689 156.714309,274.996689 C156.714309,274.996689 160.674598,266.880795 163.503376,259.708609 C166.332154,252.536424 160.674598,248.572848 155.771383,251.970199 C150.868167,255.36755 153.696945,264.049669 140.11881,264.993377 C126.72926,265.937086 125.786334,250.649007 127.672186,238.192053 C129.558039,225.546358 141.061736,217.996689 148.605145,215.543046 C156.148553,213.089404 155.771383,215.92053 160.108842,219.506623 C164.446302,223.092715 168.029421,213.655629 172.555466,212.145695 C177.081511,210.824503 187.642283,216.486755 188.585209,219.129139 C189.33955,221.771523 190.848232,232.34106 193.488424,233.850993 C196.128617,235.360927 197.071543,231.397351 198.203055,226.678808 C199.334566,222.149007 195.185691,214.788079 195.185691,210.635762 C195.185691,206.483444 215.930064,195.15894 222.341961,189.496689 C228.753859,183.834437 235.165756,175.152318 238.93746,171.377483 C242.709164,167.602649 245.349357,167.036424 249.309646,166.092715 C253.269936,165.337748 253.458521,160.619205 257.795981,157.033113 C262.133441,153.44702 266.848071,152.31457 269.299678,151.182119 C271.751286,150.049669 270.054019,162.317881 273.825723,156.278146 C277.408842,150.427152 294.004341,153.258278 293.62717,148.350993 C293.438585,143.443709 283.254984,148.162252 278.163183,144.953642 C273.071383,141.933775 284.009325,141.178808 283.443569,137.215232 C283.066399,133.251656 264.773633,140.990066 265.716559,136.082781 C266.659486,131.175497 288.91254,129.854305 298.530386,129.476821 C308.148232,129.099338 307.582476,128.344371 313.051447,122.493377 C318.331833,116.642384 315.503055,115.13245 309.091158,109.847682 C302.67926,104.562914 308.525402,95.8807947 307.01672,93.0496689 C305.508039,90.218543 298.907556,94.5596026 296.833119,95.692053 C294.947267,96.6357616 289.855466,97.013245 289.101125,90.5960265 C288.53537,84.1788079 279.86045,85.1225166 269.865434,83.0463576 C259.681833,80.9701987 259.870418,99.8443709 259.870418,106.639073 C259.870418,113.433775 251.572669,114.943709 247.800965,116.264901 C244.02926,117.586093 247.046624,123.059603 244.595016,125.890728 C242.143408,128.721854 235.731511,124.380795 231.959807,121.172185 C228.188103,118.152318 229.88537,110.791391 229.88537,110.791391 C229.88537,110.791391 227.245177,110.413907 220.267524,109.092715 C213.289871,107.771523 206.877974,100.976821 208.198071,92.8609272 C209.329582,84.9337748 225.54791,77.7615894 236.297267,77.1953642 C247.235209,76.6291391 243.27492,68.8907285 245.160772,67.9470199 C247.046624,67.0033113 250.629743,71.3443709 250.629743,71.3443709 C250.629743,71.3443709 256.853055,66.8145695 261.75627,66.0596026 C266.659486,65.3046358 275.14582,59.8311258 273.259968,57 C271.374116,53.9801325 260.059003,60.397351 255.155788,60.9635762 C250.252572,61.5298013 252.515595,52.6589404 251.006913,49.4503311 C249.686817,46.2417219 245.915113,48.6953642 244.02926,49.4503311 C242.143408,50.205298 236.674437,63.6059603 231.771222,64.7384106 C226.868006,65.8708609 226.113666,61.718543 217.061576,61.1523179 C208.198071,60.7748344 204.237781,62.2847682 197.260129,65.6821192 C190.282476,68.8907285 167.086495,57.1887417 157.280064,54.3576159 C147.285048,51.5264901 113.151125,60.7748344 110.888103,60.2086093 C108.62508,59.6423841 106.173473,51.7152318 100.893087,50.5827815 C95.612701,49.4503311 60.3472669,53.9801325 60.3472669,53.9801325 C41.1115756,53.7913907 28.4763666,58.1324503 31.4937299,60.5860927 C34.5110932,62.8509934 32.0594855,68.513245 30.7393891,69.8344371 C29.2307074,71.1556291 28.4763666,67.0033113 19.4242765,67.192053 C10.5607717,67.3807947 16.4069132,73.7980132 17.9155949,74.5529801 C19.4242765,75.307947 26.2133441,69.6456954 26.9676849,72.4768212 C27.7220257,75.1192053 21.1215434,78.705298 9.24067524,80.2152318 C-2.64019293,81.7251656 -0.188585209,93.4271523 1.88585209,93.9933775 C3.96028939,94.5596026 3.96028939,97.7682119 5.65755627,99.2781457 C7.35482315,100.788079 17.161254,97.2019868 23.5731511,93.4271523 C29.796463,89.8410596 30.5508039,91.9172185 32.0594855,93.0496689 C33.5681672,93.9933775 36.3969453,89.8410596 42.431672,88.5198675 C48.4663987,87.1986755 67.3249196,89.2748344 67.3249196,92.1059603 C67.5135048,94.9370861 72.6053055,94.5596026 76.7541801,98.3344371 C80.9030547,102.109272 77.8856913,111.546358 77.3199357,115.887417 C76.7541801,120.039735 79.2057878,133.062914 79.394373,137.592715 C79.394373,141.933775 75.9998392,140.612583 70.7194534,149.483444 C65.4390675,158.354305 55.4440514,169.112583 54.3125402,182.135762 C53.1810289,194.970199 66.9477492,204.407285 66.9477492,204.407285 C66.1934084,221.960265 68.2678457,238.758278 70.1536977,236.493377 C72.0395498,234.228477 67.1363344,212.523179 71.4737942,209.503311 C75.811254,206.483444 78.6400322,220.450331 79.7715434,223.281457 C80.9030547,226.112583 94.2926045,241.589404 95.612701,250.837748 C96.9327974,260.086093 96.555627,260.086093 105.796302,270.466887 C115.036977,280.847682 134.649839,274.807947 134.649839,274.807947 C140.495981,283.301325 150.113826,284.811258 155.017042,285.188742 C159.920257,285.566225 159.543087,287.642384 163.314791,291.60596 C167.086495,295.569536 170.858199,302.175497 175.384244,305.384106 C176.515756,306.327815 177.835852,307.082781 178.967363,307.649007 C177.647267,311.612583 180.098875,317.463576 181.607556,320.860927 C183.870579,325.956954 173.875563,337.092715 167.463666,344.642384 C161.051768,352.192053 167.463666,352.569536 167.463666,357.288079 C167.463666,362.006623 157.280064,361.251656 163.503376,367.102649 C169.915273,372.953642 173.875563,385.599338 180.66463,395.980132 C187.265113,406.360927 200.654662,412.778146 208.009486,416.55298 C215.364309,420.516556 216.307235,424.668874 213.855627,442.788079 C211.215434,460.907285 218.004502,509.225166 218.570257,514.509934 C219.136013,519.794702 227.056592,522.059603 228.942444,528.476821 C230.828296,534.705298 225.736495,536.215232 225.92508,541.877483 C225.92508,547.539735 237.994534,561.129139 245.726527,566.980132 C253.458521,572.831126 256.853055,568.112583 253.458521,565.847682 C250.063987,563.582781 252.70418,556.599338 253.458521,553.956954 C254.212862,551.31457 254.024277,546.596026 250.818328,544.142384 C247.612379,541.877483 248.932476,541.311258 252.138424,535.837748 C255.532958,530.364238 251.195498,526.589404 247.800965,524.701987 C244.406431,522.81457 247.800965,514.509934 250.441158,518.096026 C253.08135,521.682119 259.870418,519.228477 258.927492,516.586093 C257.984566,513.943709 258.550322,509.791391 262.887781,511.301325 C267.225241,512.622517 275.52299,499.599338 269.865434,496.57947 C264.396463,493.748344 265.905145,488.84106 265.905145,488.84106 C265.905145,488.84106 268.545338,489.596026 274.580064,491.672185 C280.426206,493.748344 283.254984,487.142384 289.289711,479.02649 C295.324437,470.721854 297.210289,459.963576 296.833119,452.791391 C296.644534,445.807947 307.959646,446.940397 316.06881,442.410596 C324.177974,437.880795 326.252412,431.652318 325.875241,418.817881 C325.498071,405.983444 333.984405,388.996689 337.567524,384.655629 C341.150643,380.503311 343.979421,373.331126 339.264791,365.592715 C335.115916,357.099338 310.788424,354.268212 310.788424,354.268212 C310.788424,354.268212 308.336817,354.834437 300.416238,349.360927 Z" id="Shape"></path>
                            <path d="M462.976688,46.6192053 C466.559807,42.089404 464.108199,29.2549669 468.82283,29.0662252 C473.348875,28.8774834 484.286817,29.0662252 484.852572,22.2715232 C485.418328,15.4768212 492.961736,12.6456954 495.601929,11.1357616 C498.242122,9.81456954 493.527492,2.83112583 481.646624,4.3410596 C469.765756,5.66225166 455.81045,7.7384106 436.951929,5.47350993 C417.904823,3.39735099 420.356431,1.50993377 410.17283,4.52980132 C399.989228,7.54966887 392.82299,3.77483444 383.959486,3.39735099 C375.095981,3.01986755 363.780868,-0.566225166 354.351608,1.50993377 C344.922347,3.39735099 339.830547,8.68211921 332.475723,9.05960265 C326.440997,9.24834437 306.63955,9.05960265 307.771061,14.5331126 C308.902572,20.0066225 315.125884,20.384106 318.520418,22.4602649 C321.726367,24.3476821 327.761093,24.5364238 331.344212,23.0264901 C334.927331,21.5165563 347.56254,16.2317881 356.991801,14.1556291 C366.421061,12.2682119 380.187781,6.60596026 381.130707,10.7582781 C382.073633,14.910596 382.073633,20.5728477 373.210129,20.384106 C364.346624,20.1953642 359.254823,23.781457 361.140675,25.8576159 C363.026527,27.9337748 379.999196,19.8178808 384.525241,29.6324503 C388.862701,39.4470199 394.897428,48.5066225 389.051286,50.5827815 C383.205145,52.6589404 374.71881,47.3741722 376.981833,54.5463576 C379.244855,61.718543 382.639389,80.4039735 392.257235,81.1589404 C401.87508,81.9139073 400.366399,66.2483444 409.795659,63.4172185 C419.22492,60.5860927 431.671543,56.8112583 433.934566,52.4701987 C435.443248,48.1291391 459.393569,50.9602649 462.976688,46.6192053 L462.976688,46.6192053 Z" id="Shape"></path>
                            <path d="M959.521543,232.152318 C968.196463,223.470199 945.000482,204.784768 944.811897,199.311258 C944.623312,193.837748 951.78955,188.930464 945.189068,189.874172 C938.588585,190.817881 931.233762,190.629139 928.216399,187.986755 C925.199035,185.155629 937.457074,165.52649 941.794534,164.016556 C945.943408,162.506623 943.11463,166.65894 944.811897,171.754967 C946.320579,176.850993 952.543891,170.811258 957.069936,171.188742 C961.595981,171.566225 962.538907,179.682119 966.499196,183.456954 C970.459486,187.231788 963.481833,189.68543 969.139389,196.668874 C974.796945,203.463576 975.362701,195.725166 980.077331,187.043046 C984.603376,178.360927 968.573633,175.34106 964.990514,170.433775 C961.407395,165.52649 963.293248,162.506623 974.23119,158.543046 C985.169132,154.57947 980.265916,150.804636 984.603376,144.576159 C988.940836,138.347682 981.774598,124.94702 971.590997,118.529801 C961.407395,112.112583 955.938424,118.718543 950.092283,114 C944.057556,109.092715 950.092283,99.8443709 958.201447,93.9933775 C966.310611,88.1423841 974.419775,92.1059603 983.28328,96.0695364 C992.146785,100.221854 990.260932,89.8410596 991.958199,85.3112583 C993.466881,80.9701987 997.238585,82.6688742 1000.25595,85.3112583 C1003.27331,87.9536424 1004.97058,80.5927152 1010.06238,83.0463576 C1015.15418,85.5 1014.58842,90.7847682 1010.25096,94.1821192 C1005.9135,97.5794702 1015.15418,112.86755 1016.66286,118.34106 C1018.17154,123.81457 1030.05241,131.175497 1034.0127,126.07947 C1037.78441,120.983444 1035.52138,108.337748 1030.241,106.639073 C1024.96061,104.940397 1023.07476,99.8443709 1022.13183,96.4470199 C1021.37749,93.2384106 1030.05241,87.3874172 1034.20129,86.6324503 C1038.35016,85.8774834 1033.82412,92.294702 1035.3328,93.2384106 C1036.84148,94.1821192 1041.74469,87.3874172 1047.40225,84.7450331 C1052.87122,82.2913907 1043.63055,75.6854305 1038.72733,72.8543046 C1033.82412,70.0231788 1039.85884,70.589404 1041.17894,67.9470199 C1042.49904,65.3046358 1053.43698,68.7019868 1057.96302,70.2119205 C1062.48907,71.7218543 1065.12926,69.6456954 1059.66029,64.7384106 C1054.3799,60.0198675 1044.1963,62.4735099 1039.1045,63.0397351 C1033.82412,63.4172185 1005.15916,55.3013245 1000.25595,53.4139073 C995.164148,51.5264901 994.032637,59.0761589 984.980547,57 C976.117042,54.9238411 948.017846,49.4503311 938.588585,50.5827815 C929.159325,51.7152318 909.546463,47.1854305 902.945981,45.2980132 C896.345498,43.410596 891.253698,49.2615894 887.481994,52.0927152 C883.710289,54.7350993 876.732637,50.5827815 864.851768,49.2615894 C852.782315,48.1291391 854.479582,42.8443709 847.501929,44.5430464 C840.524277,46.2417219 830.15209,47.3741722 823.551608,44.5430464 C816.951125,41.7119205 808.087621,44.3543046 801.487138,44.3543046 C794.886656,44.3543046 802.430064,39.2582781 804.504502,35.6721854 C806.578939,32.0860927 795.075241,31.5198675 787.531833,31.3311258 C780.17701,31.1423841 762.07283,30.9536424 758.489711,35.4834437 C754.906592,40.013245 721.715595,34.3509934 725.110129,43.5993377 C728.504662,52.8476821 726.053055,57.5662252 723.601447,58.5099338 C721.149839,59.4536424 716.435209,41.5231788 714.549357,45.486755 C712.663505,49.4503311 722.469936,61.718543 719.075402,63.6059603 C715.680868,65.4933775 712.663505,63.6059603 711.720579,58.3211921 C710.777653,53.0364238 707.571704,42.2781457 697.576688,43.5993377 C687.581672,44.9205298 702.857074,55.8675497 702.857074,57.5662252 C702.857074,59.2649007 697.010932,62.0960265 688.336013,60.7748344 C679.661093,59.2649007 679.095338,53.602649 677.398071,54.9238411 C675.700804,56.2450331 668.345981,61.9072848 659.105305,60.7748344 C650.053215,59.6423841 646.092926,62.6622517 639.681029,64.7384106 C633.269132,66.8145695 621.388264,76.8178808 615.730707,75.4966887 C610.073151,74.1754967 604.98135,70.0231788 607.432958,66.4370861 C609.695981,62.8509934 616.862219,55.6788079 621.011093,55.8675497 C625.159968,56.0562914 623.274116,50.3940397 617.616559,47.7516556 C611.959003,45.1092715 579.522347,51.7152318 571.413183,51.9039735 C563.304019,52.0927152 547.274277,54.9238411 548.594373,61.1523179 C550.480225,69.6456954 535.204823,72.6655629 527.095659,77.7615894 C518.986495,82.8576159 527.661415,90.218543 537.656431,90.218543 C547.651447,90.218543 542.559646,96.4470199 550.103055,100.033113 C557.457878,103.430464 566.132797,94.7483444 563.68119,84.3675497 C561.418167,73.986755 568.39582,76.8178808 575.184887,73.0430464 C581.78537,69.2682119 580.842444,76.2516556 578.579421,79.4602649 C576.316399,82.4801325 576.693569,87.0099338 579.899518,89.8410596 C583.105466,92.6721854 588.574437,82.2913907 592.534727,88.7086093 C596.495016,95.1258278 586.87717,93.8046358 583.671222,94.1821192 C580.653859,94.5596026 586.12283,103.996689 580.276688,104.374172 C574.430547,104.751656 575.750643,110.980132 573.864791,113.811258 C571.978939,116.642384 566.509968,111.923841 562.738264,112.86755 C558.966559,113.811258 558.400804,119.284768 552.177492,114.754967 C546.142765,110.225166 535.016238,114.566225 530.301608,113.811258 C528.604341,113.622517 527.095659,107.771523 527.85,103.619205 C528.038585,102.675497 526.341318,104.751656 525.586977,105.317881 C523.889711,106.261589 522.946785,114 522.381029,116.453642 C521.249518,122.304636 503.522508,127.778146 497.299196,128.721854 C491.075884,129.476821 488.435691,134.761589 492.207395,137.592715 C495.9791,140.423841 499.373633,146.463576 496.922026,151.748344 C494.470418,157.033113 487.492765,153.824503 478.440675,151.370861 C469.388585,149.10596 471.840193,159.109272 471.463023,168.923841 C471.085852,178.738411 478.063505,174.397351 487.869936,175.34106 C497.487781,176.284768 499.750804,176.284768 502.202412,174.208609 C504.654019,172.13245 500.127974,166.092715 505.785531,164.016556 C511.443087,162.129139 512.386013,156.655629 514.649035,153.824503 C516.912058,150.993377 523.701125,158.165563 527.85,158.731788 C531.998875,159.109272 529.358682,155.711921 534.639068,155.523179 C539.730868,155.334437 540.673794,161.562914 545.57701,164.39404 C550.480225,167.036424 557.457878,173.076159 559.532315,174.586093 C561.606752,176.096026 553.686174,179.115894 551.988907,183.268212 C550.29164,187.42053 558.966559,180.437086 562.361093,177.039735 C565.567042,173.642384 563.304019,170.433775 560.098071,166.847682 C556.892122,163.450331 542.371061,152.692053 547.274277,149.672185 C552.177492,146.652318 567.641479,156.655629 570.847428,159.486755 C574.053376,162.317881 571.413183,168.923841 573.676206,173.831126 C575.750643,178.738411 580.653859,184.400662 586.12283,181.380795 C591.591801,178.360927 584.802733,172.887417 593.666238,170.433775 C602.529743,167.980132 595.92926,180.437086 602.341158,184.589404 C608.753055,188.741722 614.976367,188.364238 623.462701,186.099338 C632.137621,184.023179 634.777814,184.966887 636.663666,193.460265 C638.549518,201.953642 627.42299,209.880795 615.730707,211.57947 C604.038424,213.278146 585.934244,207.427152 578.956592,203.463576 C572.167524,199.688742 572.544695,213.466887 564.624116,212.711921 C556.703537,211.956954 548.782958,207.615894 543.502572,203.086093 C538.222186,198.745033 538.787942,192.139073 536.713505,187.42053 C534.639068,182.701987 515.403376,188.930464 512.763183,191.384106 C510.12299,193.649007 500.505145,193.271523 487.869936,191.950331 C475.234727,190.629139 474.103215,196.857616 469.2,204.784768 C464.296785,212.711921 465.051125,218.940397 453.924598,224.036424 C442.798071,229.13245 436.951929,249.89404 437.517685,255.36755 C438.083441,260.84106 437.140514,270.278146 434.500322,277.261589 C431.860129,284.433775 435.254662,286.887417 443.363826,297.834437 C451.47299,308.781457 462.410932,321.238411 473.160289,321.238411 C483.909646,321.238411 490.698714,316.897351 495.036174,316.331126 C499.373633,315.764901 509.74582,310.480132 515.214791,317.84106 C520.683762,325.201987 526.341318,321.615894 532.376045,324.258278 C538.410772,326.900662 537.656431,335.582781 533.696141,343.887417 C529.735852,352.192053 542.371061,357.854305 550.66881,367.291391 C558.966559,376.917219 551.234566,399.188742 548.217203,404.850993 C545.011254,410.513245 545.199839,417.307947 551.234566,425.046358 C557.269293,432.784768 556.326367,440.711921 557.835048,452.602649 C559.34373,464.493377 564.05836,463.927152 566.698553,471.099338 C569.150161,478.271523 567.264309,489.407285 576.882154,491.483444 C586.5,493.559603 594.986334,486.576159 601.963987,485.821192 C608.94164,485.066225 614.222026,471.665563 618.936656,467.890728 C623.651286,464.304636 625.914309,452.225166 631.571865,448.827815 C637.229421,445.430464 633.646302,441.278146 631.571865,434.10596 C629.497428,426.933775 643.641318,418.062914 653.070579,406.172185 C662.499839,394.281457 654.956431,387.298013 650.807556,375.407285 C646.658682,363.705298 651.184727,364.460265 667.025884,349.549669 C682.867042,334.639073 692.484887,311.801325 692.862058,303.68543 C693.239228,295.758278 677.586656,297.645695 670.420418,298.211921 C663.25418,298.778146 658.728135,296.890728 657.785209,287.831126 C656.842283,278.771523 650.807556,277.261589 643.075563,269.145695 C635.343569,261.029801 618.3709,224.036424 627.42299,221.582781 C636.663666,219.317881 646.847267,243.476821 653.82492,250.082781 C660.613987,256.688742 669.477492,261.97351 674.003537,272.731788 C678.529582,283.490066 684.375723,281.413907 700.782637,273.298013 C717.378135,265.182119 718.886817,264.238411 726.430225,258.387417 C733.973633,252.536424 727.750322,251.592715 721.338424,247.062914 C714.926527,242.533113 714.926527,238.003311 711.909164,235.172185 C708.891801,232.34106 709.457556,243.288079 702.668489,245.55298 C695.879421,247.817881 694.37074,238.94702 689.656109,234.983444 C685.130064,231.019868 683.055627,215.92053 683.244212,212.711921 C683.432797,209.503311 689.278939,214.410596 694.37074,218.940397 C699.46254,223.470199 702.857074,219.317881 710.400482,219.884106 C717.943891,220.450331 717.000965,223.281457 721.715595,226.112583 C726.430225,228.943709 735.6709,234.417219 745.854502,234.228477 C756.038103,234.228477 756.038103,241.589404 760.941318,242.721854 C765.655949,243.854305 767.918971,249.139073 770.747749,252.536424 C773.576527,255.933775 776.21672,250.082781 779.611254,250.082781 C783.005788,250.082781 784.89164,253.668874 783.194373,258.764901 C781.497106,263.860927 784.137299,269.523179 787.154662,275.562914 C789.983441,281.602649 795.452412,297.07947 797.338264,302.741722 C799.035531,308.403974 805.258842,306.89404 810.162058,303.874172 C815.065273,300.854305 810.539228,287.453642 810.162058,281.036424 C809.596302,274.619205 817.516881,265.748344 823.363023,262.728477 C829.209164,259.708609 833.923794,247.817881 842.598714,247.062914 C851.462219,246.496689 856.742605,253.857616 859.382797,259.331126 C862.02299,264.804636 867.114791,264.615894 868.434887,267.635762 C869.754984,270.655629 866.737621,276.884106 870.69791,277.072848 C874.658199,277.261589 877.486977,274.619205 881.070096,281.980132 C884.46463,289.34106 879.938585,303.307947 883.521704,303.874172 C887.104823,304.440397 886.539068,285.943709 890.122186,285.566225 C893.705305,285.188742 903.323151,301.231788 909.735048,304.629139 C916.146945,308.02649 920.861576,291.60596 924.256109,286.321192 C927.650643,281.036424 906.90627,263.672185 906.90627,255.745033 C906.90627,248.006623 913.883923,248.195364 920.29582,251.215232 C926.707717,254.235099 925.576206,260.84106 926.707717,262.917219 C927.839228,264.993377 930.668006,254.801325 934.628296,248.195364 C939.720096,242.721854 950.846624,240.645695 959.521543,232.152318 L959.521543,232.152318 Z" id="Shape"></path>
                            <path d="M691.541961,397.678808 C690.599035,396.923841 686.261576,401.076159 686.07299,405.228477 C685.884405,409.380795 676.077974,412.023179 673.060611,413.344371 C670.231833,414.665563 671.9291,418.062914 672.117685,422.781457 C672.30627,427.311258 673.060611,432.97351 667.59164,435.238411 C662.122669,437.503311 667.96881,448.639073 670.797588,452.980132 C673.626367,457.321192 682.867042,453.168874 682.112701,447.129139 C681.35836,440.900662 690.599035,425.423841 690.599035,425.423841 C690.599035,425.423841 690.976206,424.291391 693.616399,418.251656 C696.256592,411.834437 693.239228,399 691.541961,397.678808 L691.541961,397.678808 Z" id="Shape"></path>
                            <path d="M963.859003,248.384106 C964.236174,246.874172 964.236174,246.496689 964.236174,246.496689 C964.236174,246.496689 964.613344,242.344371 965.744855,241.211921 C966.687781,240.07947 965.55627,238.192053 964.424759,238.569536 C963.293248,238.94702 960.653055,240.268212 961.407395,241.400662 C962.161736,242.533113 961.21881,243.476821 960.464469,244.42053 C959.710129,245.175497 958.955788,245.741722 959.332958,246.307947 C959.710129,246.874172 961.21881,248.761589 960.653055,249.705298 C960.087299,250.649007 960.275884,251.970199 960.653055,251.970199 C961.21881,251.781457 963.481833,249.705298 963.859003,248.384106 L963.859003,248.384106 Z" id="Shape"></path>
                            <path d="M897.099839,338.413907 C894.459646,337.470199 887.670579,331.619205 885.973312,328.788079 C884.276045,325.956954 878.995659,323.880795 877.486977,324.824503 C875.223955,326.334437 890.687942,344.453642 893.13955,348.983444 C895.591158,353.513245 903.511736,373.519868 911.24373,371.254967 C918.975723,369.178808 915.95836,363.516556 911.24373,355.778146 C906.340514,348.039735 899.740032,339.546358 897.099839,338.413907 L897.099839,338.413907 Z" id="Shape"></path>
                            <path d="M935.948392,360.68543 C942.73746,361.062914 945.943408,363.327815 946.131994,359.741722 C946.320579,356.344371 948.395016,352.94702 953.109646,348.60596 C957.824277,344.453642 957.258521,339.923841 955.372669,333.695364 C953.486817,327.466887 955.372669,325.57947 957.258521,320.483444 C959.144373,315.387417 948.583601,309.536424 948.583601,309.536424 C948.583601,309.536424 943.491801,319.917219 934.628296,321.238411 C925.764791,322.559603 928.97074,324.44702 927.650643,328.976821 C926.330547,333.506623 923.878939,337.092715 918.409968,337.281457 C912.940997,337.470199 917.089871,352.192053 919.91865,357.099338 C922.936013,362.572848 929.34791,360.496689 935.948392,360.68543 L935.948392,360.68543 Z" id="Shape"></path>
                            <path d="M1076.44437,361.629139 C1071.91833,359.364238 1070.22106,354.645695 1067.39228,351.059603 C1064.5635,347.284768 1051.55113,346.529801 1041.55611,343.13245 C1031.56109,339.923841 1024.58344,339.546358 1024.01768,342.566225 C1023.45193,345.774834 1018.36013,351.248344 1014.96559,353.513245 C1011.75965,355.778146 1007.42219,343.13245 1003.08473,338.980132 C998.747267,335.016556 994.032637,341.811258 994.032637,341.811258 C994.598392,348.794702 1002.70756,347.47351 1001.57605,350.115894 C1000.44453,352.758278 1005.9135,357.288079 1013.45691,357.476821 C1020.81174,357.854305 1026.84646,358.231788 1031.37251,360.119205 C1035.70997,362.195364 1032.88119,368.990066 1042.31045,372.009934 C1051.55113,375.029801 1058.71736,368.612583 1063.24341,366.913907 C1067.76945,365.215232 1076.82154,372.576159 1082.29051,375.218543 C1087.75949,377.672185 1089.45675,373.708609 1090.58826,371.066225 C1091.53119,368.612583 1081.159,363.89404 1076.44437,361.629139 L1076.44437,361.629139 Z" id="Shape"></path>
                            <path d="M1067.01511,432.029801 C1063.24341,430.331126 1060.60322,423.725166 1059.66029,419.950331 C1058.71736,416.175497 1052.68264,413.533113 1052.68264,413.533113 C1056.26576,400.698675 1046.27074,382.201987 1043.25338,383.334437 C1040.23601,384.466887 1040.23601,397.490066 1035.70997,406.360927 C1031.37251,415.42053 1021.37749,407.304636 1017.4172,404.662252 C1013.45691,401.831126 1019.68023,388.241722 1019.11447,386.92053 C1018.7373,385.599338 1012.70257,386.165563 1007.98794,385.599338 C1003.27331,385.033113 993.278296,393.903974 992.146785,397.678808 C991.015273,401.453642 991.015273,400.509934 986.677814,399.188742 C982.340354,397.86755 985.546302,394.092715 980.077331,394.092715 C974.796945,394.092715 971.590997,406.172185 970.648071,407.115894 C969.705145,408.059603 967.819293,401.264901 965.367685,405.417219 C962.916077,409.380795 962.161736,412.400662 957.258521,416.930464 C952.355305,421.460265 930.479421,428.821192 926.330547,434.294702 C922.181672,439.768212 923.501768,465.81457 924.444695,470.721854 C925.387621,475.629139 923.501768,478.271523 921.238746,478.649007 C919.164309,478.837748 923.313183,482.423841 928.782154,482.046358 C934.06254,481.857616 938.965756,477.705298 952.732476,474.68543 C966.499196,471.665563 964.990514,469.589404 973.665434,467.701987 C982.528939,465.81457 986.866399,469.211921 989.506592,471.854305 C991.958199,474.68543 993.089711,479.781457 995.729904,479.970199 C998.370096,479.970199 1006.85643,474.496689 1006.85643,474.496689 C1006.85643,474.496689 1004.40482,481.102649 1004.02765,486.198675 C1003.65048,491.294702 1008.17653,495.824503 1016.28569,497.523179 C1024.39486,499.221854 1025.90354,501.298013 1040.23601,494.125828 C1054.56849,486.953642 1065.12926,467.513245 1070.40965,455.433775 C1075.69003,443.165563 1070.78682,433.728477 1067.01511,432.029801 L1067.01511,432.029801 Z" id="Shape"></path>
                            <path d="M492.961736,123.437086 C495.790514,123.625828 497.110611,124.94702 497.110611,122.870861 C497.110611,120.794702 498.053537,118.529801 499.939389,115.887417 C501.825241,113.245033 501.636656,110.413907 500.882315,106.450331 C500.127974,102.486755 500.882315,101.354305 501.636656,98.1456954 C502.390997,94.9370861 498.053537,91.3509934 498.053537,91.3509934 C498.053537,91.3509934 495.9791,97.9569536 492.207395,98.7119205 C488.624277,99.4668874 489.944373,100.788079 489.378617,103.619205 C488.812862,106.450331 487.869936,108.715232 485.606913,108.903974 C483.343891,109.092715 485.041158,118.34106 486.172669,121.549669 C487.492765,124.758278 490.132958,123.248344 492.961736,123.437086 L492.961736,123.437086 Z" id="Shape"></path>
                            <path d="M481.835209,120.983444 L479.006431,108.715232 L474.857556,105.506623 C474.857556,105.506623 473.348875,109.281457 471.085852,115.887417 C468.82283,122.493377 474.857556,122.493377 474.857556,122.493377 L481.835209,120.983444 L481.835209,120.983444 Z" id="Shape"></path>
                            <path d="M1153.95289,489.029801 C1155.65016,490.917219 1159.98762,500.731788 1163.00498,501.109272 C1166.02235,501.486755 1170.73698,498.466887 1171.11415,501.109272 C1171.49132,503.751656 1171.11415,516.586093 1165.45659,518.096026 C1159.79904,519.60596 1155.65016,521.304636 1153.76431,524.890728 C1151.87846,528.476821 1150.74695,525.834437 1150.74695,520.927152 C1150.74695,516.208609 1149.80402,514.509934 1147.72958,511.490066 C1145.65514,508.470199 1149.04968,506.016556 1149.80402,503.18543 C1150.55836,500.354305 1151.50129,496.956954 1149.80402,491.294702 C1148.29534,485.63245 1150.93553,485.821192 1153.95289,489.029801 L1153.95289,489.029801 Z" id="Shape"></path>
                            <path d="M1147.16383,526.400662 C1144.9008,522.81457 1144.33505,517.907285 1142.07203,519.228477 C1139.809,520.549669 1136.79164,533.195364 1134.15145,536.02649 C1131.51125,538.857616 1116.23585,549.238411 1114.35,552.635762 C1112.46415,556.033113 1111.52122,565.470199 1114.35,567.357616 C1117.17878,569.245033 1121.51624,570.188742 1124.15643,569.622517 C1126.79662,569.056291 1130.75691,561.129139 1132.64277,556.788079 C1134.52862,552.44702 1136.41447,550.182119 1139.809,547.350993 C1143.20354,544.519868 1145.08939,541.688742 1143.95788,538.857616 C1142.82637,536.02649 1147.16383,532.817881 1147.16383,532.817881 L1147.16383,526.400662 L1147.16383,526.400662 Z" id="Shape"></path>
                            <path d="M1037.03006,504.695364 C1037.03006,504.695364 1026.09212,507.52649 1027.22363,509.413907 C1028.16656,511.301325 1036.65289,519.417219 1037.03006,516.774834 C1037.40723,514.13245 1038.91592,506.960265 1037.03006,504.695364 L1037.03006,504.695364 Z" id="Shape"></path>
                            <path d="M980.454502,206.672185 C980.831672,208.370861 982.717524,204.218543 984.980547,206.10596 C987.432154,207.993377 987.054984,210.824503 987.054984,210.824503 C987.054984,210.824503 991.015273,208.182119 990.826688,206.294702 C990.638103,204.407285 987.054984,201.576159 985.169132,202.142384 C983.28328,202.708609 980.077331,204.029801 980.454502,206.672185 L980.454502,206.672185 Z" id="Shape"></path>
                            <path d="M980.831672,199.122517 C980.831672,199.122517 986.112058,199.5 989.695177,196.291391 C994.598392,192.139073 995.918489,192.327815 995.918489,192.327815 C995.918489,192.327815 999.690193,191.950331 999.690193,188.55298 C999.690193,185.344371 1007.79936,171.754967 1005.9135,167.225166 C1004.78199,164.582781 1009.30804,167.980132 1009.30804,169.86755 C1009.11945,171.754967 1012.70257,176.662252 1010.43955,178.172185 C1008.17653,179.682119 1009.30804,188.55298 1008.74228,190.440397 C1008.17653,192.327815 1002.1418,202.142384 998.558682,200.63245 C994.975563,199.122517 989.695177,199.5 988.37508,199.688742 C987.054984,199.877483 981.397428,202.142384 980.831672,199.122517 L980.831672,199.122517 Z" id="Shape"></path>
                            <path d="M1010.43955,151.748344 C1011.38248,152.503311 1013.6455,156.655629 1015.15418,156.844371 C1016.47428,156.844371 1018.54871,155.334437 1018.92588,156.466887 C1019.30305,157.599338 1019.68023,163.450331 1017.22862,164.39404 C1014.77701,165.337748 1012.89116,166.281457 1012.3254,167.980132 C1011.75965,169.678808 1011.00531,168.546358 1010.81672,166.281457 C1010.62814,164.205298 1010.06238,163.450331 1009.11945,162.129139 C1007.98794,160.807947 1009.49662,159.675497 1009.68521,158.354305 C1009.87379,157.033113 1010.25096,155.523179 1009.11945,153.069536 C1007.79936,150.427152 1008.93087,150.427152 1010.43955,151.748344 L1010.43955,151.748344 Z" id="Shape"></path>
                            <path d="M920.67299,368.046358 C917.278457,369.178808 941.417363,377.10596 947.07492,376.539735 C952.732476,375.97351 978.191479,372.387417 978.191479,372.387417 C978.191479,372.387417 964.236174,370.877483 957.635691,371.63245 C950.846624,372.198675 930.290836,364.649007 920.67299,368.046358 L920.67299,368.046358 Z" id="Shape"></path>
                            <path d="M957.635691,351.059603 C956.12701,352.569536 947.640675,361.817881 951.78955,361.629139 C955.938424,361.440397 959.710129,365.592715 959.710129,363.705298 C959.710129,361.817881 957.447106,357.665563 957.447106,357.665563 C957.447106,357.665563 962.916077,361.629139 965.367685,361.629139 C967.819293,361.629139 962.538907,354.834437 962.538907,354.834437 L957.635691,351.059603 L957.635691,351.059603 Z" id="Shape"></path>
                            <path d="M960.84164,348.039735 L968.007878,351.059603 C968.007878,351.059603 973.288264,349.738411 970.2709,348.039735 C967.253537,346.34106 960.84164,348.039735 960.84164,348.039735 L960.84164,348.039735 Z" id="Shape"></path>
                            <path d="M817.894051,305.761589 C812.613666,304.817881 815.819614,311.990066 817.894051,311.990066 C819.968489,311.990066 825.626045,307.271523 817.894051,305.761589 L817.894051,305.761589 Z" id="Shape"></path>
                            <path d="M475.423312,63.4172185 C475.800482,61.5298013 476.931994,60.5860927 475.611897,60.7748344 C474.291801,60.7748344 472.971704,60.397351 471.651608,59.2649007 C470.331511,58.1324503 468.445659,58.5099338 465.994051,59.2649007 C463.542444,60.0198675 462.788103,59.6423841 460.902251,59.4536424 C459.016399,59.2649007 456.187621,62.2847682 456.187621,62.2847682 C456.187621,62.2847682 459.959325,63.2284768 460.14791,65.4933775 C460.14791,67.7582781 461.090836,66.8145695 462.976688,67.0033113 C464.86254,67.192053 465.994051,67.7582781 465.805466,69.0794702 C465.616881,70.589404 471.651608,68.7019868 473.726045,67.7582781 C475.611897,66.8145695 475.046141,65.3046358 475.423312,63.4172185 L475.423312,63.4172185 Z" id="Shape"></path>
                            <path d="M547.085691,180.625828 L549.725884,178.172185 L550.29164,174.963576 C550.29164,174.963576 549.537299,174.019868 548.028617,172.509934 C546.708521,171 546.708521,175.529801 546.708521,175.529801 L547.085691,180.625828 L547.085691,180.625828 Z" id="Shape"></path>
                            <path d="M221.399035,245.364238 C217.627331,243.476821 217.250161,242.721854 217.250161,242.721854 C217.250161,242.721854 215.930064,240.834437 214.044212,241.400662 C212.15836,241.966887 202.351929,240.07947 200.277492,241.778146 C199.145981,242.721854 199.523151,239.890728 200.654662,239.513245 C201.786174,239.135762 203.294855,236.682119 204.803537,237.625828 C206.312219,238.569536 210.838264,236.493377 212.15836,236.493377 C213.289871,236.493377 220.644695,238.003311 221.021865,240.07947 C221.399035,242.155629 223.284887,244.798013 223.662058,245.55298 C224.416399,246.119205 224.416399,246.874172 221.399035,245.364238 L221.399035,245.364238 Z" id="Shape"></path>
                            <path d="M229.131029,245.930464 L228.376688,249.139073 C228.376688,249.139073 230.073955,249.516556 232.525563,250.082781 C234.97717,250.649007 240.068971,248.950331 239.691801,248.006623 C239.31463,247.062914 237.994534,243.288079 234.034244,242.910596 C230.073955,242.344371 224.416399,245.364238 229.131029,245.930464 L229.131029,245.930464 Z" id="Shape"></path>
                            <path d="M24.5160772,239.513245 C22.4416399,241.400662 12.4466238,242.155629 15.8411576,238.003311 C19.2356913,233.850993 19.6128617,233.47351 21.8758842,234.60596 C24.1389068,235.738411 24.5160772,239.513245 24.5160772,239.513245 L24.5160772,239.513245 Z" id="Shape"></path>
                            <path d="M13.2009646,230.642384 C14.5210611,230.264901 19.0471061,232.34106 16.5954984,233.284768 C14.1438907,234.228477 13.9553055,234.417219 13.2009646,233.284768 C12.635209,232.152318 13.2009646,230.642384 13.2009646,230.642384 L13.2009646,230.642384 Z" id="Shape"></path>
                            <path d="M8.48633441,229.509934 C9.80643087,229.321192 14.1438907,230.453642 11.8808682,231.019868 C9.61784566,231.586093 9.24067524,231.586093 8.48633441,231.019868 C7.73199357,230.453642 8.48633441,229.509934 8.48633441,229.509934 L8.48633441,229.509934 Z" id="Shape"></path>
                            <path d="M6.03472669,228.943709 C5.84614148,229.698675 3.77170418,231.586093 3.77170418,230.076159 C3.77170418,228.566225 3.77170418,228.377483 4.52604502,228.377483 C5.28038585,228.188742 6.03472669,228.943709 6.03472669,228.943709 L6.03472669,228.943709 Z" id="Shape"></path>
                        </g>
                    </g>
                    <g id="dots" transform="translate(51.000000, 60.000000)" fill="rgb(5,15,44)" opacity="0.400000006">
                        <circle id="Oval-35-Copy-53" cx="90" cy="143" r="8"></circle>
                        <circle id="Oval-35-Copy-328" cx="200" cy="81" r="8"></circle>
                        <circle id="Oval-35-Copy-329" cx="175" cy="112" r="8"></circle>
                        <circle id="Oval-35-Copy-330" cx="248" cy="384" r="8"></circle>
                        <circle id="Oval-35-Copy-331" cx="8" cy="131" r="8"></circle>
                        <circle id="Oval-35-Copy-341" cx="15" cy="142" r="4"></circle>
                        <circle id="Oval-35-Copy-342" cx="20" cy="92" r="4"></circle>
                        <circle id="Oval-35-Copy-343" cx="25" cy="102" r="4"></circle>
                        <circle id="Oval-35-Copy-344" cx="145" cy="170" r="4"></circle>
                        <circle id="Oval-35-Copy-345" cx="138" cy="140" r="4"></circle>
                        <circle id="Oval-35-Copy-346" cx="133" cy="110" r="4"></circle>
                        <circle id="Oval-35-Copy-347" cx="190" cy="106" r="4"></circle>
                        <circle id="Oval-35-Copy-349" cx="416" cy="4" r="4"></circle>
                        <circle id="Oval-35-Copy-350" cx="428" cy="57" r="4"></circle>
                        <circle id="Oval-35-Copy-351" cx="445" cy="61" r="4"></circle>
                        <circle id="Oval-35-Copy-352" cx="467" cy="63" r="4"></circle>
                        <circle id="Oval-35-Copy-353" cx="472" cy="57" r="4"></circle>
                        <circle id="Oval-35-Copy-359" cx="510" cy="32" r="4"></circle>
                        <circle id="Oval-35-Copy-360" cx="532" cy="24" r="4"></circle>
                        <circle id="Oval-35-Copy-361" cx="509" cy="84" r="4"></circle>
                        <circle id="Oval-35-Copy-362" cx="524" cy="61" r="4"></circle>
                        <circle id="Oval-35-Copy-363" cx="536" cy="105" r="4"></circle>
                        <circle id="Oval-35-Copy-364" cx="582" cy="150" r="4"></circle>
                        <circle id="Oval-35-Copy-365" cx="522" cy="425" r="4"></circle>
                        <circle id="Oval-35-Copy-366" cx="733" cy="205" r="4"></circle>
                        <circle id="Oval-35-Copy-367" cx="759" cy="231" r="4"></circle>
                        <circle id="Oval-35-Copy-368" cx="839" cy="221" r="4"></circle>
                        <circle id="Oval-35-Copy-369" cx="921" cy="126" r="4"></circle>
                        <circle id="Oval-35-Copy-370" cx="981" cy="435" r="4"></circle>
                        <circle id="Oval-35-Copy-354" cx="475" cy="72" r="4"></circle>
                        <circle id="Oval-35-Copy-355" cx="473" cy="83" r="4"></circle>
                        <circle id="Oval-35-Copy-357" cx="455" cy="80" r="4"></circle>
                        <circle id="Oval-35-Copy-358" cx="439" cy="103" r="4"></circle>
                        <circle id="Oval-35-Copy-356" cx="479" cy="92" r="4"></circle>
                        <circle id="Oval-35-Copy-348" cx="214" cy="426" r="4"></circle>
                        <circle id="Oval-35-Copy-332" cx="558" cy="396" r="8"></circle>
                        <circle id="Oval-35-Copy-333" cx="1007" cy="406" r="8"></circle>
                        <circle id="Oval-35-Copy-334" cx="847" cy="279" r="8"></circle>
                        <circle id="Oval-35-Copy-335" cx="886" cy="185" r="8"></circle>
                        <circle id="Oval-35-Copy-336" cx="954" cy="134" r="8"></circle>
                        <circle id="Oval-35-Copy-337" cx="754" cy="165" r="8"></circle>
                        <circle id="Oval-35-Copy-338" cx="458" cy="68" r="8"></circle>
                        <circle id="Oval-35-Copy-339" cx="488" cy="75" r="8"></circle>
                        <circle id="Oval-35-Copy-340" cx="558" cy="52" r="8"></circle>
                    </g>
                    <g id="places" transform="translate(52.000000, 93.000000)" fill="#FFFFFF">
                        <path d="M557,345 C553.1,345 550,348.1 550,352 C550,355.9 557,365 557,365 C557,365 564,355.9 564,352 C564,348.1 560.9,345 557,345 L557,345 Z M557,355 C555.3,355 554,353.7 554,352 C554,350.3 555.3,349 557,349 C558.7,349 560,350.3 560,352 C560,353.7 558.7,355 557,355 L557,355 Z" id="Shape"></path>
                        <path d="M247,332 C243.1,332 240,335.1 240,339 C240,342.9 247,352 247,352 C247,352 254,342.9 254,339 C254,335.1 250.9,332 247,332 L247,332 Z M247,342 C245.3,342 244,340.7 244,339 C244,337.3 245.3,336 247,336 C248.7,336 250,337.3 250,339 C250,340.7 248.7,342 247,342 L247,342 Z" id="Shape-Copy-2"></path>
                        <path d="M199,29 C195.1,29 192,32.1 192,36 C192,39.9 199,49 199,49 C199,49 206,39.9 206,36 C206,32.1 202.9,29 199,29 L199,29 Z M199,39 C197.3,39 196,37.7 196,36 C196,34.3 197.3,33 199,33 C200.7,33 202,34.3 202,36 C202,37.7 200.7,39 199,39 L199,39 Z" id="Shape-Copy-3"></path>
                        <path d="M174,61 C170.1,61 167,64.1 167,68 C167,71.9 174,81 174,81 C174,81 181,71.9 181,68 C181,64.1 177.9,61 174,61 L174,61 Z M174,71 C172.3,71 171,69.7 171,68 C171,66.3 172.3,65 174,65 C175.7,65 177,66.3 177,68 C177,69.7 175.7,71 174,71 L174,71 Z" id="Shape-Copy-4"></path>
                        <path d="M89,91 C85.1,91 82,94.1 82,98 C82,101.9 89,111 89,111 C89,111 96,101.9 96,98 C96,94.1 92.9,91 89,91 L89,91 Z M89,101 C87.3,101 86,99.7 86,98 C86,96.3 87.3,95 89,95 C90.7,95 92,96.3 92,98 C92,99.7 90.7,101 89,101 L89,101 Z" id="Shape-Copy-5"></path>
                        <path d="M7,79 C3.1,79 0,82.1 0,86 C0,89.9 7,99 7,99 C7,99 14,89.9 14,86 C14,82.1 10.9,79 7,79 L7,79 Z M7,89 C5.3,89 4,87.7 4,86 C4,84.3 5.3,83 7,83 C8.7,83 10,84.3 10,86 C10,87.7 8.7,89 7,89 L7,89 Z" id="Shape-Copy-6"></path>
                        <path d="M457,17 C453.1,17 450,20.1 450,24 C450,27.9 457,37 457,37 C457,37 464,27.9 464,24 C464,20.1 460.9,17 457,17 L457,17 Z M457,27 C455.3,27 454,25.7 454,24 C454,22.3 455.3,21 457,21 C458.7,21 460,22.3 460,24 C460,25.7 458.7,27 457,27 L457,27 Z" id="Shape-Copy-7"></path>
                        <path d="M487,23 C483.1,23 480,26.1 480,30 C480,33.9 487,43 487,43 C487,43 494,33.9 494,30 C494,26.1 490.9,23 487,23 L487,23 Z M487,33 C485.3,33 484,31.7 484,30 C484,28.3 485.3,27 487,27 C488.7,27 490,28.3 490,30 C490,31.7 488.7,33 487,33 L487,33 Z" id="Shape-Copy-8"></path>
                        <path d="M557,0 C553.1,0 550,3.1 550,7 C550,10.9 557,20 557,20 C557,20 564,10.9 564,7 C564,3.1 560.9,0 557,0 L557,0 Z M557,10 C555.3,10 554,8.7 554,7 C554,5.3 555.3,4 557,4 C558.7,4 560,5.3 560,7 C560,8.7 558.7,10 557,10 L557,10 Z" id="Shape-Copy-9"></path>
                        <path d="M753,113 C749.1,113 746,116.1 746,120 C746,123.9 753,133 753,133 C753,133 760,123.9 760,120 C760,116.1 756.9,113 753,113 L753,113 Z M753,123 C751.3,123 750,121.7 750,120 C750,118.3 751.3,117 753,117 C754.7,117 756,118.3 756,120 C756,121.7 754.7,123 753,123 L753,123 Z" id="Shape-Copy-10"></path>
                        <path d="M885,133 C881.1,133 878,136.1 878,140 C878,143.9 885,153 885,153 C885,153 892,143.9 892,140 C892,136.1 888.9,133 885,133 L885,133 Z M885,143 C883.3,143 882,141.7 882,140 C882,138.3 883.3,137 885,137 C886.7,137 888,138.3 888,140 C888,141.7 886.7,143 885,143 L885,143 Z" id="Shape-Copy-11"></path>
                        <path d="M846,227 C842.1,227 839,230.1 839,234 C839,237.9 846,247 846,247 C846,247 853,237.9 853,234 C853,230.1 849.9,227 846,227 L846,227 Z M846,237 C844.3,237 843,235.7 843,234 C843,232.3 844.3,231 846,231 C847.7,231 849,232.3 849,234 C849,235.7 847.7,237 846,237 L846,237 Z" id="Shape-Copy-12"></path>
                        <path d="M953,82 C949.1,82 946,85.1 946,89 C946,92.9 953,102 953,102 C953,102 960,92.9 960,89 C960,85.1 956.9,82 953,82 L953,82 Z M953,92 C951.3,92 950,90.7 950,89 C950,87.3 951.3,86 953,86 C954.7,86 956,87.3 956,89 C956,90.7 954.7,92 953,92 L953,92 Z" id="Shape-Copy-13"></path>
                        <path d="M1006,354 C1002.1,354 999,357.1 999,361 C999,364.9 1006,374 1006,374 C1006,374 1013,364.9 1013,361 C1013,357.1 1009.9,354 1006,354 L1006,354 Z M1006,364 C1004.3,364 1003,362.7 1003,361 C1003,359.3 1004.3,358 1006,358 C1007.7,358 1009,359.3 1009,361 C1009,362.7 1007.7,364 1006,364 L1006,364 Z" id="Shape-Copy-14"></path>
                    </g>
                </g>
            </g>
        </g>
    </g>
</svg>