<?xml version="1.0" encoding="UTF-8"?>
<svg width="80px" height="80px" viewBox="0 0 80 80" version="1.1" xmlns="http://www.w3.org/2000/svg" xmlns:xlink="http://www.w3.org/1999/xlink">
    <!-- Generator: Sketch 41.2 (35397) - http://www.bohemiancoding.com/sketch -->
    <title>icons/features/vault</title>
    <desc>Created with Sketch.</desc>
    <defs>
        <rect id="path-1" x="9" y="12" width="63" height="57" rx="5"></rect>
        <mask id="mask-2" maskContentUnits="userSpaceOnUse" maskUnits="objectBoundingBox" x="0" y="0" width="63" height="57" fill="white">
            <use xlink:href="#path-1"></use>
        </mask>
        <path d="M28.1215472,40.30281 C28.1215472,46.9438602 33.6779879,52.3246236 40.5381745,52.3246236 C47.3983611,52.3246236 52.9548018,46.9438602 52.9548018,40.30281 C52.9548018,33.5976434 47.3259308,28.2809963 40.5381745,28.2809963 C33.7597307,28.2809963 28.1215472,33.5896288 28.1215472,40.30281 Z" id="path-3"></path>
        <mask id="mask-4" maskContentUnits="userSpaceOnUse" maskUnits="objectBoundingBox" x="-1.6" y="-1.6" width="28.0332546" height="27.2436273">
            <rect x="26.5215472" y="26.6809963" width="28.0332546" height="27.2436273" fill="white"></rect>
            <use xlink:href="#path-3" fill="black"></use>
        </mask>
        <path d="M47.164185,45.9603663 L43.2365548,42.1576237 C43.5206531,41.772319 43.7141052,41.3238672 43.7992241,40.8379553 L49.3540627,40.8379553 C49.2280425,42.7976575 48.4254927,44.5764805 47.164185,45.9603663 L47.164185,45.9603663 Z" id="path-5"></path>
        <mask id="mask-6" maskContentUnits="userSpaceOnUse" maskUnits="objectBoundingBox" x="-1.6" y="-1.6" width="9.31750788" height="8.32241104">
            <rect x="41.6365548" y="39.2379553" width="9.31750788" height="8.32241104" fill="white"></rect>
            <use xlink:href="#path-5" fill="black"></use>
        </mask>
        <path d="M31.7222863,40.8379553 L37.277125,40.8379553 C37.3622439,41.3238672 37.555696,41.7712487 37.8397942,42.1576237 L33.912164,45.9603663 C32.6508563,44.5764805 31.8483065,42.7976575 31.7222863,40.8379553 L31.7222863,40.8379553 Z" id="path-7"></path>
        <mask id="mask-8" maskContentUnits="userSpaceOnUse" maskUnits="objectBoundingBox" x="-1.6" y="-1.6" width="9.31750788" height="8.32241104">
            <rect x="30.1222863" y="39.2379553" width="9.31750788" height="8.32241104" fill="white"></rect>
            <use xlink:href="#path-7" fill="black"></use>
        </mask>
        <path d="M33.912164,34.6441833 L37.8397942,38.446926 C37.555696,38.8333009 37.3622439,39.2806824 37.277125,39.7676646 L31.7222863,39.7676646 C31.8483065,37.8068922 32.6508563,36.0280691 33.912164,34.6441833 L33.912164,34.6441833 Z" id="path-9"></path>
        <mask id="mask-10" maskContentUnits="userSpaceOnUse" maskUnits="objectBoundingBox" x="-1.6" y="-1.6" width="9.31750788" height="8.32348133">
            <rect x="30.1222863" y="33.0441833" width="9.31750788" height="8.32348133" fill="white"></rect>
            <use xlink:href="#path-9" fill="black"></use>
        </mask>
        <path d="M38.6213406,42.9153894 C39.0204047,43.1893838 39.4824788,43.3766847 39.9854542,43.4590971 L39.9854542,48.8373076 C37.9602872,48.7163647 36.1241505,47.9382634 34.6948159,46.7170618 L38.6213406,42.9153894 Z" id="path-11"></path>
        <mask id="mask-12" maskContentUnits="userSpaceOnUse" maskUnits="objectBoundingBox" x="-1.6" y="-1.6" width="8.49063837" height="9.12191815">
            <rect x="33.0948159" y="41.3153894" width="8.49063837" height="9.12191815" fill="white"></rect>
            <use xlink:href="#path-11" fill="black"></use>
        </mask>
        <path d="M41.0908948,43.4590971 C41.5938702,43.3766847 42.0559444,43.1893838 42.4550084,42.9153894 L46.3826386,46.7170618 C44.953304,47.9382634 43.1160618,48.7163647 41.0908948,48.8373076 L41.0908948,43.4590971 Z" id="path-13"></path>
        <mask id="mask-14" maskContentUnits="userSpaceOnUse" maskUnits="objectBoundingBox" x="-1.6" y="-1.6" width="8.49174381" height="9.12191815">
            <rect x="39.4908948" y="41.3153894" width="8.49174381" height="9.12191815" fill="white"></rect>
            <use xlink:href="#path-13" fill="black"></use>
        </mask>
        <path d="M47.164185,34.6441833 C48.4254927,36.0280691 49.2280425,37.8068922 49.3540627,39.7676646 L43.7992241,39.7676646 C43.7141052,39.2806824 43.5206531,38.8333009 43.2365548,38.446926 L47.164185,34.6441833 Z" id="path-15"></path>
        <mask id="mask-16" maskContentUnits="userSpaceOnUse" maskUnits="objectBoundingBox" x="-1.6" y="-1.6" width="9.31750788" height="8.32348133">
            <rect x="41.6365548" y="33.0441833" width="9.31750788" height="8.32348133" fill="white"></rect>
            <use xlink:href="#path-15" fill="black"></use>
        </mask>
        <path d="M46.3826386,33.8874878 L42.4550084,37.6902305 C42.0559444,37.4151658 41.5938702,37.2278649 41.0908948,37.1454526 L41.0908948,31.767242 C43.1160618,31.8881849 44.953304,32.6662862 46.3826386,33.8874878 L46.3826386,33.8874878 Z" id="path-17"></path>
        <mask id="mask-18" maskContentUnits="userSpaceOnUse" maskUnits="objectBoundingBox" x="-1.6" y="-1.6" width="8.49174381" height="9.12298844">
            <rect x="39.4908948" y="30.167242" width="8.49174381" height="9.12298844" fill="white"></rect>
            <use xlink:href="#path-17" fill="black"></use>
        </mask>
        <path d="M39.9854542,31.767242 L39.9854542,37.1454526 C39.4824788,37.2278649 39.0204047,37.4151658 38.6213406,37.6902305 L34.6937104,33.8874878 C36.1241505,32.6662862 37.9602872,31.8881849 39.9854542,31.767242 L39.9854542,31.767242 Z" id="path-19"></path>
        <mask id="mask-20" maskContentUnits="userSpaceOnUse" maskUnits="objectBoundingBox" x="-1.6" y="-1.6" width="8.49174381" height="9.12298844">
            <rect x="33.0937104" y="30.167242" width="8.49174381" height="9.12298844" fill="white"></rect>
            <use xlink:href="#path-19" fill="black"></use>
        </mask>
    </defs>
    <g id="Symbols" stroke="none" stroke-width="1" fill="none" fill-rule="evenodd">
        <g id="icons/features/vault">
            <use id="vault-edge" stroke="#1DAEFC" mask="url(#mask-2)" stroke-width="3.2" xlink:href="#path-1"></use>
            <path d="M17.0169636,23.5947266 L17.0169636,20.875 C17.0169636,19.9152727 17.8888525,19.1363636 18.9631442,19.1363636 L61.7791164,19.1363636 C62.8534081,19.1363636 63.725297,19.9152727 63.725297,20.875 C63.725297,20.875 63.725297,23.1653646 63.725297,24.3105469 M63.725297,38.9560547 L63.725297,41.0371094 M63.725297,56.0761719 L63.725297,59.125 L63.725297,59.125 C63.725297,60.0847273 62.8534081,60.8636364 61.7791164,60.8636364 L18.9631442,60.8636364 C17.8888525,60.8636364 17.0169636,60.0847273 17.0169636,59.125 L17.0169636,56.6376953" id="vault-line" stroke="#FE336F" stroke-width="1.6"></path>
            <path d="M59.5015941,55.6661604 C59.5015941,56.4523168 58.820231,57.0903568 57.9806944,57.0903568 L24.5208998,57.0903568 C23.6813631,57.0903568 23,56.4523168 23,55.6661604 L23,24.3338396 C23,23.5476832 23.6813631,22.9096432 24.5208998,22.9096432 L57.9806944,22.9096432 C58.820231,22.9096432 59.5015941,23.5476832 59.5015941,24.3338396 L59.5015941,55.6661604 Z" id="fill-door" fill="#F2F9FB"></path>
            <path d="M66.1836303,34.6818182 C66.1836303,35.5850909 65.6329636,36.3181818 64.9544636,36.3181818 L62.4961303,36.3181818 C61.8176303,36.3181818 61.2669636,35.5850909 61.2669636,34.6818182 L61.2669636,28.1363636 C61.2669636,27.2330909 61.8176303,26.5 62.4961303,26.5 L64.9544636,26.5 C65.6329636,26.5 66.1836303,27.2330909 66.1836303,28.1363636 L66.1836303,34.6818182 Z" id="gon1" stroke="#00AEFF" stroke-width="1.6" fill="#FFFFFF"></path>
            <path d="M66.1836303,51.8636364 C66.1836303,52.7669091 65.6329636,53.5 64.9544636,53.5 L62.4961303,53.5 C61.8176303,53.5 61.2669636,52.7669091 61.2669636,51.8636364 L61.2669636,45.3181818 C61.2669636,44.4149091 61.8176303,43.6818182 62.4961303,43.6818182 L64.9544636,43.6818182 C65.6329636,43.6818182 66.1836303,44.4149091 66.1836303,45.3181818 L66.1836303,51.8636364 Z" id="gon2" stroke="#00AEFF" stroke-width="1.6" fill="#FFFFFF"></path>
            <path d="M19.9166667,52.4630682 C19.9166667,53.4369091 18.8153333,54.2272727 17.4583333,54.2272727 C16.1013333,54.2272727 15,53.4369091 15,52.4630682 L15,27.7642045 C15,26.7903636 16.1013333,26 17.4583333,26 C18.8153333,26 19.9166667,26.7903636 19.9166667,27.7642045 L19.9166667,52.4630682 Z" id="handle" stroke="#00AEFF" stroke-width="1.6" fill="#FFFFFF"></path>
            <g id="lock9">
                <use fill="#FFFFFF" fill-rule="evenodd" xlink:href="#path-3"></use>
                <use stroke="#1DAEFC" mask="url(#mask-4)" stroke-width="3.2" xlink:href="#path-3"></use>
            </g>
            <g id="lock8">
                <use fill="#FFFFFF" fill-rule="evenodd" xlink:href="#path-5"></use>
                <use stroke="#1DAEFC" mask="url(#mask-6)" stroke-width="3.2" xlink:href="#path-5"></use>
            </g>
            <g id="lock7">
                <use fill="#FFFFFF" fill-rule="evenodd" xlink:href="#path-7"></use>
                <use stroke="#1DAEFC" mask="url(#mask-8)" stroke-width="3.2" xlink:href="#path-7"></use>
            </g>
            <g id="lock6">
                <use fill="#FFFFFF" fill-rule="evenodd" xlink:href="#path-9"></use>
                <use stroke="#1DAEFC" mask="url(#mask-10)" stroke-width="3.2" xlink:href="#path-9"></use>
            </g>
            <g id="lock5">
                <use fill="#FFFFFF" fill-rule="evenodd" xlink:href="#path-11"></use>
                <use stroke="#1DAEFC" mask="url(#mask-12)" stroke-width="3.2" xlink:href="#path-11"></use>
            </g>
            <g id="lock4">
                <use fill="#FFFFFF" fill-rule="evenodd" xlink:href="#path-13"></use>
                <use stroke="#1DAEFC" mask="url(#mask-14)" stroke-width="3.2" xlink:href="#path-13"></use>
            </g>
            <g id="lock3">
                <use fill="#FFFFFF" fill-rule="evenodd" xlink:href="#path-15"></use>
                <use stroke="#1DAEFC" mask="url(#mask-16)" stroke-width="3.2" xlink:href="#path-15"></use>
            </g>
            <g id="lock2">
                <use fill="#FFFFFF" fill-rule="evenodd" xlink:href="#path-17"></use>
                <use stroke="#1DAEFC" mask="url(#mask-18)" stroke-width="3.2" xlink:href="#path-17"></use>
            </g>
            <g id="lock1">
                <use fill="#FFFFFF" fill-rule="evenodd" xlink:href="#path-19"></use>
                <use stroke="#1DAEFC" mask="url(#mask-20)" stroke-width="3.2" xlink:href="#path-19"></use>
            </g>
        </g>
    </g>
</svg>