<?xml version="1.0" encoding="utf-8"?>
<!-- Generator: Adobe Illustrator 19.0.0, SVG Export Plug-In . SVG Version: 6.00 Build 0)  -->
<svg version="1.1" id="Capa_1" xmlns="http://www.w3.org/2000/svg" xmlns:xlink="http://www.w3.org/1999/xlink" x="0px" y="0px"
	 viewBox="-70 162 470 470" style="enable-background:new -70 162 470 470;" xml:space="preserve">
<style type="text/css">
	.st0{fill:#8995C7;}
</style>
<g>
	<g>
		<path class="st0" d="M319.4,586.3h-24.9V233.5c0-4.8-3.9-8.6-8.6-8.6h-25.8v-25.8c0-4.7-3.9-8.6-8.6-8.6H79.4
			c-4.8,0-8.6,3.9-8.6,8.6v25.8H45c-4.8,0-8.6,3.9-8.6,8.6v352.8H10.6c-4.8,0-8.6,3.9-8.6,8.6s3.9,8.6,8.6,8.6h103.3
			c4.8,0,8.6-3.9,8.6-8.6v-43h86.1v43c0,4.8,3.9,8.6,8.6,8.6h102.4c4.8,0,8.6-3.9,8.6-8.6C328,590.2,324.2,586.3,319.4,586.3z
			 M122.4,508.9c0,4.8-3.9,8.6-8.6,8.6H79.4c-4.8,0-8.6-3.9-8.6-8.6v-34.4c0-4.8,3.9-8.6,8.6-8.6h34.4c4.8,0,8.6,3.9,8.6,8.6
			L122.4,508.9L122.4,508.9z M122.4,440c0,4.8-3.9,8.6-8.6,8.6H79.4c-4.8,0-8.6-3.9-8.6-8.6v-34.4c0-4.8,3.9-8.6,8.6-8.6h34.4
			c4.8,0,8.6,3.9,8.6,8.6L122.4,440L122.4,440z M122.4,371.2c0,4.8-3.9,8.6-8.6,8.6H79.4c-4.8,0-8.6-3.9-8.6-8.6v-34.4
			c0-4.8,3.9-8.6,8.6-8.6h34.4c4.8,0,8.6,3.9,8.6,8.6L122.4,371.2L122.4,371.2z M122.4,302.3c0,4.8-3.9,8.6-8.6,8.6H79.4
			c-4.8,0-8.6-3.9-8.6-8.6v-34.4c0-4.8,3.9-8.6,8.6-8.6h34.4c4.8,0,8.6,3.9,8.6,8.6L122.4,302.3L122.4,302.3z M191.3,508.9
			c0,4.8-3.9,8.6-8.6,8.6h-34.4c-4.8,0-8.6-3.9-8.6-8.6v-34.4c0-4.8,3.9-8.6,8.6-8.6h34.4c4.8,0,8.6,3.9,8.6,8.6V508.9z M191.3,440
			c0,4.8-3.9,8.6-8.6,8.6h-34.4c-4.8,0-8.6-3.9-8.6-8.6v-34.4c0-4.8,3.9-8.6,8.6-8.6h34.4c4.8,0,8.6,3.9,8.6,8.6V440z M191.3,371.2
			c0,4.8-3.9,8.6-8.6,8.6h-34.4c-4.8,0-8.6-3.9-8.6-8.6v-34.4c0-4.8,3.9-8.6,8.6-8.6h34.4c4.8,0,8.6,3.9,8.6,8.6V371.2z
			 M191.3,302.3c0,4.8-3.9,8.6-8.6,8.6h-34.4c-4.8,0-8.6-3.9-8.6-8.6v-34.4c0-4.8,3.9-8.6,8.6-8.6h34.4c4.8,0,8.6,3.9,8.6,8.6V302.3
			z M260.1,508.9c0,4.8-3.9,8.6-8.6,8.6h-34.4c-4.8,0-8.6-3.9-8.6-8.6v-34.4c0-4.8,3.9-8.6,8.6-8.6h34.4c4.8,0,8.6,3.9,8.6,8.6
			V508.9z M260.1,440c0,4.8-3.9,8.6-8.6,8.6h-34.4c-4.8,0-8.6-3.9-8.6-8.6v-34.4c0-4.8,3.9-8.6,8.6-8.6h34.4c4.8,0,8.6,3.9,8.6,8.6
			V440z M260.1,371.2c0,4.8-3.9,8.6-8.6,8.6h-34.4c-4.8,0-8.6-3.9-8.6-8.6v-34.4c0-4.8,3.9-8.6,8.6-8.6h34.4c4.8,0,8.6,3.9,8.6,8.6
			V371.2z M260.1,302.3c0,4.8-3.9,8.6-8.6,8.6h-34.4c-4.8,0-8.6-3.9-8.6-8.6v-34.4c0-4.8,3.9-8.6,8.6-8.6h34.4
			c4.8,0,8.6,3.9,8.6,8.6V302.3z"/>
	</g>
</g>
</svg>
