<?xml version="1.0" encoding="utf-8"?>
<!-- Generator: Adobe Illustrator 19.0.0, SVG Export Plug-In . SVG Version: 6.00 Build 0)  -->
<svg version="1.1" id="Capa_1" xmlns="http://www.w3.org/2000/svg" xmlns:xlink="http://www.w3.org/1999/xlink" x="0px" y="0px"
	 viewBox="-70 162 470 470" style="enable-background:new -70 162 470 470;" xml:space="preserve">
<style type="text/css">
	.st0{fill:#8995C7;}
</style>
<g>
	<g>
		<g>
			<path class="st0" d="M344.4,211.8H-14.4c-13.5,0-24.5,11-24.5,24.5v321.5c0,13.5,11,24.5,24.5,24.5h358.8
				c13.5,0,24.5-11,24.5-24.5V236.3C368.9,222.8,357.9,211.8,344.4,211.8z M270.5,252.9c0-5,4.1-9,9-9h9c5,0,9,4.1,9,9v10.3
				c0,5-4.1,9-9,9h-9c-5,0-9-4.1-9-9V252.9z M228.4,252.9c0-5,4.1-9,9-9h9c5,0,9,4.1,9,9v10.3c0,5-4.1,9-9,9h-9c-5,0-9-4.1-9-9
				V252.9z M339.5,552.8h-349V299.4h349V552.8L339.5,552.8z M339.7,263.2c0,5-4.1,9-9,9h-9c-5,0-9-4.1-9-9v-10.3c0-5,4.1-9,9-9h9
				c5,0,9,4.1,9,9V263.2z"/>
			<path class="st0" d="M48.6,435.7l65.6,30.5c1.7,0.8,3.5,1.2,5.4,1.2c2.4,0,4.8-0.7,6.9-2c3.7-2.4,5.9-6.4,5.9-10.7v-0.3
				c0-4.9-2.9-9.5-7.4-11.6l-41-19.1l41-19.1c4.5-2.1,7.4-6.6,7.4-11.6v-0.3c0-4.4-2.2-8.4-5.9-10.7c-2-1.3-4.4-2-6.9-2
				c-1.8,0-3.7,0.4-5.4,1.2l-65.6,30.5c-4.5,2.1-7.4,6.6-7.4,11.6v0.9C41.3,429,44.1,433.6,48.6,435.7z"/>
			<path class="st0" d="M132.9,497.8c2.4,3.3,6.2,5.2,10.3,5.2h0.3c5.6,0,10.4-3.6,12.1-8.9l43.2-133.9c1.2-3.9,0.6-8.1-1.8-11.4
				c-2.4-3.3-6.2-5.2-10.3-5.2h-0.3c-5.6,0-10.4,3.6-12.1,8.9l-43.2,133.9C129.9,490.3,130.5,494.5,132.9,497.8z"/>
			<path class="st0" d="M197.6,393c0,4.9,2.9,9.5,7.4,11.6l41,19.1l-41,19.1c-4.5,2.1-7.4,6.6-7.4,11.6v0.3c0,4.4,2.2,8.4,5.9,10.7
				c2.1,1.3,4.4,2,6.9,2c1.9,0,3.7-0.4,5.4-1.2l65.6-30.5c4.5-2.1,7.4-6.6,7.4-11.6v-0.9c0-4.9-2.9-9.5-7.4-11.6l-65.6-30.5
				c-1.7-0.8-3.5-1.2-5.4-1.2c-2.4,0-4.8,0.7-6.9,2c-3.7,2.4-5.9,6.4-5.9,10.7L197.6,393L197.6,393L197.6,393z"/>
		</g>
	</g>
</g>
</svg>
