<?xml version="1.0" encoding="utf-8"?>
<!-- Generator: Adobe Illustrator 19.0.0, SVG Export Plug-In . SVG Version: 6.00 Build 0)  -->
<svg version="1.1" id="Layer_1" xmlns="http://www.w3.org/2000/svg" xmlns:xlink="http://www.w3.org/1999/xlink" x="0px" y="0px"
	 viewBox="-55 147 500 500" style="enable-background:new -55 147 500 500;" xml:space="preserve">
<style type="text/css">
	.st0{fill:#FFFFFF;}
	.st1{fill:#F6D2A2;}
	.st2{fill:#C6B198;}
	.st3{fill:none;}
	.st4{fill:#231F20;}
</style>
<g>
	<path id="body" class="st0" d="M188.3,215.1c73,0,141.1,10.2,177,80.5c32.2,78.3,20.4,163.1,25.8,246.3
		c4.3,71.4,13.4,153.4-19.3,219.4c-34.9,69.2-121.8,86.9-193.1,84.2c-56.3-2.1-123.9-20.4-156.1-71.9
		c-37-60.1-19.9-149.7-17.2-216.7c3.2-79.4-21.5-159.3,4.8-236.6C36.5,239.2,109.4,221,188.3,215.1"/>
	<path class="st1" d="M-35.4,562.2c1.1,18.8,19.9,10.2,28.4,4.3c8-5.9,10.7-1.1,11.3-12.3c0.5-7.5,1.1-14.5,1.1-22
		c-12.3-1.1-25.8,1.6-35.9,9.1C-35.4,545-45.6,557.4-35.4,562.2"/>
	<path d="M-25.2,575.6c-3.8,0-10.7-1.6-11.8-12.3c-3.2-2.1-4.3-4.8-4.3-6.4c-0.5-6.4,6.4-13.9,10.2-16.6c8.6-6.4,19.9-9.7,31.7-9.7
		h7v1.6c0.5,5.9,0,11.8-0.5,17.2c0,1.6,0,3.2-0.5,4.8c-0.5,8-2.1,9.1-5.9,10.7c-1.6,0.5-3.2,1.1-5.9,3.2
		C-8.1,569.7-17.2,575.6-25.2,575.6z M0.5,533.8c-11.3,0-21.5,3.2-29.5,9.1c-3.8,2.7-9.1,9.1-8.6,13.4c0,1.6,1.1,3.2,3.2,4.3
		l1.1,0.5v1.1c0.5,8.6,4.8,9.7,8,9.7c5.4,0,12.9-3.8,17.7-7c3.2-2.1,5.4-2.7,7-3.2c2.7-1.1,3.2-1.1,3.8-7.5c0-1.6,0-3.2,0.5-4.8
		c0.5-4.8,0.5-10.2,0.5-15C2.8,533.8,1.6,533.8,0.5,533.8z"/>
	<path class="st2" d="M-35.4,562.2c2.7-1.1,5.9-1.6,7.5-4.3"/>
	<path d="M-35.4,563.8c-0.5,0-1.6-0.5-1.6-1.1c-0.5-1.1,0-2.1,1.1-2.1c0.5,0,1.1-0.5,1.1-0.5c2.1-1.1,4.3-1.6,5.4-3.2
		c0.5-0.5,1.6-1.1,2.7-0.5c0.5,0.5,1.1,1.6,0.5,2.7c-2.1,2.7-4.8,3.8-7,4.3l-1.1,0.5C-34.4,563.8-35.4,563.8-35.4,563.8z"/>
	<path class="st0" d="M8.6,335.3c-73-20.4-18.8-113.2,39.7-75.1C48.3,260.2,8.6,335.3,8.6,335.3z"/>
	<path class="st3" d="M9.6,337.4L8,336.9c-37.6-10.7-37-37.6-35.9-45.6c2.7-20.4,22-41.8,47.7-41.8c10.2,0,19.9,3.2,29.5,9.7
		l1.6,1.1L9.6,337.4z M19.8,253.2c-24.1,0-41.8,19.9-44.5,38.6c-2.7,19.3,9.1,34.3,32.2,41.3l38.1-72.4
		C37.5,255.9,29,253.2,19.8,253.2z"/>
	<path class="st0" d="M332.1,253.2c57.4-40.2,110,51,42.9,74L332.1,253.2z"/>
	<path class="st3" d="M374.5,329.4L330,252.7l1.6-1.1c10.2-7,20.4-10.7,30.6-10.7c24.7,0,42.4,20.4,46.1,40.2
		c1.6,8,3.2,35.4-32.2,47.2C376.1,328.3,374.5,329.4,374.5,329.4z M334.8,254.3l41.3,71.4c20.9-7.5,31.7-23.6,28.4-42.9
		c-3.2-18.2-19.9-37-42.4-37C353,245.1,343.9,247.8,334.8,254.3z"/>
	<path class="st1" d="M345,796.1c14.5,9.1,41.3,36.5,19.3,49.9c-20.9,19.3-32.7-21.5-51.5-26.8C320.8,808.5,331,798.3,345,796.1"/>
	<path d="M353,853c-8.6,0-16.1-8.6-22.5-16.6c-5.9-6.4-11.8-13.4-18.2-15.6l-2.7-0.5l1.6-2.1c6.4-9.1,17.2-20.9,33.3-23.6h0.5
		l0.5,0.5c9.1,5.9,29,22.5,28.4,38.1c0,5.9-3.2,10.7-9.1,14.5C361,851.4,357.3,853,353,853z M315.4,818.1
		c6.4,2.7,11.8,9.7,17.2,15.6c6.4,8,12.9,15,19.9,15c3.2,0,6.4-1.6,9.7-4.8h0.5c4.8-3.2,7.5-7,7.5-11.8c0-12.3-15.6-27.9-26.3-34.9
		C334.3,799.9,324.6,806.3,315.4,818.1z M364.3,847.6c-0.5,0-1.1-0.5-1.6-1.1c-1.1-2.1-2.1-4.8-2.7-7c-1.6-4.3-3.2-8.6-6.4-11.8
		c-0.5-0.5-0.5-1.6,0-2.7c0.5-0.5,1.6-0.5,2.7,0c3.8,3.8,5.9,8.6,7.5,13.4l2.7,6.4c0.5,1.1,0,2.1-0.5,2.7L364.3,847.6L364.3,847.6z"
		/>
	<path class="st1" d="M83.1,827.3c-17.2,2.7-26.8,18.2-41.3,26.3c-13.4,8-18.8-2.7-19.9-4.8c-2.1-1.1-2.1,1.1-5.4-2.1
		c-12.3-19.9,12.9-34.3,26.3-44C61.8,798.3,73.5,814.4,83.1,827.3"/>
	<path d="M32.8,857.8c-7,0-10.7-5.9-11.8-8h-0.5c-1.6,0-2.7-0.5-4.8-2.7v-0.5c-11.8-18.8,8.6-33.3,22-42.9l4.8-3.2h1.1
		c2.1-0.5,3.8-0.5,5.9-0.5c16.1,0,26.3,13.9,34.9,25.2l2.7,3.8l-3.2,0.5c-10.2,1.6-17.7,8-25.2,14.5c-4.8,4.3-9.7,8-15,11.3
		C39.1,856.8,35.9,857.8,32.8,857.8z M20.9,846.6c0.5,0,1.1,0,2.1,0.5h0.5l0.5,0.5c1.1,1.6,3.8,6.4,9.1,6.4c2.7,0,5.4-1.1,8-2.7
		c5.4-2.7,10.2-7,14.5-10.7c7-5.9,14.5-12.3,24.1-15c-8-10.7-17.7-22.5-31.1-22.5c-1.6,0-3.2,0-4.8,0.5l-4.3,3.2
		c-13.9,9.7-31.1,22-20.9,38.1C19.3,846,19.8,846.6,20.9,846.6z M22,850.3c-1.1,0-2.1-1.1-1.6-2.1c0.5-5.4,3.2-9.1,5.9-13.4
		c1.6-2.1,2.7-4.3,3.8-6.4c0.5-1.1,1.6-1.1,2.1-1.1c1.1,0.5,1.1,1.6,1.1,2.1c-1.1,2.7-2.7,4.8-4.3,7c-2.7,3.8-4.8,7-5.4,11.3
		C23.6,849.8,23,850.3,22,850.3z"/>
	<path d="M11.8,310.1C2.1,305.3-4.8,298.3,1.1,287c5.4-10.2,15.6-9.1,25.2-4.3L11.8,310.1z M360,300.4c9.7-4.8,16.6-11.8,10.7-23.1
		c-5.4-10.2-15.6-9.1-25.2-4.3L360,300.4z"/>
	<path class="st1" d="M426,559.5c-1.1,18.8-19.9,10.2-28.4,4.3c-8-5.9-10.7-1.1-11.3-12.3c-0.5-7.5-1.1-14.5-1.1-22
		c12.3-1.1,25.8,1.6,35.9,9.1C426.5,542.9,436.3,554.7,426,559.5"/>
	<path d="M416.3,572.9c-8,0-17.2-5.9-19.9-7.5c-2.7-1.6-4.3-2.7-5.9-3.2c-4.3-1.6-5.4-2.7-5.9-10.7c0-1.6,0-3.2-0.5-4.8
		c-0.5-5.4-1.1-11.3-0.5-17.2v-1.6h7c11.8,0,23.1,3.2,31.7,9.7c3.8,2.7,10.7,10.2,10.2,16.6c0,2.1-1.1,4.8-4.3,6.4
		C427,571.3,420.1,572.9,416.3,572.9L416.3,572.9z M386.8,531.6c0,4.8,0,10.2,0.5,15c0,1.6,0,3.2,0.5,4.8c0.5,6.4,1.1,6.4,3.8,7.5
		c1.6,0.5,3.8,1.6,7,3.2c4.8,3.2,12.3,7,17.7,7c3.2,0,7.5-1.1,8-9.7v-1.1l1.1-0.5c2.1-1.1,3.2-2.1,3.2-4.3
		c0.5-4.3-4.8-10.7-8.6-13.4c-8-5.9-18.8-9.1-29.5-9.1C389.5,531.6,388.4,531.6,386.8,531.6z"/>
	<path class="st2" d="M426,559.5c-2.7-1.1-5.9-1.6-7.5-4.3"/>
	<path d="M426,561.7h-0.5l-1.1-0.5c-2.7-1.1-5.4-1.6-7-4.3c-0.5-0.5-0.5-2.1,0.5-2.7c0.5-0.5,2.1-0.5,2.7,0.5
		c1.1,1.6,3.2,2.1,5.4,3.2c0.5,0,1.1,0.5,1.1,0.5c1.1,0.5,1.6,1.6,1.1,2.1C427.6,561.1,426.5,561.7,426,561.7z"/>
	<path class="st0" d="M191,847.6h-13.4c-22-0.5-55.3-4.3-88-17.7C57.9,817,34.9,798.8,20,774.6C-10,725.8-4.8,658.7,0.1,599.2
		c1.1-15,2.1-29,2.7-42.4c1.1-27.9-1.1-56.9-3.8-84.2c-4.3-50.4-8.6-102.5,8-152.9c12.9-37.6,35.9-64.4,70.8-81.5
		c27.4-13.4,61.2-20.9,109.4-24.7c71.9-0.5,143.2,9.7,179.2,81c23.7,57.4,23.7,119.1,24.3,178.7c0,22.5,0,45.6,1.6,68.1
		c0.5,7,1.1,13.9,1.1,20.9c4.3,65.5,9.1,139.5-20.9,199.6c-15,30.6-41.3,53.1-77.3,67.6C266.1,841.2,229.6,847.6,191,847.6z
		 M188.3,216.7c-75.6,5.9-149.7,22.5-177,104.1C-5.3,370.7-1,422.2,3.3,472.1c2.1,27.9,4.8,56.3,3.8,84.8
		c-0.5,13.4-1.6,27.4-2.7,42.4c-4.8,59-10.2,125.5,19.3,173.3c12.3,19.9,52,67.1,154.5,70.8h13.4c118.6,0,162.6-52.6,178.7-83.7
		c29.5-59,24.7-133.1,20.9-198c-0.5-7-1.1-13.9-1.1-20.9c-1.1-22.5-1.6-45.6-1.6-68.1c-0.5-59-0.5-120.7-23.6-177.6
		c-16.1-31.7-40.2-53.1-73.5-65.5C257,218.3,218.3,216.7,188.3,216.7z"/>
	<path class="st0" d="M201.2,312.7c12.9,76.2,137.3,55.8,119.6-20.9C304.8,223.1,196.9,242.5,201.2,312.7"/>
	<path d="M260.3,362.6c-24.1,0-54.7-12.9-61.2-49.4c-1.1-17.2,4.3-32.7,15.6-44.5c12.3-13.4,31.1-20.9,50.4-20.9
		c22.5,0,49.4,11.8,56.9,44.5c4.3,18.2,1.1,34.3-9.1,47.2C301.5,353.5,281.6,362.6,260.3,362.6z M202.8,312.7
		c2.7,15,9.7,26.8,20.9,35.4c9.7,7.5,23.1,11.3,36.5,11.3c19.9,0,39.2-8.6,49.9-22c9.7-11.8,12.3-27.4,8.6-44.5
		c-7-30.6-32.2-41.3-53.7-41.3c-18.2,0-35.9,7.5-47.7,19.9C207.1,282.2,201.7,296.6,202.8,312.7z"/>
	<path class="st0" d="M52.6,325.1c17.2,66,122.9,49.4,119.1-17.2C166.8,228.5,35.9,243.5,52.6,325.1"/>
	<path d="M108.9,369.1c-23.1,0-49.9-11.3-58.5-43.5c-3.8-18.8,0-35.9,10.7-48.8c11.8-14.5,31.1-23.1,52-23.1
		c27.9,0,57.4,16.6,59.6,54.2c1.1,15.6-3.8,29.5-14.5,40.8C147,361,128.2,369.1,108.9,369.1z M113.3,257.5c-19.9,0-38.1,8-49.4,21.5
		c-10.2,12.3-13.4,27.9-9.7,45.6c7.5,30,33.3,40.8,54.7,40.8c18.2,0,35.9-7,47.2-19.3c9.7-10.2,14.5-23.6,13.4-38.1
		C168.4,284.8,152.9,257.5,113.3,257.5z"/>
	<path class="st0" d="M216.2,403.9c0,9.7,2.1,20.9,0.5,31.7c-2.7,4.8-7.5,5.4-11.8,7c-5.9-1.1-10.7-4.8-13.4-10.2
		c-1.6-11.8,0.5-23.6,1.1-35.4L216.2,403.9z"/>
	<path d="M204.9,444.7c-7-1.1-12.3-5.4-15-11.3c-1.1-8.6-0.5-16.6,0-24.7c0.5-3.8,0.5-7.5,0.5-11.3v-2.1l27.4,8.6v1.1
		c0,3.2,0.5,6.4,0.5,10.2c0.5,7,1.1,14.5,0,21.5v0.5c-2.1,4.3-5.9,5.4-9.7,7C207.6,443.6,206.5,444.2,204.9,444.7z M193.1,431.8
		c2.1,4.8,6.4,8,11.3,9.1c1.1-0.5,2.1-0.5,2.7-1.1c3.2-1.1,5.9-2.1,7.5-4.8c1.1-6.4,0.5-13.4,0-20.4c0-3.2-0.5-6.4-0.5-9.1
		l-20.4-6.4c0,3.2-0.5,6.4-0.5,9.1C192.6,416.8,192,424.3,193.1,431.8z"/>
	<path d="M99.8,314.3c0,10.7-8,19.3-17.7,19.3s-17.7-8.6-17.7-19.3s8-19.3,17.7-19.3S99.8,303.6,99.8,314.3"/>
	<path class="st0" d="M93.9,318.6c0,2.7-2.1,4.8-4.3,4.8c-2.1,0-4.3-2.1-4.3-4.8s2.1-4.8,4.3-4.8C92.3,313.8,93.9,316,93.9,318.6"/>
	<path d="M249.5,309.5c0,10.7-8,19.3-17.7,19.3s-17.7-8.6-17.7-19.3s8-19.3,17.7-19.3C241.4,290.2,249.5,298.8,249.5,309.5"/>
	<path class="st0" d="M244.1,313.8c0,2.7-1.6,4.8-4.3,4.8c-2.1,0-4.3-2.1-4.3-4.8c0-2.7,1.6-4.8,4.3-4.8
		C241.9,309,244.1,311.1,244.1,313.8"/>
	<path class="st0" d="M164.7,402.9c-8,18.8,4.3,56.9,25.8,29c-1.6-11.8,0.5-23.6,1.1-35.4C191.5,396.4,164.7,402.9,164.7,402.9z"/>
	<path class="st0" d="M167.4,366.4c-14.5,1.1-26.3,18.8-18.8,32.2c10.2,18.2,32.2-1.6,46.1,0c16.1,0.5,29,17.2,41.8,3.2
		c14.5-15.6-6.4-30.6-22-37.6C214.6,364.2,167.4,366.4,167.4,366.4z"/>
	<path d="M176,443.6c-3.8,0-7.5-2.1-10.2-6.4c-5.9-8.6-7-24.7-2.7-34.9l0.5-1.1l29.5-7.5v2.1l-0.5,11.8c-0.5,8-1.1,15.6,0,23.6v0.5
		l-0.5,0.5C186.7,439.9,181.3,443.6,176,443.6z M166.3,404.5c-3.2,9.1-2.1,23.6,2.7,30.6c2.1,3.2,4.3,4.8,7,4.8
		c3.8,0,8-3.2,12.3-8.6c-1.1-8-0.5-16.1,0.5-23.6l0.5-9.1C189.4,398.6,166.3,404.5,166.3,404.5z"/>
	<path class="st4" d="M225.3,409.3c-4.8,0-9.7-2.1-14.5-4.3c-4.8-2.1-10.2-4.3-16.1-4.3h-1.6c-4.3,0-9.1,1.6-14.5,3.8
		c-5.9,2.1-11.8,3.8-17.2,3.8c-6.4,0-11.3-2.7-14.5-8.6c-3.8-6.4-3.2-13.9,0.5-20.9c4.3-8,11.8-12.9,19.9-13.9l47.7-2.1h0.5
		c11.8,4.8,25.2,13.9,27.9,24.7c1.1,5.4-0.5,10.7-4.8,15.6C234.4,407.7,230.1,409.3,225.3,409.3z M195.3,397.5
		c5.9,0,11.8,2.7,17.2,4.8c4.8,2.1,9.1,3.8,13.4,3.8c3.8,0,7-1.6,10.2-4.8c3.8-3.8,4.8-8,4.3-12.3c-2.1-9.1-15-17.7-25.2-22
		l-46.7,2.1c-7,0.5-13.4,5.4-17.2,11.8c-3.2,5.9-3.2,12.3-0.5,17.7c2.7,4.8,5.9,7,11.3,7c4.8,0,10.2-2.1,15.6-3.8
		c5.9-2.1,10.7-3.8,16.1-3.8C193.7,397,194.2,397,195.3,397.5z"/>
	<path d="M165.8,365.9c-1.1-25.2,47.2-28.4,52.6-7.5C224.2,379.8,167.9,384.6,165.8,365.9"/>
</g>
</svg>
