<?xml version="1.0" encoding="utf-8"?>
<!-- Generator: Adobe Illustrator 19.0.0, SVG Export Plug-In . SVG Version: 6.00 Build 0)  -->
<svg version="1.1" id="Layer_1" xmlns="http://www.w3.org/2000/svg" xmlns:xlink="http://www.w3.org/1999/xlink" x="0px" y="0px"
	 viewBox="-427 147 500 500" style="enable-background:new -427 147 500 500;" xml:space="preserve">
<style type="text/css">
	.st0{fill:#FFFFFF;}
</style>
<g id="Layer_2">
	<g>
		<path class="st0" d="M-321.5,359c15,0,25.1,2.8,30.1,8.3c5,5.6,6.2,15.1,3.6,28.6c-2.7,14.1-8,24.1-15.8,30.1
			c-7.8,6-19.7,9-35.7,9h-24.1l14.8-76.1H-321.5z M-417.9,512h39.6l9.4-48.3h33.9c15,0,27.3-1.6,36.9-4.7
			c9.7-3.1,18.4-8.4,26.4-15.8c6.6-6.1,12-12.8,16.1-20.2c4.1-7.3,7-15.5,8.7-24.3c4.2-21.5,1-38.3-9.5-50.3
			c-10.5-12-27.2-18-50.1-18h-76.1L-417.9,512z"/>
		<path class="st0" d="M-217.8,282h39.3l-9.4,48.3h35c22,0,37.2,3.8,45.6,11.5c8.4,7.7,10.9,20.1,7.5,37.3l-16.4,84.6h-39.9
			l15.6-80.4c1.8-9.1,1.1-15.4-2-18.7c-3.1-3.3-9.7-5-19.7-5h-31.4l-20.2,104.1h-39.3L-217.8,282z"/>
		<path class="st0" d="M-12.5,359c15,0,25.1,2.8,30.1,8.3c5,5.6,6.2,15.1,3.6,28.6C18.5,410,13.2,420,5.4,426c-7.8,6-19.7,9-35.7,9
			h-24.1l14.8-76.1H-12.5z M-108.9,512h39.6l9.4-48.3H-26c15,0,27.3-1.6,36.9-4.7c9.7-3.1,18.4-8.4,26.4-15.8
			c6.6-6.1,12-12.8,16.1-20.2c4.1-7.3,7-15.5,8.7-24.3c4.2-21.5,1-38.3-9.5-50.3c-10.5-12-27.2-18-50.1-18h-76.1L-108.9,512z"/>
	</g>
</g>
</svg>
