<?xml version="1.0" encoding="utf-8"?>
<!-- Generator: Adobe Illustrator 19.0.0, SVG Export Plug-In . SVG Version: 6.00 Build 0)  -->
<svg version="1.1" id="Layer_1" xmlns="http://www.w3.org/2000/svg" xmlns:xlink="http://www.w3.org/1999/xlink" x="0px" y="0px"
	 viewBox="0 0 511.8 139" style="enable-background:new 0 0 511.8 139;" xml:space="preserve">
<style type="text/css">
	.st0{fill:#3A4E55;}
	.st1{fill:#0468B0;}
	.st2{fill:#FFFFFF;}
	.st3{fill:#259CD8; fill-opacity: 0.8;}
	.st4{fill:#3BB3C3; fill-opacity: 0.8;}
	.st5{fill:#9DCB3B; fill-opacity: 0.8;}
	.st6{fill:#F2AE1D; fill-opacity: 0.8;}
	.st7{fill:#E8786C; fill-opacity: 0.8;}
</style>
<g>
	<g>
		<g id="XMLID_258_">
			<path id="XMLID_277_" class="st0" d="M211.8,62c1.5,1,2.9,2.2,4,3.5c1.2,1.3,2.2,2.8,3,4.4c0.8,1.6,1.4,3.2,1.8,5
				c0.4,1.7,0.6,3.5,0.6,5.3c-0.1,2.3-0.5,4.5-1.2,6.6c-0.7,2.2-1.8,4.1-3.2,6c-1.7,2.3-3.8,4.1-6.3,5.5c-2.5,1.4-5.1,2.3-7.9,2.6
				c-2.8,0.4-5.6,0.2-8.3-0.6c-2.7-0.8-5.2-2-7.5-3.7v-0.1l0,11c0,1.2-0.4,2.1-1.2,2.9c-0.8,0.8-1.8,1.2-2.9,1.2
				c-1.2,0-2.1-0.4-2.9-1.2c-0.8-0.8-1.2-1.8-1.2-2.9l-0.1-27.7v-0.4c0-0.4,0-0.7,0-1c0-0.3,0-0.7,0.1-1c0.2-1.8,0.6-3.6,1.3-5.3
				c0.7-1.7,1.5-3.3,2.6-4.8c1-1.5,2.3-2.8,3.7-4c1.4-1.2,2.9-2.2,4.6-3c3.4-1.6,7-2.3,10.8-2C205.2,58.6,208.6,59.8,211.8,62z
				 M212.9,80.5c0.2-3.1-0.6-5.9-2.3-8.4c-0.9-1.3-2-2.4-3.2-3.3c-1.3-0.9-2.6-1.5-4.1-1.9c-3-0.8-5.9-0.6-8.7,0.6
				c0.4-0.2,0.7-0.3,1.1-0.5c0.4-0.2,0.7-0.3,1.1-0.4c-0.4,0.2-0.9,0.4-1.3,0.5c-0.4,0.2-0.8,0.4-1.2,0.6c-1.6,0.7-3.1,1.8-4.2,3.2
				c-1.6,1.8-2.6,3.9-3,6.3c-0.5,2.3-0.3,4.7,0.5,6.9c0.6,1.7,1.6,3.2,2.8,4.5c1.2,1.3,2.7,2.4,4.4,3.1c1.7,0.7,3.4,1.1,5.3,1.1
				c1.8,0,3.6-0.4,5.2-1.1c0.7-0.4,1.4-0.7,2-1.1c0.6-0.4,1.2-0.9,1.8-1.4c1.1-1.2,2.1-2.5,2.8-4C212.5,83.7,212.8,82.1,212.9,80.5z
				"/>
			<path id="XMLID_275_" class="st0" d="M253.8,59.4c0.8,0.8,1.2,1.7,1.2,2.8c0,1.2-0.4,2.1-1.2,3c-0.8,0.8-1.8,1.2-3,1.2h-0.3
				c-1.7,0.1-3.4,0.5-4.9,1.2c-1.5,0.7-2.9,1.7-4,2.8c-1.1,1.2-2,2.5-2.7,4.1c-0.6,1.6-1,3.2-1,5l0,17.3c0,1.2-0.4,2.1-1.2,2.9
				c-0.8,0.8-1.8,1.2-3,1.2c-1.2,0-2.1-0.4-2.9-1.2c-0.8-0.8-1.2-1.8-1.2-2.9l0-17.3c0-2.9,0.5-5.7,1.6-8.2c1.1-2.5,2.6-4.8,4.4-6.7
				c1.9-1.9,4-3.5,6.6-4.6c2.5-1.2,5.2-1.8,8.1-1.9h0.4h0.1h0.1C252.1,58.2,253,58.6,253.8,59.4z"/>
			<path id="XMLID_272_" class="st0" d="M266.3,55.9c-1.2,0-2.1-0.4-2.9-1.2c-0.8-0.8-1.2-1.8-1.2-2.9c0-1.1,0.4-2.1,1.2-2.9
				c0.8-0.8,1.8-1.2,2.9-1.2c1.2,0,2.1,0.4,3,1.2c0.8,0.8,1.2,1.8,1.2,2.9c0,1.1-0.4,2.1-1.2,2.9C268.5,55.5,267.5,55.9,266.3,55.9z
				 M266.3,60.9c1.2,0,2.1,0.4,3,1.2c0.8,0.8,1.2,1.8,1.2,3l0.1,31.5c0,1.2-0.4,2.1-1.2,3c-0.8,0.8-1.8,1.2-3,1.2
				c-1.2,0-2.1-0.4-2.9-1.2c-0.8-0.8-1.2-1.8-1.2-3l-0.1-31.5c0-1.2,0.4-2.1,1.2-3C264.2,61.3,265.2,60.9,266.3,60.9z"/>
			<path id="XMLID_270_" class="st0" d="M324,100.7c-1.2,0-2.1-0.4-2.9-1.2c-0.8-0.8-1.2-1.8-1.2-2.9L319.8,72l-5.3,5.3
				c-1.1,1.1-2.3,1.9-3.6,2.5c-1.4,0.6-2.8,0.9-4.3,0.9c-1.5,0-2.9-0.3-4.3-0.9c-1.4-0.6-2.6-1.4-3.6-2.5l-5.4-5.4l0.1,24.7
				c0,1.2-0.4,2.1-1.2,2.9c-0.8,0.8-1.8,1.2-2.9,1.2c-1.2,0-2.2-0.4-3-1.2c-0.8-0.8-1.2-1.8-1.2-2.9L285,62.2c0-1.2,0.4-2.1,1.2-2.9
				c0.8-0.8,1.8-1.2,2.9-1.2c0.8,0,1.6,0.2,2.3,0.7v-0.1l0.5,0.5L303.9,71c0.8,0.7,1.7,1.1,2.7,1.1c1,0,1.9-0.4,2.7-1.1l12.2-12.3
				h0.1c0.7-0.5,1.5-0.7,2.3-0.7c1.1,0,2.1,0.4,2.9,1.2c0.8,0.8,1.2,1.8,1.2,2.9l0.1,34.5c0,1.2-0.4,2.1-1.2,2.9
				C326.1,100.3,325.1,100.7,324,100.7z"/>
			<path id="XMLID_267_" class="st0" d="M378.7,79.2c0,1.2-0.5,2.1-1.3,2.9c-0.8,0.8-1.8,1.2-3,1.3l-29.6,0.1
				c0.2,0.5,0.4,1.1,0.7,1.7c0.2,0.4,0.4,0.9,0.7,1.3c0.2,0.4,0.4,0.8,0.7,1.2c-0.2-0.4-0.4-0.7-0.6-1c-0.2-0.3-0.4-0.7-0.5-1
				c0.7,1.3,1.6,2.4,2.7,3.4c1.1,1,2.4,1.8,3.7,2.4c1.5,0.6,3.1,1,4.9,1.1l0.3,0c1.2,0,2.1,0.4,2.9,1.2c0.8,0.8,1.2,1.7,1.2,2.9
				c0,1.2-0.4,2.1-1.2,2.9c-0.8,0.8-1.7,1.2-2.9,1.2c-0.3,0-0.5,0-0.8,0c-0.2,0-0.5,0-0.7-0.1c-1.9-0.1-3.7-0.5-5.5-1.1
				c-1.8-0.6-3.4-1.4-5-2.4c-1.5-1-2.9-2.2-4.2-3.5c-1.2-1.4-2.3-2.9-3.1-4.6c-1.6-3.3-2.4-6.8-2.2-10.5c0.1-3.7,1.2-7.1,3.1-10.3
				c0.2-0.3,0.4-0.5,0.6-0.8c0.2-0.3,0.4-0.6,0.6-0.8c1.6-2.2,3.6-4,6-5.4c2.3-1.4,4.8-2.4,7.5-2.8c3.4-0.5,6.8-0.3,10.1,0.8
				c3.3,1.1,6.2,2.8,8.6,5.3c2,2,3.5,4.2,4.6,6.8c1.1,2.5,1.6,5.2,1.6,8l0,0.1V79.2z M350.2,68.1c-1.3,0.8-2.4,1.9-3.3,3.1
				c-0.9,1.2-1.6,2.5-2.1,4l25-0.1c-0.2-0.7-0.5-1.4-0.9-2.1c-0.8-1.6-2-3-3.4-4.1c-1.5-1.1-3.1-1.9-4.8-2.4
				c-1.7-0.5-3.5-0.6-5.3-0.3C353.5,66.5,351.8,67.2,350.2,68.1z"/>
			<path id="XMLID_264_" class="st0" d="M426.1,79.5c0,0.4,0,0.7,0,1c0,0.3-0.1,0.7-0.1,1c-0.2,1.8-0.7,3.6-1.3,5.3
				c-0.7,1.7-1.5,3.3-2.6,4.7c-1,1.5-2.3,2.8-3.7,4c-1.4,1.2-2.9,2.2-4.6,3c-3.4,1.6-7,2.3-10.8,2c-3.8-0.3-7.2-1.4-10.4-3.6
				c-3-2-5.4-4.7-7-7.9c-1.7-3.3-2.5-6.7-2.4-10.3c0.1-2.3,0.5-4.5,1.2-6.6c0.7-2.1,1.8-4.1,3.2-5.9c1.7-2.3,3.8-4.1,6.3-5.5
				c2.5-1.4,5.1-2.3,7.9-2.6c2.8-0.4,5.6-0.2,8.3,0.6c2.8,0.7,5.2,2,7.5,3.7h0.1l0-11c0-1.2,0.4-2.1,1.2-2.9
				c0.8-0.8,1.8-1.2,2.9-1.2c1.2,0,2.1,0.4,2.9,1.2c0.8,0.8,1.2,1.8,1.2,2.9l0.1,27.3L426.1,79.5z M414.6,87.8
				c1.5-1.8,2.6-3.9,3-6.2c0.5-2.3,0.3-4.6-0.5-6.9c-0.6-1.7-1.6-3.3-2.8-4.6c-1.3-1.3-2.7-2.3-4.4-3.1c-1.7-0.7-3.4-1.1-5.3-1.1
				c-1.8,0-3.6,0.4-5.2,1.1c-0.7,0.4-1.4,0.7-2,1.1c-0.6,0.4-1.2,0.9-1.8,1.4c-1.2,1.2-2.1,2.5-2.8,4c-0.7,1.5-1.1,3.1-1.2,4.8
				c-0.1,1.5,0.1,2.9,0.4,4.4c0.4,1.4,1,2.8,1.9,4c0.9,1.3,2,2.4,3.2,3.3c1.3,0.9,2.6,1.6,4.1,2c1.4,0.3,2.9,0.5,4.4,0.4
				c1.5-0.1,2.9-0.5,4.3-1.1c-0.4,0.2-0.7,0.3-1.1,0.5c-0.4,0.2-0.7,0.3-1.1,0.4c0.8-0.3,1.7-0.7,2.6-1.1
				C412,90.2,413.4,89.1,414.6,87.8z"/>
			<g id="XMLID_259_">
				<g id="XMLID_260_">
					<path id="XMLID_261_" class="st1" d="M480.2,46.7c4.3-0.7,8.6-0.4,12.7,0.9c4.2,1.3,7.8,3.6,10.9,6.7c2.5,2.5,4.5,5.4,5.9,8.8
						c1.4,3.3,2.1,6.8,2,10.4c0,2.9-0.4,5.6-1.4,8.4c-0.9,2.7-2.2,5.2-3.9,7.5c-2.7,3.7-6.2,6.5-10.4,8.5c-4.2,1.9-8.6,2.8-13.1,2.5
						c-2.4-0.2-4.7-0.6-6.9-1.4c-2.2-0.8-4.3-1.8-6.3-3.1c-1.9-1.3-3.7-2.8-5.3-4.5c-1.6-1.7-2.9-3.7-4-5.8c-1-2.1-1.8-4.2-2.2-6.5
						c-0.5-2.2-0.7-4.5-0.6-6.8c0.1-2.3,0.5-4.5,1.1-6.7c0.6-2.2,1.6-4.3,2.8-6.3c0.4-0.7,0.9-1.5,1.4-2.2h0.1
						c2.1-2.8,4.6-5.1,7.5-6.8C473.7,48.5,476.9,47.3,480.2,46.7z M498.5,82.7c1.2-1.7,2-3.6,2.5-5.6c0.5-2,0.6-4.1,0.3-6.1
						c-0.3-2.1-1-3.9-1.9-5.5c-1.1-2-2.6-3.7-4.4-5.2c-1.8-1.5-3.8-2.5-6.1-3c-2.2-0.6-4.4-0.7-6.7-0.4c-2.3,0.3-4.4,1.1-6.4,2.4
						c-2.5,1.6-4.5,3.8-5.9,6.5c-1.4,2.7-2,5.6-1.8,8.6c0.1,2.4,0.7,4.5,1.8,6.6c0.3,0.5,0.6,1,0.8,1.6c0.3,0.5,0.6,1,0.9,1.6
						c-0.5-0.8-1-1.7-1.4-2.6c0.9,1.6,2.1,3.1,3.5,4.3c1.4,1.3,3,2.3,4.7,3.1c1.8,0.8,3.7,1.2,5.6,1.3c2,0.1,3.9-0.2,5.7-0.8
						c1.8-0.6,3.4-1.4,5-2.5C496.1,85.6,497.4,84.2,498.5,82.7z"/>
				</g>
			</g>
		</g>
	</g>
	<path id="XMLID_65_" class="st1" d="M446.2,96.3c0.1-0.4,0.1-0.8,0.1-1.2l-0.1-43.3c0-2.9-1.9-5.2-4.2-5.2c-1.6,0-3,1.1-3.7,2.8
		c-0.2,0.4-0.3,0.8-0.4,1.3c-0.1,0.4-0.1,0.7-0.1,1.1l0.1,43.3c0,0.2,0,0.5,0.1,0.7l0,0.3c0,1.2,0.4,2.1,1.2,3
		c0.6,0.6,1.3,1,2.1,1.2c0.3,0.1,0.6,0.1,0.9,0.1c0.4,0,0.9-0.1,1.2-0.3c0.6-0.2,1.2-0.5,1.6-1C445.7,98.4,446.1,97.4,446.2,96.3z"
		/>
</g>
<g>
	<g>
		<circle id="XMLID_19_" class="st2" cx="47.2" cy="65.4" r="2.3"/>
		<path class="st2" d="M146.4,45.4c0,0-8.8,3.9-21.8,11.4c-1.1-11.1-4.4-23.9-11-38.3c0,0-7.7,5.7-18.4,16C90.4,24,83.2,12.5,73.1,0
			c0,0-10.1,13.1-20,34.8C47,29.1,39.9,23.2,31.5,17c0,0-7.2,16.6-10.8,39.3c-5.3-3.8-11.3-7.7-18-11.8c0,0-16.6,69.7,32.8,92.6
			c0.1,0.2,0.2,0.3,0.3,0.5c0,0,0.2,0,0.5-0.1c0.1,0,0.2,0.1,0.3,0.1c-3.1-3.3-5.7-6.8-7.7-10.7c-0.3-0.4-0.6-0.9-0.8-1.5
			c-1-2.2-1.9-4.5-2.6-6.8c0,0,0,0.1,0,0.1c-1.9-6.3-2.9-13.4-2.3-21.1c0,0,0,0,0-0.1c0.1-1.7,0.3-3.4,0.6-5.1c0-0.1,0-0.1,0-0.2
			c0.1-0.8,0.3-1.7,0.5-2.5c0-0.1,0-0.2,0.1-0.3c0.3-1.7,0.8-3.4,1.2-5.1c0-0.1,0.1-0.3,0.1-0.4c0.2-0.8,0.5-1.7,0.8-2.5
			c0.1-0.2,0.1-0.3,0.2-0.5c0.3-0.9,0.6-1.7,0.9-2.6c0.3-0.7,0.5-1.3,0.8-2c0.1-0.2,0.2-0.4,0.3-0.6c0.2-0.4,0.4-0.9,0.6-1.3
			c0.1-0.2,0.2-0.5,0.3-0.7c0.2-0.4,0.3-0.7,0.5-1c0.1-0.2,0.2-0.5,0.4-0.7c0.2-0.3,0.3-0.6,0.5-0.9c0.1-0.2,0.3-0.5,0.4-0.7
			c0.2-0.3,0.3-0.6,0.5-0.8c0.1-0.2,0.3-0.4,0.4-0.6c0.2-0.3,0.4-0.5,0.5-0.8c0.1-0.2,0.3-0.4,0.4-0.6c0.2-0.3,0.4-0.6,0.6-0.8
			c0.1-0.1,0.2-0.3,0.3-0.4c3-3.7,6.1-5.8,8.5-6.5c0,0,0.1,0,0.1,0c0.3-0.1,0.5-0.1,0.8-0.2c0,0,0,0,0,0c2.5-0.6,4.5-0.2,5.4,0
			c3.3,0.7,8.8,2.9,17.4,8.5c0,0,0,0,0,0c0.7,0.5,1.5,0.9,2.3,1.5c0,0-12.8-1-19.7,5.2c-4.1,4.2-4.6,12.7-1.5,20.6c0,0,0,0,0,0
			c0.2,0.6,0.5,1.2,0.8,1.8c0,0.1,0.1,0.1,0.1,0.2c0.3,0.6,0.6,1.1,0.9,1.7c0,0,0,0.1,0.1,0.1c0.3,0.5,0.6,1.1,1,1.6
			c0,0,0.1,0.1,0.1,0.1c0.3,0.5,0.7,1,1.1,1.5c0.1,0.1,0.1,0.2,0.2,0.3c0.1,0.1,0.2,0.3,0.3,0.4c0,0,0.1,0.1,0.1,0.1
			c0.2,0.3,0.4,0.5,0.6,0.8c0,0,0.1,0.1,0.1,0.1c0.1,0.1,0.1,0.1,0.2,0.2c0.1,0.1,0.1,0.1,0.2,0.2c0.1,0.1,0.2,0.2,0.3,0.4
			c0.3,0.3,0.6,0.6,0.9,0.9c0.3,0.3,0.6,0.5,0.8,0.8c0.1,0.1,0.1,0.1,0.2,0.2c0.2,0.2,0.5,0.4,0.7,0.6c0,0,0.1,0,0.1,0.1
			c2.6,2.1,5.5,3.7,8.6,4.8c0.1,0,0.1,0,0.2,0.1c0.9,0.3,1.8,0.6,2.7,0.8c0.1,0,0.2,0.1,0.3,0.1c0.4,0.1,0.9,0.2,1.3,0.3
			c0,0,0,0,0,0.1c1.6,0.2,3.3,0.4,4.9,0.4c0.6,0,1.1,0,1.7,0c0.1,0,0.2,0,0.3,0c0.5,0,1,0,1.5,0c0,0,0,0,0.1,0
			c15.8-0.3,30-7.3,39.9-18.3c0,0.1,0,0.1,0,0.2c0,0,0,0,0,0c2.9,14.8-1.3,30.6-12.6,42.2c-0.3,0.4-0.7,0.7-1.1,1
			C123.5,131.1,147.5,108.5,146.4,45.4z M31.4,64.2C31.3,64.2,31.3,64.2,31.4,64.2c-4.6,0.5-7.4-2.8-7.4-2.8
			c0.2-0.1,0.4-0.2,0.6-0.3c0,0,0,0,0,0c0.6-0.3,1.3-0.5,1.9-0.6c0,0,0,0,0,0c4.9-1,8.7,2.5,8.7,2.5C33.8,63.7,32.5,64,31.4,64.2z
			 M24.5,48.3C34.8,49.5,37,60,37,60C25.4,58.5,24.5,48.3,24.5,48.3z M40.6,58.5c-6.1-4.8-3.1-10.9-3.1-10.9
			C42.9,51.8,40.6,58.5,40.6,58.5z"/>
	</g>
	<g>
		<path id="XMLID_14_" class="st3" d="M46.9,78.1c-3.2,7.3-0.8,19.8,7.4,27.8c2.3,2.2,4.8,3.9,7.5,5.2
			C63.3,103.8,61.1,92.9,46.9,78.1z"/>
		<g>
			<path id="XMLID_13_" class="st4" d="M32.7,132.9c1,1.6,2,3.1,3.1,4.6c0,0,0.3,0,0.6-0.1C35.1,136,33.8,134.5,32.7,132.9z"/>
			<circle id="XMLID_12_" class="st4" cx="47.2" cy="65.4" r="2.3"/>
		</g>
		<g>
			<path id="XMLID_11_" class="st5" d="M49,59.7c3.6,0.8,9.7,3.3,19.7,10c0,0-12.8-1-19.7,5.2c-6,6.2-4.3,21.7,5.3,31
				c4.3,4.1,9.5,6.7,14.9,7.6c0,0,0,0,0,0.1c1.6,0.2,3.3,0.4,4.9,0.4c4.6,0.2,9.1-0.2,13.4-1.1C104,95.9,121.3,60.2,73.1,0
				c0,0-18.2,23.5-29.6,59.7C46,59.1,48,59.4,49,59.7z"/>
			<circle id="XMLID_10_" class="st5" cx="47.2" cy="65.4" r="2.3"/>
			<path id="XMLID_9_" class="st5" d="M35.7,136.7c0,0.1,0,0.3,0,0.4c0,0,0.1,0,0.3,0C36,136.9,35.8,136.8,35.7,136.7z"/>
		</g>
		<g>
			<path id="XMLID_8_" class="st6" d="M68.6,69.7c0,0-1.3-0.1-3.3,0c-6,8.6-11.7,18.2-16.6,28.6c1.4,2.7,3.2,5.4,5.5,7.6
				c4.3,4.1,9.5,6.7,14.9,7.6c0,0,0,0,0,0.1c1.6,0.2,3.3,0.4,4.9,0.4c17.1,0.7,32.8-6.4,43.3-18.3c0,0.1,0,0.1,0,0.2
				c9.2-17.1,12.2-42-3.8-77.4c0,0-25.2,18.5-47.3,49.8C67.1,68.7,67.8,69.1,68.6,69.7z"/>
			<path id="XMLID_7_" class="st6" d="M36.1,137.1c0,0.1-0.1,0.2-0.1,0.4c0,0,0.2,0,0.4,0C36.3,137.3,36.2,137.2,36.1,137.1z"/>
		</g>
		<path id="XMLID_6_" class="st7" d="M146.4,45.4c0,0-51,22.6-88.6,63.4c3.5,2.4,7.4,4,11.4,4.7c0,0,0,0,0,0.1
			c1.6,0.2,3.3,0.4,4.9,0.4c17.1,0.7,32.8-6.4,43.3-18.3c2.9,14.8-1.2,30.8-12.5,42.4c-0.3,0.4-0.7,0.7-1.1,1
			C123.5,131.1,147.5,108.5,146.4,45.4z"/>
		<path id="XMLID_5_" class="st3" d="M28.9,126.9c-0.3-0.4-0.6-0.9-0.8-1.5c-5.7-12.5-7.4-28.3-0.5-47.1c1.9-5.1,4.2-9,6.5-11.9
			c-0.9-0.7-1.8-1.5-2.8-2.2c-4.6,0.5-7.4-2.7-7.4-2.7c0.9-0.5,1.7-0.8,2.6-0.9c-6.7-5-14.6-10.3-23.8-16c0,0-16.9,70.8,33.9,93.1
			C33.5,134.3,30.9,130.7,28.9,126.9z"/>
		<path class="st4" d="M31.5,17c0,0-24,55.4-5.9,101.8c-3.5-11.3-3.7-24.8,2.1-40.4c4.3-11.6,10.7-17.1,15.1-18.5c0,0,0.1,0,0.1,0
			c2.9-0.8,5.2-0.4,6.2-0.1c3.6,0.8,9.7,3.3,19.7,10c0,0-12.8-1-19.7,5.2c-6,6.2-4.3,21.7,5.3,31c4.3,4.1,9.5,6.7,14.9,7.6
			c0,0,0,0,0,0.1c1.6,0.2,3.1,0.3,4.7,0.4C86.5,100.2,100.4,67.9,31.5,17z M23.9,61.4c6-3.3,11.3,1.5,11.3,1.5
			C28.4,66.6,23.9,61.4,23.9,61.4z M24.5,48.3C34.8,49.5,37,60,37,60C25.4,58.5,24.5,48.3,24.5,48.3z M40.6,58.5
			c-6.1-4.8-3.1-10.9-3.1-10.9C42.9,51.8,40.6,58.5,40.6,58.5z"/>
	</g>
</g>
</svg>
