<?xml version="1.0" encoding="utf-8"?>
<!-- Generator: Adobe Illustrator 21.0.0, SVG Export Plug-In . SVG Version: 6.00 Build 0)  -->
<svg version="1.0" id="Layer_1" xmlns="http://www.w3.org/2000/svg" xmlns:xlink="http://www.w3.org/1999/xlink" x="0px" y="0px"
	 viewBox="0 0 286 212" style="enable-background:new 0 0 286 212;" xml:space="preserve">
<style type="text/css">
	.st0a{fill:url(#SVGID_1_BCBCB);}
	.st1hhfgt{fill:#FFFFFF;}
	.st2bbubbuytd{fill:url(#SVGID_2_YTYT);}
</style>
<g>
	<g>
		<linearGradient id="SVGID_1_BCBCB" gradientUnits="userSpaceOnUse" x1="0.7668" y1="196.5496" x2="243.7668" y2="14.5496">
			<stop  offset="0" style="stop-color:#201C38"/>
			<stop  offset="1" style="stop-color:#3E396B"/>
		</linearGradient>
		<path class="st0a" d="M248.5,25.2H9.8c-2.6,0-4.7,2.1-4.7,4.7v140.9c0,2.6,2.1,4.7,4.7,4.7h81c2.6,0,4.7,2.1,4.7,4.7v14.4
			c0,2.6-2.1,4.7-4.7,4.7H69.7c-2.6,0-4.7,2.1-4.7,4.7l0,0c0,2.6,2.1,4.7,4.7,4.7h119c2.6,0,4.7-2.1,4.7-4.7l0,0
			c0-2.6-2.1-4.7-4.7-4.7h-21.2c-2.6,0-4.7-2.1-4.7-4.7v-14.4c0-2.6,2.1-4.7,4.7-4.7h81c2.6,0,4.7-2.1,4.7-4.7V29.9
			C253.3,27.3,251.1,25.2,248.5,25.2z"/>
		<g>
			<g>
				<path class="st1hhfgt" d="M151.4,74h-42.6c-1.5,0-2.8-1.2-2.8-2.8s1.2-2.8,2.8-2.8h42.6c1.5,0,2.8,1.2,2.8,2.8S152.9,74,151.4,74z"/>
			</g>
			<g>
				<path class="st1hhfgt" d="M130.1,117.2c-1.5,0-2.8-1.2-2.8-2.8V71.8c0-1.5,1.2-2.8,2.8-2.8s2.8,1.2,2.8,2.8v42.6
					C132.9,116,131.6,117.2,130.1,117.2z"/>
			</g>
			<g>
				<path class="st1hhfgt" d="M106.1,136.6c-0.7,0-1.4-0.3-2-0.8c-1.1-1.1-1.1-2.8,0-3.9l7.1-7.1c1.1-1.1,2.8-1.1,3.9,0l4.6,4.6l4.2-4.2
					c1.1-1.1,2.8-1.1,3.9,0l4,4l3.6-3.6c1-1,2.9-1,3.9,0l3.4,3.4l3.6-3.6c1.1-1.1,2.8-1.1,3.9,0l5.9,5.9c1.1,1.1,1.1,2.8,0,3.9
					c-1.1,1.1-2.8,1.1-3.9,0l-4-4l-3.6,3.6c-1.1,1.1-2.8,1.1-3.9,0l-3.4-3.4l-3.6,3.6c-1,1-2.9,1-3.9,0l-4-4l-4.2,4.2
					c-1.1,1.1-2.8,1.1-3.9,0l-4.6-4.6l-5.1,5.1C107.5,136.3,106.8,136.6,106.1,136.6z"/>
			</g>
		</g>
	</g>
	<g>
		<linearGradient id="SVGID_2_YTYT" gradientUnits="userSpaceOnUse" x1="203.3811" y1="42.5591" x2="280.4993" y2="42.5591">
			<stop  offset="0" style="stop-color:#1DC5CE"/>
			<stop  offset="1" style="stop-color:#2CDD97"/>
		</linearGradient>
		<circle class="st2bbubbuytd" cx="241.9" cy="42.6" r="38.6"/>
		<path class="st1hhfgt" d="M260.3,33.4l-23,23l-13.8-13.8c-1-1-1-2.8,0-3.8c1-1,2.8-1,3.8,0l9.9,9.9l19.2-19.2c1-1,2.8-1,3.8,0
			C261.4,30.7,261.4,32.3,260.3,33.4z"/>
	</g>
</g>
</svg>
