<?xml version="1.0" encoding="utf-8"?>
<!-- Generator: Adobe Illustrator 21.0.0, SVG Export Plug-In . SVG Version: 6.00 Build 0)  -->
<svg version="1.0" id="Layer_1" xmlns="http://www.w3.org/2000/svg" xmlns:xlink="http://www.w3.org/1999/xlink" x="0px" y="0px"
	 viewBox="0 0 284 193" style="enable-background:new 0 0 284 193;" xml:space="preserve">
<style type="text/css">
	.st0IIDLDJSRS{fill:url(#SVGID_1_NNDGRRZ);}
	.st1BBCGDTSREZX{fill:url(#SVGID_2_NNCHDGT);}
</style>
<linearGradient id="SVGID_1_NNDGRRZ" gradientUnits="userSpaceOnUse" x1="220.0934" y1="48.1385" x2="89.8463" y2="178.3856" gradientTransform="matrix(1 0 0 -1 0 194.98)">
	<stop  offset="0" style="stop-color:#2CDD97"/>
	<stop  offset="1" style="stop-color:#1DC5CE"/>
</linearGradient>
<path class="st0IIDLDJSRS" d="M228,29H82c-2.4,0-4.4,1.4-4.4,3v99.5c0,1.7,2,3,4.4,3h145.9c2.4,0,4.4-1.4,4.4-3V32
	C232.5,30.4,230.5,29,228,29z M115,58.4h50.1c2.2,0,4,1.8,4,4s-1.8,4-4,4H115c-2.2,0-4-1.8-4-4C111.1,60.1,112.9,58.4,115,58.4z
	 M115,78.9h42c2.2,0,4,1.8,4,4s-1.8,4-4,4h-42c-2.2,0-4-1.8-4-4C111.1,80.6,112.9,78.9,115,78.9z M101.5,103.3c0,2.2-1.8,4-4,4
	s-4-1.8-4-4l0,0c0-2.2,1.8-4,4-4C99.8,99.4,101.5,101.1,101.5,103.3L101.5,103.3z M97.6,86.8c-2.2,0-4-1.8-4-4s1.8-4,4-4s4,1.8,4,4
	C101.5,85,99.8,86.8,97.6,86.8z M97.6,66.3c-2.2,0-4-1.8-4-4s1.8-4,4-4s4,1.8,4,4C101.5,64.5,99.8,66.3,97.6,66.3z M169.1,103.3
	c0,2.2-1.8,4-4,4H115c-2.2,0-4-1.8-4-4l0,0c0-2.2,1.8-4,4-4h50.1C167.3,99.4,169.1,101.1,169.1,103.3L169.1,103.3z M209.8,103.3
	c0,2.2-1.8,4-4,4h-25.5c-2.2,0-4-1.8-4-4l0,0c0-2.2,1.8-4,4-4h25.5C208,99.4,209.8,101.1,209.8,103.3L209.8,103.3z M205.8,86.8
	h-33.7c-2.2,0-4-1.8-4-4s1.8-4,4-4h33.7c2.2,0,4,1.8,4,4S208,86.8,205.8,86.8z M205.8,66.3h-25.5c-2.2,0-4-1.8-4-4s1.8-4,4-4h25.5
	c2.2,0,4,1.8,4,4S208,66.3,205.8,66.3z"/>
<linearGradient id="SVGID_2_NNCHDGT" gradientUnits="userSpaceOnUse" x1="50.9" y1="70.93" x2="102.6623" y2="70.93" gradientTransform="matrix(1 0 0 -1 0 194.98)">
	<stop  offset="0" style="stop-color:#201C38"/>
	<stop  offset="1" style="stop-color:#3E396B"/>
</linearGradient>
<path class="st1BBCGDTSREZX" d="M94.6,77H58.9c-4.4,0-8,3.6-8,8v78.1c0,4.4,3.6,8,8,8h35.7c4.4,0,8-3.6,8-8V85C102.7,80.6,99.1,77,94.6,77z
	 M76.8,163.8c-2.7,0-4.9-2.2-4.9-4.9s2.2-4.9,4.9-4.9c2.7,0,4.9,2.2,4.9,4.9C81.7,161.6,79.5,163.8,76.8,163.8z"/>
</svg>
