<?xml version="1.0" encoding="utf-8"?>
<!-- Generator: Adobe Illustrator 19.0.0, SVG Export Plug-In . SVG Version: 6.00 Build 0)  -->
<svg version="1.1" id="Capa_1" xmlns="http://www.w3.org/2000/svg" xmlns:xlink="http://www.w3.org/1999/xlink" x="0px" y="0px"
	 viewBox="-276 368 58 58" style="enable-background:new -276 368 58 58;" xml:space="preserve">
<style type="text/css">
	.st0{fill:#F4AE00;}
	.st1{fill:#FFFFFF;}
</style>
<circle class="st0" cx="-247" cy="397" r="29"/>
<g>
	<polygon class="st1" points="-232,397 -254,412 -254,397.3 -254,382 	"/>
	<path class="st1" d="M-254,413c-0.2,0-0.3,0-0.5-0.1c-0.3-0.2-0.5-0.5-0.5-0.9v-30c0-0.4,0.2-0.7,0.5-0.9c0.3-0.2,0.7-0.1,1,0.1
		l22,15c0.3,0.2,0.4,0.5,0.4,0.8s-0.2,0.6-0.4,0.8l-22,15C-253.6,412.9-253.8,413-254,413z M-253,383.9v26.2l19.2-13.1L-253,383.9z"
		/>
</g>
</svg>
