<?xml version="1.0" encoding="UTF-8"?>
<svg width="48px" height="48px" viewBox="0 0 48 48" version="1.1" xmlns="http://www.w3.org/2000/svg" xmlns:xlink="http://www.w3.org/1999/xlink" aria-hidden="true">
    <defs>
        <rect id="path-1" x="0" y="0" width="48" height="48" rx="6"></rect>
        <path d="M17,28 L29.9991358,28 C31.0983727,28 32,27.1072288 32,26.0059397 L32,13.9940603 C32,12.8945138 31.1041826,12 29.9991358,12 L11.0008642,12 C9.90162726,12 9,12.8927712 9,13.9940603 L9,26.0059397 C9,27.1054862 9.89581743,28 11.0008642,28 L12,28 L17,33 L17,28 Z" id="path-2"></path>
        <path d="M35.2608696,33.2380952 L39.008845,33.2380952 C40.1103261,33.2380952 41,32.346195 41,31.2459804 L41,19.9921148 C41,18.8963229 40.1085295,18 39.008845,18 L20.991155,18 C19.8896739,18 19,18.8919002 19,19.9921148 L19,31.2459804 C19,32.3417724 19.8914705,33.2380952 20.991155,33.2380952 L30.4782609,33.2380952 L35.2608696,38 L35.2608696,33.2380952 Z" id="path-3"></path>
        <circle id="path-4" cx="25" cy="26" r="2"></circle>
        <circle id="path-5" cx="30" cy="26" r="2"></circle>
        <circle id="path-6" cx="35" cy="26" r="2"></circle>
    </defs>
    <g id="Work-space" stroke="none" stroke-width="1" fill="none" fill-rule="evenodd">
        <g id="Product-Search" transform="translate(-252.000000, -1584.000000)">
            <g id="Group-2" transform="translate(252.000000, 1584.000000)">
                <g id="Rectangle-4-Copy-6">
                    <use fill-opacity="0.1" fill="#FFFFFF" fill-rule="evenodd" xlink:href="#path-1"></use>
                    <rect stroke="#8995C7" stroke-width="1" x="0.5" y="0.5" width="47" height="47" rx="6"></rect>
                </g>
                <g id="Combined-Shape">
                    <use fill-opacity="0.3" fill="#A6B0D8" fill-rule="evenodd" xlink:href="#path-2"></use>
                    <path stroke="#8995C7" stroke-width="1" d="M16.5,31.7928932 L12.3535534,27.6464466 L12.2071068,27.5 L12,27.5 L11.0008642,27.5 C10.1722501,27.5 9.5,26.8296315 9.5,26.0059397 L9.5,13.9940603 C9.5,13.1715166 10.1751594,12.5 11.0008642,12.5 L29.9991358,12.5 C30.8277499,12.5 31.5,13.1703685 31.5,13.9940603 L31.5,26.0059397 C31.5,26.8284834 30.8248406,27.5 29.9991358,27.5 L17,27.5 L16.5,27.5 L16.5,28 L16.5,31.7928932 Z"></path>
                </g>
                <g id="Combined-Shape" transform="translate(30.000000, 28.000000) scale(-1, 1) translate(-30.000000, -28.000000) ">
                    <use fill="#F8FAFF" fill-rule="evenodd" xlink:href="#path-3"></use>
                    <path stroke="#8995C7" stroke-width="1" d="M34.7608696,36.7965866 L30.8310465,32.8837758 L30.6847326,32.7380952 L30.4782609,32.7380952 L20.991155,32.7380952 C20.1693629,32.7380952 19.5,32.0673827 19.5,31.2459804 L19.5,19.9921148 C19.5,19.1672978 20.1665606,18.5 20.991155,18.5 L39.008845,18.5 C39.8306371,18.5 40.5,19.1707126 40.5,19.9921148 L40.5,31.2459804 C40.5,32.0707975 39.8334394,32.7380952 39.008845,32.7380952 L35.2608696,32.7380952 L34.7608696,32.7380952 L34.7608696,33.2380952 L34.7608696,36.7965866 Z"></path>
                </g>
                <g id="Oval-3">
                    <use fill-opacity="0.3" fill="#A6B0D8" fill-rule="evenodd" xlink:href="#path-4"></use>
                    <circle stroke="#8995C7" stroke-width="1" cx="25" cy="26" r="1.5"></circle>
                </g>
                <g id="Oval-3-Copy">
                    <use fill-opacity="0.3" fill="#A6B0D8" fill-rule="evenodd" xlink:href="#path-5"></use>
                    <circle stroke="#8995C7" stroke-width="1" cx="30" cy="26" r="1.5"></circle>
                </g>
                <g id="Oval-3-Copy-2">
                    <use fill-opacity="0.3" fill="#A6B0D8" fill-rule="evenodd" xlink:href="#path-6"></use>
                    <circle stroke="#8995C7" stroke-width="1" cx="35" cy="26" r="1.5"></circle>
                </g>
            </g>
        </g>
    </g>
</svg>