<?xml version="1.0" encoding="iso-8859-1"?>
<!-- Generator: Adobe Illustrator 19.0.0, SVG Export Plug-In . SVG Version: 6.00 Build 0)  -->
<svg xmlns="http://www.w3.org/2000/svg" xmlns:xlink="http://www.w3.org/1999/xlink" version="1.1" id="Capa_1" x="0px" y="0px" viewBox="0 0 237.947 237.947" style="enable-background:new 0 0 237.947 237.947;" xml:space="preserve" width="512px" height="512px">
<g>
	<g>
		<g>
			<path d="M89.857,119.002l91.883-91.883c6.198-6.198,6.198-16.273,0-22.47s-16.273-6.198-22.47,0     L56.199,107.719c-3.115,3.115-4.64,7.183-4.64,11.283s1.526,8.168,4.64,11.283L159.27,233.323c6.198,6.166,16.273,6.166,22.47,0     c6.198-6.198,6.198-16.304,0-22.47L89.857,119.002z" fill="#666666"/>
		</g>
	</g>
</g>
<g>
</g>
<g>
</g>
<g>
</g>
<g>
</g>
<g>
</g>
<g>
</g>
<g>
</g>
<g>
</g>
<g>
</g>
<g>
</g>
<g>
</g>
<g>
</g>
<g>
</g>
<g>
</g>
<g>
</g>
</svg>
