<?xml version="1.0" encoding="UTF-8"?>
<svg width="172px" height="172px" viewBox="0 0 172 172" version="1.1" xmlns="http://www.w3.org/2000/svg" xmlns:xlink="http://www.w3.org/1999/xlink">
    <!-- Generator: Sketch 48.2 (47327) - http://www.bohemiancoding.com/sketch -->
    <title>badge-customer-white</title>
    <desc>Created with Sketch.</desc>
    <defs></defs>
    <g id="Artboard-18" stroke="none" stroke-width="1" fill="none" fill-rule="evenodd" transform="translate(-573.000000, -716.000000)">
        <g id="badge-customer-white" transform="translate(573.000000, 716.000000)">
            <circle id="Oval-1221" fill="#EEF0F7" fill-rule="nonzero" cx="86.2525435" cy="86.2974238" r="85.5494505"></circle>
            <g id="Group-91" transform="translate(46.329467, 45.626374)" stroke="#3E396B" stroke-width="3.79999995">
                <path d="M47.468136,51.5214526 C57.7918526,47.8603679 65.8353692,38.1941381 65.8353692,26.6153846 C65.8353692,11.9161136 53.9192556,0 39.2199846,0 C24.5207135,0 12.6045999,11.9161136 12.6045999,26.6153846 C12.6045999,38.0037337 19.7572106,47.7215012 29.8151968,51.5214517" id="Oval-3605"></path>
                <path d="M77.8408491,77.9989294 L0.370111915,77.9989294 C0.370111915,77.9989294 -4.6191349,50.799593 38.8203546,50.799593 C82.2598441,50.799593 77.8408491,77.9989294 77.8408491,77.9989294 Z" id="Path-5461" stroke-linecap="round" stroke-linejoin="round"></path>
                <path d="M32.3529659,0.663249592 C32.3529659,0.663249592 32.606221,23.2239468 13.2539255,27.1876637" id="Path-5462"></path>
                <path d="M32.222214,1.7859933 C32.222214,1.7859933 26.5787883,30.9712961 65.5127951,26.5179162" id="Path-5463"></path>
                <polyline id="Path-5465" stroke-linecap="round" stroke-linejoin="round" points="32.4231847 51.1280035 38.5165873 62.3456938 44.799357 51.130092"></polyline>
                <path d="M63.0607673,66.5384615 L52.752263,66.5384615" id="Path-5466" stroke-linecap="round" stroke-linejoin="round"></path>
            </g>
        </g>
    </g>
</svg>