<?xml version="1.0" encoding="UTF-8"?>
<svg width="171px" height="171px" viewBox="0 0 171 171" version="1.1" xmlns="http://www.w3.org/2000/svg" xmlns:xlink="http://www.w3.org/1999/xlink">
    <!-- Generator: Sketch 48.2 (47327) - http://www.bohemiancoding.com/sketch -->
    <title>badge-cpu-white</title>
    <desc>Created with Sketch.</desc>
    <defs></defs>
    <g id="Artboard-18" stroke="none" stroke-width="1" fill="none" fill-rule="evenodd" transform="translate(-575.000000, -408.000000)">
        <g id="badge-cpu-white" transform="translate(575.000000, 408.000000)" fill-rule="nonzero">
            <circle id="Oval-1221-Copy" fill="#EEF0F7" cx="85.5" cy="85.5" r="85.5"></circle>
            <g id="cpu" transform="translate(51.300000, 51.300000)" fill="#3E396B">
                <path d="M51.3,17.1 L51.3,51.3 L17.1,51.3 L17.1,17.1 L51.3,17.1 Z M13.3,13.3 L13.3,15.2 L13.3,53.2 L13.3,55.1 L15.2,55.1 L53.2,55.1 L55.1,55.1 L55.1,53.2 L55.1,15.2 L55.1,13.3 L53.2,13.3 L15.2,13.3 L13.3,13.3 Z" id="chip"></path>
                <path d="M24.7,3.8 L28.5,3.8 L28.5,13.3 L24.7,13.3 L24.7,3.8 Z M22.8,0 L20.9,0 L20.9,1.9 L20.9,15.2 L20.9,17.1 L22.8,17.1 L30.4,17.1 L32.3,17.1 L32.3,15.2 L32.3,1.9 L32.3,0 L30.4,0 L22.8,0 Z" id="connection-1"></path>
                <path d="M39.9,3.8 L43.7,3.8 L43.7,13.3 L39.9,13.3 L39.9,3.8 Z M38,0 L36.1,0 L36.1,1.9 L36.1,15.2 L36.1,17.1 L38,17.1 L45.6,17.1 L47.5,17.1 L47.5,15.2 L47.5,1.9 L47.5,0 L45.6,0 L38,0 Z" id="connection-2"></path>
                <path d="M24.7,55.1 L28.5,55.1 L28.5,64.6 L24.7,64.6 L24.7,55.1 Z M22.8,51.3 L20.9,51.3 L20.9,53.2 L20.9,66.5 L20.9,68.4 L22.8,68.4 L30.4,68.4 L32.3,68.4 L32.3,66.5 L32.3,53.2 L32.3,51.3 L30.4,51.3 L22.8,51.3 Z" id="connection-3"></path>
                <path d="M39.9,55.1 L43.7,55.1 L43.7,64.6 L39.9,64.6 L39.9,55.1 Z M38,51.3 L36.1,51.3 L36.1,53.2 L36.1,66.5 L36.1,68.4 L38,68.4 L45.6,68.4 L47.5,68.4 L47.5,66.5 L47.5,53.2 L47.5,51.3 L45.6,51.3 L38,51.3 Z" id="connection-4"></path>
                <path d="M57.95,21.85 L61.75,21.85 L61.75,31.35 L57.95,31.35 L57.95,21.85 Z M56.05,18.05 L54.15,18.05 L54.15,19.95 L54.15,33.25 L54.15,35.15 L56.05,35.15 L63.65,35.15 L65.55,35.15 L65.55,33.25 L65.55,19.95 L65.55,18.05 L63.65,18.05 L56.05,18.05 Z" id="connection-5" transform="translate(59.850000, 26.600000) rotate(90.000000) translate(-59.850000, -26.600000) "></path>
                <path d="M57.95,37.05 L61.75,37.05 L61.75,46.55 L57.95,46.55 L57.95,37.05 Z M56.05,33.25 L54.15,33.25 L54.15,35.15 L54.15,48.45 L54.15,50.35 L56.05,50.35 L63.65,50.35 L65.55,50.35 L65.55,48.45 L65.55,35.15 L65.55,33.25 L63.65,33.25 L56.05,33.25 Z" id="connection-6" transform="translate(59.850000, 41.800000) rotate(90.000000) translate(-59.850000, -41.800000) "></path>
                <path d="M6.65,21.85 L10.45,21.85 L10.45,31.35 L6.65,31.35 L6.65,21.85 Z M4.75,18.05 L2.85,18.05 L2.85,19.95 L2.85,33.25 L2.85,35.15 L4.75,35.15 L12.35,35.15 L14.25,35.15 L14.25,33.25 L14.25,19.95 L14.25,18.05 L12.35,18.05 L4.75,18.05 Z" id="connection-7" transform="translate(8.550000, 26.600000) rotate(90.000000) translate(-8.550000, -26.600000) "></path>
                <path d="M6.65,37.05 L10.45,37.05 L10.45,46.55 L6.65,46.55 L6.65,37.05 Z M4.75,33.25 L2.85,33.25 L2.85,35.15 L2.85,48.45 L2.85,50.35 L4.75,50.35 L12.35,50.35 L14.25,50.35 L14.25,48.45 L14.25,35.15 L14.25,33.25 L12.35,33.25 L4.75,33.25 Z" id="connection-8" transform="translate(8.550000, 41.800000) rotate(90.000000) translate(-8.550000, -41.800000) "></path>
            </g>
        </g>
    </g>
</svg>