<?xml version="1.0" encoding="UTF-8"?>
<svg width="80px" height="80px" viewBox="0 0 80 80" version="1.1" xmlns="http://www.w3.org/2000/svg" xmlns:xlink="http://www.w3.org/1999/xlink">
    <!-- Generator: Sketch 41.2 (35397) - http://www.bohemiancoding.com/sketch -->
    <title>icons/features/spike-protection</title>
    <desc>Created with Sketch.</desc>
    <defs></defs>
    <g id="Symbols" stroke="none" stroke-width="1" fill="none" fill-rule="evenodd">
        <g id="icons/features/spike-protection">
            <g id="Group" transform="translate(10.123047, 10.123047)" stroke="#FFFFFF" stroke-width="3.75">
                <path d="M1.07940836,22.6010352 C1.31326989,21.6492594 2.24871603,21.0485258 3.2117836,21.2318786 L15.9231708,23.6513976 C16.4360089,23.7490628 16.8834762,24.0604861 17.1541663,24.5082721 C17.3088464,24.7625704 17.3106878,34.6470334 17.1560078,34.902253 C16.8853176,35.3500391 16.4369296,35.6605409 15.9231708,35.7582062 L3.2117836,38.1777252 C2.25055746,38.3610779 1.31326989,37.759423 1.07940836,36.8085686 C0.521455248,34.5337048 0.220381541,32.151962 0.220381541,29.7048019 C0.220381541,27.2585631 0.520534533,24.875899 1.07940836,22.6010352" id="Fill-2416"></path>
                <path d="M22.5845416,58.3292963 C21.6334433,58.0952682 21.0331374,57.1591558 21.2163596,56.1954022 L23.6341564,43.4749608 C23.7317521,42.9617574 24.0429537,42.5139713 24.4895003,42.2430884 C24.7445383,42.0882981 34.6219656,42.0864554 34.8770036,42.2412456 C35.3244709,42.5121286 35.6347518,42.960836 35.7323476,43.4749608 L38.1501444,56.1954022 C38.3333666,57.157313 37.7321399,58.0952682 36.7819623,58.3292963 C34.5087177,58.8876469 32.1286702,59.188935 29.683252,59.188935 C27.2378337,59.188935 24.8577862,58.8876469 22.5845416,58.3292963" id="Fill-2417"></path>
                <path d="M58.2872797,36.8089372 C58.0534182,37.7607129 57.1179721,38.3614465 56.1549045,38.1780938 L43.4435173,35.7585748 C42.9306792,35.6609095 42.4832119,35.3494863 42.2125218,34.9017002 C42.0578417,34.6474019 42.0560003,24.7629389 42.2106803,24.5077193 C42.4813705,24.0599332 42.9297585,23.7494314 43.4435173,23.6517661 L56.1549045,21.2322471 C57.1161306,21.0488944 58.0534182,21.6505493 58.2872797,22.6014037 C58.8452328,24.8762675 59.1463066,27.2580103 59.1463066,29.7051704 C59.1463066,32.1514092 58.8461536,34.5340733 58.2872797,36.8089372" id="Fill-2418"></path>
                <path d="M36.7821465,1.08067599 C37.7332448,1.31470411 38.3335507,2.25081656 38.1503285,3.21457012 L35.7325317,15.9350116 C35.6349359,16.4482149 35.3237344,16.896001 34.8771877,17.1668839 C34.6221498,17.3216742 24.7447225,17.3235169 24.4896845,17.1687267 C24.0422171,16.8978438 23.7319363,16.4491363 23.6343405,15.9350116 L21.2165437,3.21457012 C21.0333215,2.2526593 21.6345482,1.31470411 22.5847258,1.08067599 C24.8579704,0.522325458 27.2380179,0.221037297 29.6834361,0.221037297 C32.1288544,0.221037297 34.5089019,0.522325458 36.7821465,1.08067599" id="Fill-2419"></path>
            </g>
            <path d="M11.9822865,44.7776789 C19.7486446,65.1120265 40,73.8928 40,73.8928 C40,73.8928 57.7085883,66.2145435 66.3572017,48.5907072 M69.3435054,40.7429023 C70.3909182,36.9587388 71,32.8217669 71,28.317524 L71,16.211428 L40,7 L9,16.211428 L9,16.211428 L9,28.317524 C9,31.8495709 9.37452856,35.1557804 10.0412522,38.2431261" id="Stroke-1" stroke="#00AEFF" stroke-width="1.59746434" stroke-linecap="round"></path>
            <path d="M15.0077021,37.4418381 C14.3595102,34.523931 14.0342145,31.50448 14.0342145,28.3889192 L14.0342145,20.2950512 L39.7350692,12.6578552 L65.4359239,20.2950512 L65.4359239,28.3889192 C65.4359239,33.0110756 64.700644,37.2051357 63.4692813,40.9880648 M61.2912284,46.3336342 C55.2672356,58.5476085 44.3137922,65.4965173 39.7395735,67.9824352 C37.0934453,66.5419352 32.3173256,63.6161792 27.6201632,59.0872472 L27.6201632,59.0872472 C22.6307091,54.2769246 19.0026075,48.9652753 16.757284,43.2008218" id="Stroke-3" stroke="#00AEFF" stroke-width="1.59746434" stroke-linecap="round"></path>
            <path d="M39.7350427,19.856764 L20.6581197,25.58848 L20.6581197,29.907032 C20.6581197,47.343648 33.3262564,57.28082 39.7300085,61.143236 C46.0911026,57.290736 58.8119658,47.315508 58.8119658,29.907032 L58.8119658,25.58848 L39.7350427,19.856764 Z" id="Fill-5" fill="#F2F9FB"></path>
            <path d="M5.60839844,43.9599609 C5.60839844,43.9599609 12.4929848,40 19.1054688,40 C25.7179527,40 29.775853,47.0149133 32.8759766,43.9599609 C40.3154297,36.6289062 37.5671543,17.4511719 40.5034721,17.4511719 C43.4397898,17.4511719 44.6435801,41.5945704 46.8515625,43.9599609 C48.4422307,45.6640286 50.8445447,34.9921875 54.6162109,34.9921875 C58.3878772,34.9921875 56.6992703,41.7424442 62.234375,43.9599609 C67.7694797,46.1774777 75.4746094,43.9599609 75.4746094,43.9599609" id="Line" stroke="#FE336F" stroke-width="1.6" stroke-linecap="square"></path>
        </g>
    </g>
</svg>