<?xml version="1.0" encoding="UTF-8"?>
<svg width="80px" height="80px" viewBox="0 0 80 80" version="1.1" xmlns="http://www.w3.org/2000/svg" xmlns:xlink="http://www.w3.org/1999/xlink">
    <!-- Generator: Sketch 41.2 (35397) - http://www.bohemiancoding.com/sketch -->
    <title>icons/features/backup</title>
    <desc>Created with Sketch.</desc>
    <defs></defs>
    <g id="Symbols" stroke="none" stroke-width="1" fill="none" fill-rule="evenodd" stroke-linecap="round">
        <g id="icons/features/backup" stroke-width="1.59176147">
            <polyline id="Stroke-33" stroke="#1DAEFC" points="28.8331156 37.7539697 28.0991119 43.0257823 22.865967 42.2863551"></polyline>
            <path d="M28.1153086,43.009466 C27.7171288,42.6594491 27.3363875,42.2897355 26.9746701,41.9019222 C24.3108022,39.0448265 22.6789783,35.1994323 22.6789783,30.9704835 C22.6789783,22.150059 29.7767251,15.0001331 38.5321894,15.0001331 C47.2876536,15.0001331 54.3854004,22.150059 54.3854004,30.9704835 C54.3854004,33.3909366 53.8508839,35.685628 52.8942758,37.7413022" id="Stroke-35" stroke="#1DAEFC"></path>
            <path id="Stroke-37" stroke="#FD336E"></path>
            <path d="M39.853211,32.833558 L43.8165138,36.027628" id="Stroke-39" stroke="#FD336E"></path>
            <path d="M40.3816514,31.2365229 C40.3816514,32.412473 39.4352147,33.365903 38.2678899,33.365903 C37.1005651,33.365903 36.1541284,32.412473 36.1541284,31.2365229 C36.1541284,30.0605728 37.1005651,29.1071429 38.2678899,29.1071429 C39.4352147,29.1071429 40.3816514,30.0605728 40.3816514,31.2365229 L40.3816514,31.2365229 Z" id="Stroke-41" stroke="#FD336E"></path>
            <path d="M71.7366255,46.5591341 L71.7366255,63.3113662 L58.7846584,59.9295426 C57.837037,59.6043366 56.8175144,59.5583344 55.8448724,59.7971202 L37.8621893,64.2109345 C36.7702387,64.4901384 35.6185021,64.4087704 34.5755391,63.9785305 L8.26337449,52.4091199 C8.26337449,52.4091199 7.76612346,44.6900636 17.7503868,47.3425004 C27.4678519,49.9239396 30.8082305,50.9099281 30.8082305,50.9099281 C30.8082305,50.9099281 50.5160165,37.3392905 62.0994897,44.1324536 C66.1617778,46.5147274 71.7366255,46.5591341 71.7366255,46.5591341 L71.7366255,46.5591341 Z" id="Stroke-238" stroke="#1DAEFC" stroke-linejoin="round"></path>
            <path d="M45.8490996,53.3597692 L39.4677992,54.7767953 C39.4677992,54.7767953 30.8083095,57.106951 30.8083095,50.7767345" id="Stroke-240" stroke="#1DAEFC" stroke-linejoin="round"></path>
        </g>
    </g>
</svg>