<?xml version="1.0" encoding="utf-8"?>
<!-- Generator: Adobe Illustrator 19.0.0, SVG Export Plug-In . SVG Version: 6.00 Build 0)  -->
<svg version="1.1" id="Layer_1" xmlns="http://www.w3.org/2000/svg" xmlns:xlink="http://www.w3.org/1999/xlink" x="0px" y="0px"
	 viewBox="-427 147 500 500" style="enable-background:new -427 147 500 500;" xml:space="preserve">
<style type="text/css">
	.st0{fill:#FFFFFF;}
</style>
<g id="react">
	<circle class="st0" cx="-176.9" cy="396.6" r="37.8"/>
	<g>
		<path class="st0" d="M-176.9,483.2c-53.1,0-99.5-6.3-134.3-18.2c-22.5-7.7-41.7-17.9-55.3-29.6c-14.5-12.4-22.2-25.8-22.2-38.9
			c0-25,27.4-49.5,73.5-65.5c37.7-13.1,86.8-20.4,138.2-20.4c50.5,0,98.9,7.1,136.4,20c21.9,7.5,40.4,17.3,53.5,28.2
			c14.2,11.9,21.8,24.9,21.8,37.7c0,26-30.7,52.3-80.1,68.7C-80.4,476.8-127.1,483.2-176.9,483.2z M-176.9,328.8
			c-48.8,0-97,7.1-132.3,19.4c-42.4,14.8-61.3,35-61.3,48.5c0,14,20.4,36.1,65.2,51.4c32.9,11.2,77.3,17.2,128.4,17.2
			c47.9,0,92.6-6,125.8-17.1c46.5-15.4,67.7-37.5,67.7-51.5c0-7.2-5.4-15.6-15.3-23.8c-11.4-9.5-28-18.2-47.8-25
			C-82,335.5-128.4,328.8-176.9,328.8z"/>
	</g>
	<g>
		<path class="st0" d="M-262.8,585.1c-7.7,0-14.5-1.7-20.2-5c-21.6-12.5-29.2-48.5-20-96.4c7.5-39.3,25.7-85.4,51.4-129.9
			c25.2-43.7,55.5-82.1,85.5-108.1c17.5-15.2,35.2-26.4,51.2-32.3c17.4-6.4,32.5-6.4,43.5-0.1c22.5,13,30,52.8,19.4,103.7
			c-7.5,36.2-25.2,79.8-50.1,123c-26.5,46-55.2,83-82.8,107.2c-17.9,15.7-36.4,27.1-53.3,33.1C-247.1,583.5-255.4,585.1-262.8,585.1
			z M-243.8,358.4l7.8,4.5c-24.3,42.2-42.4,87.5-49.3,124.3c-8.4,44.1-0.3,70.6,11.3,77.3c2.9,1.7,6.6,2.6,11.2,2.6
			c15,0,38.6-9.5,65.9-33.3c26.1-22.8,53.5-58.4,79.1-102.6c24-41.5,41-83.3,48.1-117.6c9.9-48,1.4-77.4-10.8-84.4
			c-6.2-3.5-16.2-3.1-28.3,1.4c-13.9,5.1-29.7,15.1-45.5,28.9c-28.4,24.7-57.4,61.5-81.7,103.5L-243.8,358.4z"/>
	</g>
	<g>
		<path class="st0" d="M-91.1,585.4c-20.5,0-46.5-12.4-73.6-35.7c-30.3-26.1-61.1-64.9-86.9-109.4l0,0
			c-25.3-43.7-43.4-89.1-51-128.1c-4.4-22.8-5.3-43.6-2.4-60.4c3.2-18.3,10.6-31.3,21.7-37.8c22.5-13,60.7,0.4,99.5,35
			c27.6,24.5,56.5,61.7,81.5,104.8c26.6,46,44.5,89.3,51.5,125.3c4.6,23.4,5.4,45.1,2.1,62.7c-3.5,18.8-11.3,32.1-22.6,38.7
			C-76.9,583.7-83.6,585.4-91.1,585.4z M-235.9,431.2c24.4,42.2,54.7,80.4,83,104.7c34,29.2,61,35.6,72.6,28.8
			c12.1-7,21-35.7,11.8-82.1c-6.8-34.1-23.9-75.5-49.5-119.7c-24-41.5-51.7-77.2-77.8-100.4c-36.6-32.6-66.3-39.9-78.4-32.9
			c-6.2,3.5-10.8,12.5-13,25.2c-2.5,14.6-1.7,33.3,2.3,53.9C-277.6,345.6-260.3,389.1-235.9,431.2L-235.9,431.2z"/>
	</g>
</g>
</svg>
