<?xml version="1.0" encoding="utf-8"?>
<!-- Generator: Adobe Illustrator 19.0.0, SVG Export Plug-In . SVG Version: 6.00 Build 0)  -->
<svg version="1.1" id="Layer_1" xmlns="http://www.w3.org/2000/svg" xmlns:xlink="http://www.w3.org/1999/xlink" x="0px" y="0px"
	 viewBox="-427 147 500 500" style="enable-background:new -427 147 500 500;" xml:space="preserve">
<style type="text/css">
	.st0{fill:#FFFFFF;}
</style>
<g>
	<path class="st0" d="M-38.6,194.5c-30.4,1-57,17.8-76.7,41c-21.9,25.4-36.4,55.6-46.9,86.4c-18.8-15.4-33.2-35.3-63.3-44
		c-23.3-6.7-47.7-3.9-70.2,12.8c-10.6,8-18,20-21.5,31.3c-9,29.4,9.5,55.5,17.9,64.9l18.4,19.7c3.8,3.9,12.9,14,8.5,28.4
		c-4.8,15.7-23.8,25.9-43.2,19.9c-8.7-2.7-21.2-9.1-18.4-18.2c1.1-3.7,3.8-6.5,5.3-9.7c1.3-2.8,1.9-4.8,2.3-6.1
		c3.6-11.6-1.3-26.7-13.7-30.5c-11.6-3.6-23.4-0.7-28,14.2c-5.2,16.9,2.9,47.7,46.4,61.1c50.9,15.7,94-12.1,100.1-48.2
		c3.8-22.6-6.4-39.5-25.1-61.1l-15.3-16.9c-9.2-9.2-12.4-25-2.8-37.1c8.1-10.2,19.6-14.6,38.4-9.4c27.5,7.5,39.7,26.5,60.2,41.9
		c-8.4,27.7-14,55.5-18.9,80.4l-3.1,18.6c-14.6,76.6-25.8,118.7-54.8,142.9c-5.8,4.2-14.2,10.4-26.8,10.8c-6.6,0.2-8.7-4.3-8.8-6.3
		c-0.1-4.6,3.8-6.7,6.3-8.8c3.9-2.1,9.7-5.6,9.3-16.9c-0.4-13.3-11.4-24.8-27.3-24.2c-11.9,0.4-30,11.6-29.4,32.1
		c0.7,21.2,20.4,37,50.2,36c15.9-0.5,51.4-7,86.4-48.6c40.7-47.7,52.1-102.4,60.7-142.4l9.6-52.8c5.3,0.6,11,1.1,17.2,1.2
		c50.7,1.1,76.1-25.2,76.5-44.3c0.3-11.6-7.6-23-18.6-22.7c-7.9,0.2-17.7,5.5-20.1,16.3c-2.3,10.7,16.1,20.3,1.7,29.6
		c-10.3,6.6-28.6,11.3-54.5,7.5l4.7-26c9.6-49.3,21.5-110,66.4-111.5c3.3-0.2,15.3,0.1,15.5,8.1c0.1,2.6-0.6,3.3-3.7,9.4
		c-3.2,4.7-4.3,8.8-4.2,13.4c0.4,12.6,10,20.9,23.9,20.4c18.5-0.6,23.9-18.7,23.6-27.9C14.8,207.3-8.2,193.5-38.6,194.5z"/>
</g>
</svg>
