<?xml version="1.0" encoding="UTF-8" standalone="no"?>
<svg width="7px" height="10px" viewBox="0 0 7 10" version="1.1" xmlns="http://www.w3.org/2000/svg" xmlns:xlink="http://www.w3.org/1999/xlink">
    <!-- Generator: Sketch 3.8.2 (29753) - http://www.bohemiancoding.com/sketch -->
    <title>up-down</title>
    <desc>Created with Sketch.</desc>
    <defs></defs>
    <g id="Page-1" stroke="none" stroke-width="1" fill="none" fill-rule="evenodd">
        <g id="enterprise-v1-copy-3" transform="translate(-820.000000, -4261.000000)" fill="#7F8B9D">
            <g id="Group-77" transform="translate(36.000000, 4034.000000)">
                <g id="Group-76" transform="translate(566.000000, 214.000000)">
                    <g id="up-down" transform="translate(218.000000, 13.000000)">
                        <polygon id="Path-1808-Copy-6" points="0 6 6.20873764 6 3.17918785 9.96217844"></polygon>
                        <polygon id="Path-1808-Copy-7" transform="translate(3.104369, 1.981089) rotate(-180.000000) translate(-3.104369, -1.981089) " points="0 0 6.20873764 0 3.17918785 3.96217844"></polygon>
                    </g>
                </g>
            </g>
        </g>
    </g>
</svg>