<?xml version="1.0" encoding="utf-8"?>
<!-- Generator: Adobe Illustrator 21.0.0, SVG Export Plug-In . SVG Version: 6.00 Build 0)  -->
<svg version="1.0" id="Layer_1" xmlns="http://www.w3.org/2000/svg" xmlns:xlink="http://www.w3.org/1999/xlink" x="0px" y="0px"
	 viewBox="0 0 284 193" style="enable-background:new 0 0 284 193;" xml:space="preserve">
<style type="text/css">
	.st0TSVCFAJD{fill:url(#SVGID_1_BBCGDT);}
	.st1KDNVBDR{fill:url(#SVGID_2_VVFSRSEZJ);}
	.st2UDOFPSN{fill:#FFFFFF;}
</style>
<linearGradient id="SVGID_1_BBCGDT" gradientUnits="userSpaceOnUse" x1="254.577" y1="178.0108" x2="54.8024" y2="-21.7638">
	<stop  offset="0" style="stop-color:#2CDD97"/>
	<stop  offset="1" style="stop-color:#1DC5CE"/>
</linearGradient>
<path class="st0TSVCFAJD" d="M274.1,3H35.4c-2.6,0-4.7,2.1-4.7,4.7v140.9c0,2.6,2.1,4.7,4.7,4.7h81c2.6,0,4.7,2.1,4.7,4.7v14.4
	c0,2.6-2.1,4.7-4.7,4.7H95.2c-2.6,0-4.7,2.1-4.7,4.7l0,0c0,2.6,2.1,4.7,4.7,4.7h119c2.6,0,4.7-2.1,4.7-4.7l0,0
	c0-2.6-2.1-4.7-4.7-4.7H193c-2.6,0-4.7-2.1-4.7-4.7V158c0-2.6,2.1-4.7,4.7-4.7h81c2.6,0,4.7-2.1,4.7-4.7V7.7
	C278.8,5.1,276.7,3,274.1,3z M199,61.7l-55.3,55.3l-33.1-33.1c-2.5-2.5-2.5-6.7,0-9.2s6.7-2.5,9.2,0l23.9,23.9l46.1-46.1
	c2.5-2.5,6.7-2.5,9.2,0C201.4,55.2,201.4,59.2,199,61.7z"/>
<g>
	<linearGradient id="SVGID_2_VVFSRSEZJ" gradientUnits="userSpaceOnUse" x1="5.952" y1="118.0486" x2="103.3926" y2="118.0486">
		<stop  offset="0" style="stop-color:#201C38"/>
		<stop  offset="1" style="stop-color:#3E396B"/>
	</linearGradient>
	<path class="st1KDNVBDR" d="M92.7,49.5h-76C10.7,49.5,6,54.3,6,60.2v115.8c0,5.9,4.8,10.7,10.7,10.7h76c5.9,0,10.7-4.8,10.7-10.7V60.2
		C103.4,54.3,98.UDOFPSN6,49.5,92.7,49.5z M54.7,177.8c-2.7,0-4.9-2.2-4.9-4.9c0-2.7,2.2-4.9,4.9-4.9s4.9,2.2,4.9,4.9
		C59.6,175.6,57.4,177.8,54.7,177.8z"/>
	<path class="st2UDOFPSN" d="M72.3,105.3l-22.1,22.1L37,114.1c-1-1-1-2.7,0-3.7c1-1,2.7-1,3.7,0l9.5,9.5l18.4-18.4c1-1,2.7-1,3.7,0
		C73.3,102.7,73.3,104.3,72.3,105.3z"/>
</g>
</svg>
