<?xml version="1.0" encoding="UTF-8"?>
<svg width="50px" height="50px" viewBox="0 0 50 50" version="1.1" xmlns="http://www.w3.org/2000/svg" xmlns:xlink="http://www.w3.org/1999/xlink" aria-hidden="true">
    <g id="Work-space" stroke="none" stroke-width="1" fill="none" fill-rule="evenodd">
        <g id="Product-Search" transform="translate(-652.000000, -1400.000000)" stroke="#8995C7">
            <g id="Group-8" transform="translate(653.000000, 1401.000000)">
                <rect id="Rectangle-4-Copy-15" x="0" y="0" width="48" height="48" rx="2"></rect>
                <polygon id="Rectangle-4-Copy-17" fill="#E0E4F4" stroke-linecap="round" stroke-linejoin="round" points="14.8737404 29 34.1265486 29 38 37 11 37"></polygon>
                <path d="M24.5,33.25 C24.5,33.25 16,26.9833044 16,21.35 C16,15.7166956 18.8666956,12 24.5,12 C30.1333044,12 33,15.7166956 33,21.35 C33,26.9833044 24.5,33.25 24.5,33.25 Z M24.5,23.9 C26.37816,23.9 27.9,22.37816 27.9,20.5 C27.9,18.62252 26.37816,17.1 24.5,17.1 C22.62184,17.1 21.1,18.62252 21.1,20.5 C21.1,22.37816 22.62184,23.9 24.5,23.9 Z" id="Combined-Shape" fill="#F8FAFF"></path>
            </g>
        </g>
    </g>
</svg>