<svg width="50" height="50" viewBox="0 0 50 50" xmlns="http://www.w3.org/2000/svg" aria-hidden="true">
  <g id="Work-space" fill="none" fill-rule="evenodd">
    <g id="Product-Search" stroke="#8995C7">
      <g id="Group-7" transform="translate(1 1)">
        <rect id="Rectangle-4-Copy-14" width="48" height="48" rx="2" />
        <g id="Group-21" stroke-linecap="round" stroke-linejoin="round">
          <path id="Fill-5668" fill-opacity=".4" fill="#8995C7" d="M22.617 29l.1-13.37H16V13h16v2.63h-6.488l-.1 13.37z" />
          <path d="M15 36c2.174 0 .998-3 2.78-3 1.78 0 .482 3 2.898 3 2.416 0 1.38-3 3.262-3 1.882 0 .876 3 2.96 3s1.45-3 3.08-3c1.63 0 .604 3 3.02 3" id="Path-235" />
        </g>
      </g>
    </g>
  </g>
</svg>
