<?xml version="1.0" encoding="utf-8"?>
<!-- Generator: Adobe Illustrator 19.0.0, SVG Export Plug-In . SVG Version: 6.00 Build 0)  -->
<svg version="1.1" id="Layer_1" xmlns="http://www.w3.org/2000/svg" xmlns:xlink="http://www.w3.org/1999/xlink" x="0px" y="0px"
	 viewBox="1127.1 191.1 2133.7 410.9" style="enable-background:new 1127.1 191.1 2133.7 410.9;" xml:space="preserve">
<style type="text/css">
	.st0{fill:#FFFFFF;}
</style>
<path d="M1424.7,339.9c0,110.6-119,232.2-148.8,232.2s-148.8-121.6-148.8-232.2c0-82.2,66.6-148.8,148.8-148.8
	S1424.7,257.7,1424.7,339.9z"/>
<g>
	<path d="M1604.2,254.6h93.5c48.1,0,83.5,31.5,83.5,81.5c0,50.4-35.4,82.7-83.5,82.7h-66.9V525h-26.5V254.6L1604.2,254.6z
		 M1694.2,395c36.2,0,59.6-21.9,59.6-58.9c0-36.5-23.5-57.7-59.2-57.7h-63.9V395H1694.2L1694.2,395z M1902.7,326.9
		c53.5,0,80.8,41.2,80.8,89.2c0,4.2-0.4,8.8-0.8,13.1h-148.5c1.2,49.2,35,76.5,75,76.5c21.2,0,43.1-8.8,58.9-23.1l11.9,20
		c-18.1,16.5-46.2,26.9-71.5,26.9c-57.7,0-101.5-41.5-101.5-101.2C1806.9,365,1850.4,326.9,1902.7,326.9z M1956.9,408.5
		c-1.5-40.4-26.2-60-55-60c-32.3,0-60.4,21.2-66.5,60H1956.9L1956.9,408.5z M2032.7,331.5h25.8v35.8c0,8.5-1.5,15.4-1.5,15.4h0.8
		c9.6-29.2,31.9-53.1,61.9-53.1c3.5,0,7.3,0.4,10.4,1.2v25.8c-1.2-0.4-5.8-0.8-9.6-0.8c-43.5,0-61.5,48.9-61.5,87.3V525h-26.2
		L2032.7,331.5L2032.7,331.5L2032.7,331.5z M2168.9,254.6h28.5v32.7h-28.5V254.6z M2170,331.5h26.2V525H2170V331.5L2170,331.5z
		 M2255.4,483.1c14.6,15,37.3,23.5,58.5,23.5c21.5,0,38.8-10.8,38.8-31.2c0-43.1-103.1-31.2-103.1-94.6c0-35.4,30.4-53.9,65.8-53.9
		c21.2,0,43.9,6.2,59.6,21.2l-12.3,19.6c-11.2-11.2-31.2-17.7-48.5-17.7c-20.4,0-38.8,8.8-38.8,30c0,44.2,103.5,31.2,103.5,95
		c0,31.9-27.3,54.6-65.4,54.6c-25.8,0-53.5-8.8-71.9-28.1L2255.4,483.1L2255.4,483.1z M2515.4,326.9c25.4,0,53.5,8.8,70.8,27.7
		l-13.5,19.6c-13.5-13.8-35-23.8-56.5-23.8c-42.3,0-75.4,31.9-75.4,78.1c0,45.4,33.1,77.3,76.2,77.3c22.3,0,46.5-9.6,61.9-26.5
		l11.9,19.6c-16.9,18.8-45.8,30.8-75.4,30.8c-57.3,0-101.6-41.2-101.6-101.2C2413.9,368.8,2458.5,326.9,2515.4,326.9L2515.4,326.9z
		 M2719.7,326.9c56.5,0,102.3,43.1,102.3,100.4c0,58.5-45.8,102.3-102.3,102.3c-56.5,0-101.9-43.8-101.9-102.3
		C2617.7,370,2663.1,326.9,2719.7,326.9z M2719.7,505.8c41.5,0,75.4-33.1,75.4-78.5c0-43.9-33.8-76.9-75.4-76.9
		c-41.5,0-75,33.1-75,76.9C2644.7,472.7,2678.1,505.8,2719.7,505.8z M2870.8,331.5h25v20.4c0,8.5-1.2,15-1.2,15h0.8
		c11.9-25,37.3-40,67.3-40c52.3,0,84.2,41.5,84.2,101.2c0,61.5-36.2,101.5-86.5,101.5c-27.3,0-51.2-14.2-63.9-38.5h-0.8
		c0,0,1.2,6.9,1.2,16.9v93.9h-26.2L2870.8,331.5L2870.8,331.5z M2957.8,506.1c34.2,0,62.7-28.5,62.7-77.7
		c0-47.3-25.4-77.7-61.5-77.7c-32.3,0-62.7,23.1-62.7,78.1C2896.2,467.7,2918.1,506.1,2957.8,506.1z M3180.1,326.9
		c53.5,0,80.8,41.2,80.8,89.2c0,4.2-0.4,8.8-0.8,13.1h-148.5c1.2,49.2,35,76.5,75,76.5c21.2,0,43.1-8.8,58.9-23.1l11.9,20
		c-18.1,16.5-46.2,26.9-71.5,26.9c-57.7,0-101.5-41.5-101.5-101.2C3084.3,365,3127.8,326.9,3180.1,326.9z M3234.3,408.5
		c-1.5-40.4-26.2-60-55-60c-32.3,0-60.4,21.2-66.5,60H3234.3z"/>
</g>
<path class="st0" d="M1275.9,250.1c-7.2,0-14.1,0.9-20.8,2.4c12.1,5.9,20.5,18.3,20.5,32.7c0,20.1-16.3,36.5-36.5,36.5
	c-19.4,0-35.2-15.1-36.4-34.2c-11.2,15.4-17.2,33.9-17.1,52.9c0,49.9,40.4,90.3,90.3,90.3c49.9,0,90.3-40.4,90.3-90.3
	S1325.8,250.1,1275.9,250.1L1275.9,250.1z"/>
</svg>
