<svg xmlns="http://www.w3.org/2000/svg" width="613" height="395" xmlns:xlink="http://www.w3.org/1999/xlink">
  <defs>
    <rect id="baz" width="447.044846" height="299.893609" x="91.8379831" y=".0546875" rx="10"/>
    <filter id="abz" width="200%" height="200%" x="-50%" y="-50%" filterUnits="objectBoundingBox">
      <feOffset dy="40" in="SourceAlpha" result="shadowOffsetOuter1"/>
      <feGaussianBlur stdDeviation="20" in="shadowOffsetOuter1" result="shadowBlurOuter1"/>
      <feColorMatrix values="0 0 0 0 0 0 0 0 0 0.076615021 0 0 0 0 0.144717262 0 0 0 0.1 0" in="shadowBlurOuter1"/>
    </filter>
    <filter id="c" width="200%" height="200%" x="-50%" y="-50%" filterUnits="objectBoundingBox">
      <feOffset dy="-3" in="SourceAlpha" result="shadowOffsetInner1"/>
      <feComposite in="shadowOffsetInner1" in2="SourceAlpha" operator="arithmetic" k2="-1" k3="1" result="shadowInnerInner1"/>
      <feColorMatrix values="0 0 0 0 0.403921569 0 0 0 0 0.458823529 0 0 0 0 0.631372549 0 0 0 0.06 0" in="shadowInnerInner1"/>
    </filter>
    <linearGradient id="f" x1="50%" x2="50%" y1="0%" y2="50%">
      <stop stop-color="#FAFCFF" offset="0%"/>
      <stop stop-color="#FFF" offset="100%"/>
    </linearGradient>
    <path id="e" d="M90.9375907 299.500694H540.008319l44.569426 15.442283H45.9179688z"/>
    <filter id="d" width="200%" height="200%" x="-50%" y="-50%" filterUnits="objectBoundingBox">
      <feOffset dy="40" in="SourceAlpha" result="shadowOffsetOuter1"/>
      <feGaussianBlur stdDeviation="20" in="shadowOffsetOuter1" result="shadowBlurOuter1"/>
      <feColorMatrix values="0 0 0 0 0 0 0 0 0 0.076615021 0 0 0 0 0.144717262 0 0 0 0.1 0" in="shadowBlurOuter1"/>
    </filter>
    <path id="h" d="M120.650541 303.081514h393.0213l12.373871 9.561825-421.602235-.671404z"/>
    <filter id="g" width="200%" height="200%" x="-50%" y="-50%" filterUnits="objectBoundingBox">
      <feOffset dy="40" in="SourceAlpha" result="shadowOffsetOuter1"/>
      <feGaussianBlur stdDeviation="20" in="shadowOffsetOuter1" result="shadowBlurOuter1"/>
      <feColorMatrix values="0 0 0 0 0 0 0 0 0 0.076615021 0 0 0 0 0.144717262 0 0 0 0.1 0" in="shadowBlurOuter1"/>
    </filter>
    <path id="i" d="M.24662713 3.0633105H38.2004314V.26329153H.24662713z"/>
    <path id="k" d="M.2465046 3.0633105h47.159665V.26329153H.2465046z"/>
    <path id="m" d="M.1699831 3.0633105h11.4675028V.26329153H.1699831V3.0633105z"/>
    <path id="o" d="M.24644333 3.0633105H84.4344865V.26329153H.24644333z"/>
    <path id="q" d="M0 250.578798h409.909235V.0551396H0z"/>
  </defs>
  <g fill="none" fill-rule="evenodd">
    <path fill="#1F1C38" d="M376.512495 297.142297H4.35412305c-2.4046338 0-4.35409297-1.949159-4.35409297-4.354093V46.8413675H380.866588V292.788204c0 2.404934-1.949459 4.354093-4.354093 4.354093"/>
    <path fill="#514E75" d="M375.982621 28.3556508c2.697354 0 4.883877 1.50345156 4.883877 3.3576878v16.1280289H-.00006017V31.34910993c0-1.65340374 1.94945916-2.99345913 4.35409297-2.99345913H375.982621z"/>
    <path fill="#22AFFB" d="M131.312861 77.2908065H73.3528534c-.996992 0-1.8050548-.8083637-1.8050548-1.8050548v-.4127558c0-.996992.8080628-1.8050548 1.8050548-1.8050548h57.9600076c.996692 0 1.805055.8080628 1.805055 1.8050548v.4127558c0 .9966911-.808363 1.8050548-1.805055 1.8050548"/>
    <path fill="#F95481" d="M108.964298 87.3475789H97.1538243c-.9966911 0-1.8050548-.8083637-1.8050548-1.8050547v-.412455c0-.9972928.8083637-1.8050548 1.8050548-1.8050548h11.8104737c.996992 0 1.805054.807762 1.805054 1.8050548v.412455c0 .996691-.808062 1.8050547-1.805054 1.8050547m189.403826 0h-43.321916c-.996691 0-1.805055-.8083637-1.805055-1.8050547v-.412455c0-.9972928.808364-1.8050548 1.805055-1.8050548h43.321916c.996992 0 1.805055.807762 1.805055 1.8050548v.412455c0 .996691-.808063 1.8050547-1.805055 1.8050547"/>
    <path fill="#44DB99" d="M231.21079 97.4043514h-28.795136c-.996992 0-1.805055-.8080629-1.805055-1.8050548v-.412455c0-.9969919.808063-1.8050548 1.805055-1.8050548h28.795136c.996992 0 1.805055.8080629 1.805055 1.8050548v.412455c0 .9969919-.808063 1.8050548-1.805055 1.8050548"/>
    <path fill="#FCBF6E" d="M173.328069 117.5181971h-23.54333c-.996992 0-1.805055-.8083637-1.805055-1.8050548v-.4127558c0-.9969919.808063-1.8050548 1.805055-1.8050548h23.54333c.996991 0 1.805054.8080629 1.805054 1.8050548v.4127558c0 .9966911-.808063 1.8050548-1.805054 1.8050548m177.670849 0h-43.321916c-.996691 0-1.805055-.8083637-1.805055-1.8050548v-.4127558c0-.9969919.808364-1.8050548 1.805055-1.8050548h43.321916c.996992 0 1.805055.8080629 1.805055 1.8050548v.4127558c0 .9966911-.808063 1.8050548-1.805055 1.8050548"/>
    <path fill="#22AFFB" d="M264.286644 127.5749696h-61.87096c-.996992 0-1.805055-.8083637-1.805055-1.8050548v-.412455c0-.9972928.808063-1.8050548 1.805055-1.8050548h61.87096c.996992 0 1.805055.807762 1.805055 1.8050548v.412455c0 .9966911-.808063 1.8050548-1.805055 1.8050548"/>
    <path fill="#F95481" d="M113.433974 137.631742H97.1538845c-.9966911 0-1.8050548-.808364-1.8050548-1.805055v-.412455c0-.996992.8083637-1.805055 1.8050548-1.805055h16.2800895c.996992 0 1.805055.808063 1.805055 1.805055v.412455c0 .996691-.808063 1.805055-1.805055 1.805055m237.564944 0h-17.06228c-.996992 0-1.805055-.808364-1.805055-1.805055v-.412455c0-.996992.808063-1.805055 1.805055-1.805055h17.06228c.996992 0 1.805055.808063 1.805055 1.805055v.412455c0 .996691-.808063 1.805055-1.805055 1.805055"/>
    <path fill="#22AFFB" d="M120.585511 147.688514H74.2467466c-.996992 0-1.8050548-.808062-1.8050548-1.805054v-.412455c0-.996992.8080628-1.805055 1.8050548-1.805055h46.3387644c.996992 0 1.805055.808063 1.805055 1.805055v.412455c0 .996992-.808063 1.805054-1.805055 1.805054m-56.5417764 20.560718h-19.520464c-.996992 0-1.8050548-.808063-1.8050548-1.805055v-.412455c0-.996992.8080628-1.805055 1.8050548-1.805055h19.520464c.9969919 0 1.8050548.808063 1.8050548 1.805055v.412455c0 .996992-.8080629 1.805055-1.8050548 1.805055"/>
    <path fill="#F95481" d="M174.668984 168.249232H140.62174c-.996992 0-1.805055-.808063-1.805055-1.805055v-.412455c0-.996992.808063-1.805055 1.805055-1.805055h34.047244c.996991 0 1.805054.808063 1.805054 1.805055v.412455c0 .996992-.808063 1.805055-1.805054 1.805055m123.69914 10.057073h-43.321916c-.996691 0-1.805055-.808364-1.805055-1.805055v-.412756c0-.996992.808364-1.805055 1.805055-1.805055h43.321916c.996992 0 1.805055.808063 1.805055 1.805055v.412756c0 .996691-.808063 1.805055-1.805055 1.805055"/>
    <path fill="#44DB99" d="M121.70296 188.363077H97.1539146c-.996992 0-1.8050548-.808363-1.8050548-1.805055v-.412755c0-.996992.8080628-1.805055 1.8050548-1.805055H121.70296c.996992 0 1.805055.808063 1.805055 1.805055v.412755c0 .996692-.808063 1.805055-1.805055 1.805055m134.592255 0h-15.775577c-.996691 0-1.805055-.808363-1.805055-1.805055v-.412755c0-.996992.808364-1.805055 1.805055-1.805055h15.775577c.996992 0 1.805055.808063 1.805055 1.805055v.412755c0 .996692-.808063 1.805055-1.805055 1.805055"/>
    <path fill="#FCBF6E" d="M173.328069 208.476622h-23.54333c-.996992 0-1.805055-.808364-1.805055-1.805055v-.412455c0-.997292.808063-1.805054 1.805055-1.805054h23.54333c.996991 0 1.805054.807762 1.805054 1.805054v.412455c0 .996691-.808063 1.805055-1.805054 1.805055m177.670849 0h-43.321916c-.996691 0-1.805055-.808364-1.805055-1.805055v-.412455c0-.997292.808364-1.805054 1.805055-1.805054h43.321916c.996992 0 1.805055.807762 1.805055 1.805054v.412455c0 .996691-.808063 1.805055-1.805055 1.805055"/>
    <path fill="#22AFFB" d="M193.106535 218.533395h-43.321916c-.996691 0-1.805055-.808063-1.805055-1.805055v-.412455c0-.996992.808364-1.805055 1.805055-1.805055h43.321916c.996992 0 1.805055.808063 1.805055 1.805055v.412455c0 .996992-.808063 1.805055-1.805055 1.805055m105.261589 0h-24.772572c-.996691 0-1.805055-.808063-1.805055-1.805055v-.412455c0-.996992.808364-1.805055 1.805055-1.805055h24.772572c.996992 0 1.805055.808063 1.805055 1.805055v.412455c0 .996992-.808063 1.805055-1.805055 1.805055"/>
    <path fill="#F95481" d="M350.998918 228.590468h-17.06228c-.996992 0-1.805055-.808364-1.805055-1.805055v-.412756c0-.996992.808063-1.805055 1.805055-1.805055h17.06228c.996992 0 1.805055.808063 1.805055 1.805055v.412756c0 .996691-.808063 1.805055-1.805055 1.805055"/>
    <path fill="#22AFFB" d="M193.106535 238.64724h-63.212116c-.996691 0-1.805054-.808363-1.805054-1.805054v-.412756c0-.996992.808363-1.805055 1.805054-1.805055h63.212116c.996992 0 1.805055.808063 1.805055 1.805055v.412756c0 .996691-.808063 1.805054-1.805055 1.805054"/>
    <path fill="#3F3A6D" d="M64.0437346 77.2908065h-19.520464c-.996992 0-1.8050548-.8083637-1.8050548-1.8050548v-.4127558c0-.996992.8080628-1.8050548 1.8050548-1.8050548h19.520464c.9969919 0 1.8050548.8080628 1.8050548 1.8050548v.4127558c0 .9966911-.8080629 1.8050548-1.8050548 1.8050548m110.6252494 0H140.62174c-.996992 0-1.805055-.8083637-1.805055-1.8050548v-.4127558c0-.996992.808063-1.8050548 1.805055-1.8050548h34.047244c.996991 0 1.805054.8080628 1.805054 1.8050548v.4127558c0 .9966911-.808063 1.8050548-1.805054 1.8050548m71.068376 0h-61.759348c-.996992 0-1.805055-.8083637-1.805055-1.8050548v-.4127558c0-.996992.808063-1.8050548 1.805055-1.8050548h61.759348c.996691 0 1.805054.8080628 1.805054 1.8050548v.4127558c0 .9966911-.808363 1.8050548-1.805054 1.8050548M31.6555164 75.2795242c0 1.5734061-1.275572 2.849279-2.849279 2.849279-1.5737069 0-2.8495798-1.2758729-2.8495798-2.849279 0-1.5737069 1.2758729-2.8495798 2.8495798-2.8495798 1.573707 0 2.849279 1.2758729 2.849279 2.8495798M184.278855 87.3475789h-66.005439c-.996991 0-1.805054-.8083637-1.805054-1.8050547v-.412455c0-.9972928.808063-1.8050548 1.805054-1.8050548h66.005439c.996991 0 1.805054.807762 1.805054 1.8050548v.412455c0 .996691-.808063 1.8050547-1.805054 1.8050547m61.458505 0h-52.149537c-.996992 0-1.805055-.8083637-1.805055-1.8050547v-.412455c0-.9972928.808063-1.8050548 1.805055-1.8050548h52.149537c.996992 0 1.805054.807762 1.805054 1.8050548v.412455c0 .996691-.808062 1.8050547-1.805054 1.8050547M31.6555164 85.3362967c0 1.573406-1.275572 2.8495798-2.849279 2.8495798-1.5737069 0-2.8495798-1.2761738-2.8495798-2.8495798 0-1.573707 1.2758729-2.8495798 2.8495798-2.8495798 1.573707 0 2.849279 1.2758728 2.849279 2.8495798M121.70296 97.4043514H97.1539146c-.996992 0-1.8050548-.8080629-1.8050548-1.8050548v-.412455c0-.9969919.8080628-1.8050548 1.8050548-1.8050548H121.70296c.996992 0 1.805055.8080629 1.805055 1.8050548v.412455c0 .9969919-.808063 1.8050548-1.805055 1.8050548m71.403575 0h-62.094486c-.996992 0-1.805055-.8080629-1.805055-1.8050548v-.412455c0-.9969919.808063-1.8050548 1.805055-1.8050548h62.094486c.996992 0 1.805055.8080629 1.805055 1.8050548v.412455c0 .9969919-.808063 1.8050548-1.805055 1.8050548m105.261589 0h-57.848396c-.996992 0-1.805054-.8080629-1.805054-1.8050548v-.412455c0-.9969919.808062-1.8050548 1.805054-1.8050548h57.848396c.996992 0 1.805055.8080629 1.805055 1.8050548v.412455c0 .9969919-.808063 1.8050548-1.805055 1.8050548M31.6555164 95.3930691c0 1.5737069-1.275572 2.8495798-2.849279 2.8495798-1.5737069 0-2.8495798-1.2758729-2.8495798-2.8495798 0-1.5734061 1.2758729-2.8495798 2.8495798-2.8495798 1.573707 0 2.849279 1.2761737 2.849279 2.8495798m161.4510186 12.0683556h-43.321916c-.996691 0-1.805055-.8083637-1.805055-1.8050548v-.4127559c0-.9969919.808364-1.8050547 1.805055-1.8050547h43.321916c.996992 0 1.805055.8080628 1.805055 1.8050547v.4127559c0 .9966911-.808063 1.8050548-1.805055 1.8050548m52.630825 0h-43.321917c-.996691 0-1.805055-.8083637-1.805055-1.8050548v-.4127559c0-.9969919.808364-1.8050547 1.805055-1.8050547h43.321917c.996691 0 1.805054.8080628 1.805054 1.8050547v.4127559c0 .9966911-.808363 1.8050548-1.805054 1.8050548m-214.0818436-2.0115832c0 1.573707-1.275572 2.8495799-2.849279 2.8495799-1.5737069 0-2.8495798-1.2758729-2.8495798-2.8495799 0-1.573406 1.2758729-2.8495798 2.8495798-2.8495798 1.573707 0 2.849279 1.2761738 2.849279 2.8495798M231.21079 117.5181971h-48.573723c-.996992 0-1.805055-.8083637-1.805055-1.8050548v-.4127558c0-.9969919.808063-1.8050548 1.805055-1.8050548h48.573723c.996992 0 1.805055.8080629 1.805055 1.8050548v.4127558c0 .9966911-.808063 1.8050548-1.805055 1.8050548m67.157334 0h-57.848396c-.996992 0-1.805054-.8083637-1.805054-1.8050548v-.4127558c0-.9969919.808062-1.8050548 1.805054-1.8050548h57.848396c.996992 0 1.805055.8080629 1.805055 1.8050548v.4127558c0 .9966911-.808063 1.8050548-1.805055 1.8050548m-266.7126076-2.0112823c0 1.5734061-1.275572 2.849279-2.849279 2.849279-1.5737069 0-2.8495798-1.2758729-2.8495798-2.849279 0-1.5737069 1.2758729-2.8495798 2.8495798-2.8495798 1.573707 0 2.849279 1.2758729 2.849279 2.8495798m161.4510186 12.0680548h-43.321916c-.996691 0-1.805055-.8083637-1.805055-1.8050548v-.412455c0-.9972928.808364-1.8050548 1.805055-1.8050548h43.321916c.996992 0 1.805055.807762 1.805055 1.8050548v.412455c0 .9966911-.808063 1.8050548-1.805055 1.8050548m105.261589 0h-24.772572c-.996691 0-1.805055-.8083637-1.805055-1.8050548v-.412455c0-.9972928.808364-1.8050548 1.805055-1.8050548h24.772572c.996992 0 1.805055.807762 1.805055 1.8050548v.412455c0 .9966911-.808063 1.8050548-1.805055 1.8050548m-266.7126076-2.0112823c0 1.573406-1.275572 2.8495797-2.849279 2.8495797-1.5737069 0-2.8495798-1.2761737-2.8495798-2.8495797 0-1.573707 1.2758729-2.8495798 2.8495798-2.8495798 1.573707 0 2.849279 1.2758728 2.849279 2.8495798M179.13866 137.631742h-56.395627c-.996992 0-1.805055-.808364-1.805055-1.805055v-.412455c0-.996992.808063-1.805055 1.805055-1.805055h56.395627c.996992 0 1.805055.808063 1.805055 1.805055v.412455c0 .996691-.808063 1.805055-1.805055 1.805055m66.5987 0h-57.289731c-.996992 0-1.805055-.808364-1.805055-1.805055v-.412455c0-.996992.808063-1.805055 1.805055-1.805055h57.289731c.996992 0 1.805054.808063 1.805054 1.805055v.412455c0 .996691-.808062 1.805055-1.805054 1.805055m78.89031 0h-69.581252c-.996992 0-1.805055-.808364-1.805055-1.805055v-.412455c0-.996992.808063-1.805055 1.805055-1.805055h69.581252c.996992 0 1.805055.808063 1.805055 1.805055v.412455c0 .996691-.808063 1.805055-1.805055 1.805055M31.6555164 135.62046c0 1.573707-1.275572 2.84958-2.849279 2.84958-1.5737069 0-2.8495798-1.275873-2.8495798-2.84958s1.2758729-2.84958 2.8495798-2.84958c1.573707 0 2.849279 1.275873 2.849279 2.84958m33.2821415 12.068054H44.5230901c-.996992 0-1.8050548-.808062-1.8050548-1.805054v-.412455c0-.996992.8080628-1.805055 1.8050548-1.805055h20.4145678c.9969919 0 1.8050548.808063 1.8050548 1.805055v.412455c0 .996992-.8080629 1.805054-1.8050548 1.805054m128.1688771 0h-63.212116c-.996691 0-1.805054-.808062-1.805054-1.805054v-.412455c0-.996992.808363-1.805055 1.805054-1.805055h63.212116c.996992 0 1.805055.808063 1.805055 1.805055v.412455c0 .996992-.808063 1.805054-1.805055 1.805054m-161.4510186-2.011282c0 1.573707-1.275572 2.84958-2.849279 2.84958-1.5737069 0-2.8495798-1.275873-2.8495798-2.84958 0-1.573406 1.2758729-2.84958 2.8495798-2.84958 1.573707 0 2.849279 1.276174 2.849279 2.84958m0 10.056773c0 1.573707-1.275572 2.849579-2.849279 2.849579-1.5737069 0-2.8495798-1.275872-2.8495798-2.849579 0-1.573406 1.2758729-2.849279 2.8495798-2.849279 1.573707 0 2.849279 1.275873 2.849279 2.849279m99.6573446 12.515227H73.3528534c-.996992 0-1.8050548-.808063-1.8050548-1.805055v-.412455c0-.996992.8080628-1.805055 1.8050548-1.805055h57.9600076c.996692 0 1.805055.808063 1.805055 1.805055v.412455c0 .996992-.808363 1.805055-1.805055 1.805055m114.424499 0h-61.759348c-.996992 0-1.805055-.808063-1.805055-1.805055v-.412455c0-.996992.808063-1.805055 1.805055-1.805055h61.759348c.996691 0 1.805054.808063 1.805054 1.805055v.412455c0 .996992-.808062 1.805055-1.805054 1.805055m-214.0818436-2.011313c0 1.573707-1.275572 2.84958-2.849279 2.84958-1.5737069 0-2.8495798-1.275873-2.8495798-2.84958 0-1.573406 1.2758729-2.84958 2.8495798-2.84958 1.573707 0 2.849279 1.276174 2.849279 2.84958m77.3087816 12.068386H97.1538243c-.9966911 0-1.8050548-.808364-1.8050548-1.805055v-.412756c0-.996992.8083637-1.805055 1.8050548-1.805055h11.8104737c.996992 0 1.805054.808063 1.805054 1.805055v.412756c0 .996691-.808062 1.805055-1.805054 1.805055m75.314557 0h-66.005439c-.996991 0-1.805054-.808364-1.805054-1.805055v-.412756c0-.996992.808063-1.805055 1.805054-1.805055h66.005439c.996991 0 1.805054.808063 1.805054 1.805055v.412756c0 .996691-.808063 1.805055-1.805054 1.805055m61.458505 0h-52.149537c-.996992 0-1.805055-.808364-1.805055-1.805055v-.412756c0-.996992.808063-1.805055 1.805055-1.805055h52.149537c.996691 0 1.805054.808063 1.805054 1.805055v.412756c0 .996691-.808062 1.805055-1.805054 1.805055m-214.0818436-2.011613c0 1.573707-1.275572 2.849579-2.849279 2.849579-1.5737069 0-2.8495798-1.275872-2.8495798-2.849579 0-1.573406 1.2758729-2.84958 2.8495798-2.84958 1.573707 0 2.849279 1.276174 2.849279 2.84958m161.4510186 12.068385h-62.094486c-.996992 0-1.805055-.808363-1.805055-1.805055v-.412755c0-.996992.808063-1.805055 1.805055-1.805055h62.094486c.996992 0 1.805055.808063 1.805055 1.805055v.412755c0 .996692-.808063 1.805055-1.805055 1.805055m38.104255 0h-28.795136c-.996992 0-1.805055-.808363-1.805055-1.805055v-.412755c0-.996992.808063-1.805055 1.805055-1.805055h28.795136c.996992 0 1.805055.808063 1.805055 1.805055v.412755c0 .996692-.808063 1.805055-1.805055 1.805055m-199.5552736-2.011583c0 1.573707-1.275572 2.84958-2.849279 2.84958-1.5737069 0-2.8495798-1.275873-2.8495798-2.84958 0-1.573406 1.2758729-2.849279 2.8495798-2.849279 1.573707 0 2.849279 1.275873 2.849279 2.849279M193.106535 198.41985h-43.321916c-.996691 0-1.805055-.808364-1.805055-1.805055v-.412756c0-.996992.808364-1.805055 1.805055-1.805055h43.321916c.996992 0 1.805055.808063 1.805055 1.805055v.412756c0 .996691-.808063 1.805055-1.805055 1.805055m52.630825 0h-43.321917c-.996691 0-1.805055-.808364-1.805055-1.805055v-.412756c0-.996992.808364-1.805055 1.805055-1.805055h43.321917c.996691 0 1.805054.808063 1.805054 1.805055v.412756c0 .996691-.808062 1.805055-1.805054 1.805055m-214.0818436-2.011313c0 1.573406-1.275572 2.84958-2.849279 2.84958-1.5737069 0-2.8495798-1.276174-2.8495798-2.84958 0-1.573707 1.2758729-2.849579 2.8495798-2.849579 1.573707 0 2.849279 1.275872 2.849279 2.849579M231.21079 208.476622h-48.573723c-.996992 0-1.805055-.808364-1.805055-1.805055v-.412455c0-.997292.808063-1.805054 1.805055-1.805054h48.573723c.996992 0 1.805055.807762 1.805055 1.805054v.412455c0 .996691-.808063 1.805055-1.805055 1.805055m67.157334 0h-57.848396c-.996992 0-1.805054-.808364-1.805054-1.805055v-.412455c0-.997292.808062-1.805054 1.805054-1.805054h57.848396c.996992 0 1.805055.807762 1.805055 1.805054v.412455c0 .996691-.808063 1.805055-1.805055 1.805055M31.6555164 206.46534c0 1.573406-1.275572 2.84958-2.849279 2.84958-1.5737069 0-2.8495798-1.276174-2.8495798-2.84958 0-1.573707 1.2758729-2.84958 2.8495798-2.84958 1.573707 0 2.849279 1.275873 2.849279 2.84958m232.6311276 12.068055h-61.87096c-.996992 0-1.805055-.808063-1.805055-1.805055v-.412455c0-.996992.808063-1.805055 1.805055-1.805055h61.87096c.996992 0 1.805055.808063 1.805055 1.805055v.412455c0 .996992-.808063 1.805055-1.805055 1.805055m-232.6311276-2.011283c0 1.573707-1.275572 2.84958-2.849279 2.84958-1.5737069 0-2.8495798-1.275873-2.8495798-2.84958 0-1.573406 1.2758729-2.849579 2.8495798-2.849579 1.573707 0 2.849279 1.276173 2.849279 2.849579m81.7784576 12.068356H97.1538845c-.9966911 0-1.8050548-.808364-1.8050548-1.805055v-.412756c0-.996992.8083637-1.805055 1.8050548-1.805055h16.2800895c.996992 0 1.805055.808063 1.805055 1.805055v.412756c0 .996691-.808063 1.805055-1.805055 1.805055m65.704686 0h-56.395627c-.996992 0-1.805055-.808364-1.805055-1.805055v-.412756c0-.996992.808063-1.805055 1.805055-1.805055h56.395627c.996992 0 1.805055.808063 1.805055 1.805055v.412756c0 .996691-.808063 1.805055-1.805055 1.805055m66.5987 0h-57.289731c-.996992 0-1.805055-.808364-1.805055-1.805055v-.412756c0-.996992.808063-1.805055 1.805055-1.805055h57.289731c.996691 0 1.805054.808063 1.805054 1.805055v.412756c0 .996691-.808062 1.805055-1.805054 1.805055m78.89031 0h-69.581252c-.996992 0-1.805055-.808364-1.805055-1.805055v-.412756c0-.996992.808063-1.805055 1.805055-1.805055h69.581252c.996992 0 1.805055.808063 1.805055 1.805055v.412756c0 .996691-.808063 1.805055-1.805055 1.805055m-292.9721536-2.011583c0 1.573707-1.275572 2.84958-2.849279 2.84958-1.5737069 0-2.8495798-1.275873-2.8495798-2.84958 0-1.573406 1.2758729-2.849279 2.8495798-2.849279 1.573707 0 2.849279 1.275873 2.849279 2.849279m33.2821415 12.068355H44.5230901c-.996992 0-1.8050548-.808363-1.8050548-1.805054v-.412756c0-.996992.8080628-1.805055 1.8050548-1.805055h20.4145678c.9969919 0 1.8050548.808063 1.8050548 1.805055v.412756c0 .996691-.8080629 1.805054-1.8050548 1.805054m55.6478531 0H74.2467466c-.996992 0-1.8050548-.808363-1.8050548-1.805054v-.412756c0-.996992.8080628-1.805055 1.8050548-1.805055h46.3387644c.996992 0 1.805055.808063 1.805055 1.805055v.412756c0 .996691-.808063 1.805054-1.805055 1.805054m-88.9299946-2.011282c0 1.573406-1.275572 2.849279-2.849279 2.849279-1.5737069 0-2.8495798-1.275873-2.8495798-2.849279 0-1.573707 1.2758729-2.84958 2.8495798-2.84958 1.573707 0 2.849279 1.275873 2.849279 2.84958m0 10.056772c0 1.573407-1.275572 2.84958-2.849279 2.84958-1.5737069 0-2.8495798-1.276173-2.8495798-2.84958 0-1.573706 1.2758729-2.849579 2.8495798-2.849579 1.573707 0 2.849279 1.275873 2.849279 2.849579M60.80321 257.772187H44.5231201c-.9969919 0-1.8050547-.808364-1.8050547-1.805055v-.412756c0-.996992.8080628-1.805055 1.8050547-1.805055H60.80321c.9969919 0 1.8050548.808063 1.8050548 1.805055v.412756c0 .996691-.8080629 1.805055-1.8050548 1.805055m65.704686 0H70.1122686c-.9969919 0-1.8050548-.808364-1.8050548-1.805055v-.412756c0-.996992.8080629-1.805055 1.8050548-1.805055h56.3956274c.996992 0 1.805055.808063 1.805055 1.805055v.412756c0 .996691-.808063 1.805055-1.805055 1.805055m-94.8523796-2.011583c0 1.573707-1.275572 2.849579-2.849279 2.849579-1.5737069 0-2.8495798-1.275872-2.8495798-2.849579 0-1.573406 1.2758729-2.849279 2.8495798-2.849279 1.573707 0 2.849279 1.275873 2.849279 2.849279m33.2821415 12.068355H44.5230901c-.996992 0-1.8050548-.808363-1.8050548-1.805055v-.412755c0-.996992.8080628-1.805055 1.8050548-1.805055h20.4145678c.9969919 0 1.8050548.808063 1.8050548 1.805055v.412755c0 .996692-.8080629 1.805055-1.8050548 1.805055m93.3000321 0H74.2466864c-.9969919 0-1.8050548-.808363-1.8050548-1.805055v-.412755c0-.996992.8080629-1.805055 1.8050548-1.805055H158.23769c.996992 0 1.805055.808063 1.805055 1.805055v.412755c0 .996692-.808063 1.805055-1.805055 1.805055"/>
    <path fill="#FCBF6E" d="M18.9339717 37.0519538c0 1.0523469-.8531893 1.905837-1.905837 1.905837-1.052347 0-1.9055362-.8534901-1.9055362-1.905837 0-1.05234693.8531892-1.905837 1.9055362-1.905837 1.0526477 0 1.905837.85349007 1.905837 1.905837"/>
    <path fill="#3F3A6D" d="M193.106535 267.828959h-25.559876c-.996992 0-1.805055-.808363-1.805055-1.805055v-.412755c0-.996992.808063-1.805055 1.805055-1.805055h25.559876c.996992 0 1.805055.808063 1.805055 1.805055v.412755c0 .996692-.808063 1.805055-1.805055 1.805055m-161.4510186-2.011282c0 1.573406-1.275572 2.849279-2.849279 2.849279-1.5737069 0-2.8495798-1.275873-2.8495798-2.849279 0-1.573707 1.2758729-2.84958 2.8495798-2.84958 1.573707 0 2.849279 1.275873 2.849279 2.84958m0 10.056772c0 1.573406-1.275572 2.84958-2.849279 2.84958-1.5737069 0-2.8495798-1.276174-2.8495798-2.84958 0-1.573707 1.2758729-2.849579 2.8495798-2.849579 1.573707 0 2.849279 1.275872 2.849279 2.849579"/>
    <path fill="#F95481" d="M12.1683857 37.0519538c0 1.0523469-.8531892 1.905837-1.9055362 1.905837-1.05264775 0-1.90583697-.8534901-1.90583697-1.905837 0-1.05234693.85318922-1.905837 1.90583697-1.905837 1.052347 0 1.9055362.85349007 1.9055362 1.905837"/>
    <path fill="#44DB99" d="M25.6994674 37.0519538c0 1.0523469-.8531892 1.905837-1.9055362 1.905837-1.0526477 0-1.905837-.8534901-1.905837-1.905837 0-1.05234693.8531893-1.905837 1.905837-1.905837 1.052347 0 1.9055362.85349007 1.9055362 1.905837"/>
    <use fill="#000" filter="url(#abz)" xlink:href="#baz"/>
    <use fill="#FFF" xlink:href="#baz"/>
    <use fill="#000" filter="url(#c)" xlink:href="#baz"/>
    <use fill="#000" filter="url(#d)" xlink:href="#e"/>
    <use fill="url(#f)" xlink:href="#e"/>
    <use fill="#000" filter="url(#g)" xlink:href="#h"/>
    <use fill="#F6F7FA" xlink:href="#h"/>
    <path fill="#FFF" stroke="#F4F4F4" d="M110.296028 19.3015908h410.128756v264.533019H110.296028z"/>
    <rect width="26.5615769" height="1.34280721" x="298.478048" y="9.45433794" fill="#E8EAEE" rx=".6714036"/>
    <rect width="2.2509811" height="2.23801201" x="291.725104" y="9.00673554" fill="#C3C7CF" rx="1.119006"/>
    <path fill="#F6F7FA" d="M45.9179688 314.719176h539.335071v9.39965044H45.9179688z"/>
    <path fill="#F4F1F9" d="M110.417969 50.2463797h409.909235V19.30633105H110.417969"/>
    <g transform="translate(110.418 19.25)">
      <path fill="#C4C8D8" d="M27.6269251 44.3388768H9.6229304c-.8644662 0-1.56504532-.7005791-1.56504532-1.564739 0-.8644662.7005791-1.5650453 1.56504533-1.5650453h18.0039947c.8641599 0 1.564739.7005791 1.564739 1.5650453 0 .8641599-.7005791 1.564739-1.564739 1.564739z"/>
      <path fill="#F4F1F9" d="M26.5078059 54.6132202H11.7110973c-.7486731 0-1.3558213-.6068418-1.3558213-1.3558212v-.1240641c0-.7486731.6071482-1.3558212 1.3558213-1.3558212h14.7967086c.7486731 0 1.3558213.6071481 1.3558213 1.3558212v.1240641c0 .7489794-.6071482 1.3558212-1.3558213 1.3558212m3.6523545 10.2620901H11.7735582c-.7832885 0-1.4180065-.6347179-1.4180065-1.4177001 0-.7832885.634718-1.4180064 1.4180065-1.4180064h18.3866022c.7829822 0 1.4177001.6347179 1.4177001 1.4180064 0 .7829822-.6347179 1.4177001-1.4177001 1.4177001m-1.3135782 10.2620902H11.7735275c-.7832885 0-1.4180064-.634718-1.4180064-1.4177001 0-.7832885.6347179-1.4180065 1.4180064-1.4180065h17.0730547c.7829822 0 1.4177001.634718 1.4177001 1.4180065 0 .7829821-.6347179 1.4177001-1.4177001 1.4177001m.7894458 10.2620901H11.7732518c-.7829821 0-1.4177001-.6347179-1.4177001-1.4177001 0-.7832885.634718-1.4180064 1.4177001-1.4180064H29.636028c.7829821 0 1.4177001.6347179 1.4177001 1.4180064 0 .7829822-.634718 1.4177001-1.4177001 1.4177001"/>
      <path fill="#C4C8D8" d="M27.6269251 96.2108323H9.6229304c-.8644662 0-1.56504532-.7002728-1.56504532-1.5644327 0-.8644662.7005791-1.5650453 1.56504533-1.5650453h18.0039947c.8641599 0 1.564739.7005791 1.564739 1.5650453 0 .8641599-.7005791 1.5644327-1.564739 1.5644327"/>
      <path fill="#F4F1F9" d="M26.5078059 106.485482H11.7110973c-.7486731 0-1.3558213-.606842-1.3558213-1.355821v-.124064c0-.748673.6071482-1.355821 1.3558213-1.355821h14.7967086c.7486731 0 1.3558213.607148 1.3558213 1.355821v.124064c0 .748979-.6071482 1.355821-1.3558213 1.355821M160.476176 121.61358h-48.856739c-.773486 0-1.400239-.62706-1.400239-1.399933 0-.773486.626753-1.40024 1.400239-1.40024h48.856739c.77318 0 1.399933.626754 1.399933 1.40024 0 .772873-.626753 1.399933-1.399933 1.399933m51.31765 0H167.30935c-.738871 0-1.337748-.598878-1.337748-1.337748v-.124677c0-.73887.598877-1.337748 1.337748-1.337748h44.484476c.738564 0 1.337441.598878 1.337441 1.337748v.124677c0 .73887-.598877 1.337748-1.337441 1.337748m25.128703 0h-8.667637c-.773179 0-1.399933-.62706-1.399933-1.399933 0-.773486.626754-1.40024 1.399933-1.40024h8.667637c.77318 0 1.399933.626754 1.399933 1.40024 0 .772873-.626753 1.399933-1.399933 1.399933m109.250396 0h-81.388178c-.773179 0-1.399933-.62706-1.399933-1.399933 0-.773486.626754-1.40024 1.399933-1.40024h81.388178c.773179 0 1.399933.626754 1.399933 1.40024 0 .772873-.626754 1.399933-1.399933 1.399933m-185.696749 8.8836h-48.856739c-.773486 0-1.400239-.62706-1.400239-1.399933 0-.773486.626753-1.400239 1.400239-1.400239h48.856739c.77318 0 1.399933.626753 1.399933 1.400239 0 .772873-.626753 1.399933-1.399933 1.399933m51.31765 0H167.30935c-.738871 0-1.337748-.598877-1.337748-1.337748v-.124676c0-.738871.598877-1.337748 1.337748-1.337748h44.484476c.738564 0 1.337441.598877 1.337441 1.337748v.124676c0 .738871-.598877 1.337748-1.337441 1.337748m25.128703 0h-8.667637c-.773179 0-1.399933-.62706-1.399933-1.399933 0-.773486.626754-1.400239 1.399933-1.400239h8.667637c.77318 0 1.399933.626753 1.399933 1.400239 0 .772873-.626753 1.399933-1.399933 1.399933m109.250396 0h-81.388178c-.773179 0-1.399933-.62706-1.399933-1.399933 0-.773486.626754-1.400239 1.399933-1.400239h81.388178c.773179 0 1.399933.626753 1.399933 1.400239 0 .772873-.626754 1.399933-1.399933 1.399933m-204.321891 24.812815h-30.517005c-.615726 0-1.114739-.49932-1.114739-1.114739v-.570694c0-.615726.499013-1.114739 1.114739-1.114739h30.517005c.615725 0 1.114739.499013 1.114739 1.114739v.570694c0 .615419-.499014 1.114739-1.114739 1.114739m69.942792 0H167.30935c-.738871 0-1.337748-.598877-1.337748-1.337748v-.124676c0-.738871.598877-1.337748 1.337748-1.337748h44.484476c.738564 0 1.337441.598877 1.337441 1.337748v.124676c0 .738871-.598877 1.337748-1.337441 1.337748m25.128703 0h-8.667637c-.773179 0-1.399933-.62706-1.399933-1.399933 0-.773486.626754-1.400239 1.399933-1.400239h8.667637c.77318 0 1.399933.626753 1.399933 1.400239 0 .772873-.626753 1.399933-1.399933 1.399933m109.250396 0h-81.388178c-.773179 0-1.399933-.62706-1.399933-1.399933 0-.773486.626754-1.400239 1.399933-1.400239h81.388178c.773179 0 1.399933.626753 1.399933 1.400239 0 .772873-.626754 1.399933-1.399933 1.399933m-185.696749 8.577269h-48.856739c-.773486 0-1.400239-.627059-1.400239-1.399933 0-.773485.626753-1.400239 1.400239-1.400239h48.856739c.77318 0 1.399933.626754 1.399933 1.400239 0 .772874-.626753 1.399933-1.399933 1.399933m39.084748 0h-32.441071c-.634411 0-1.148128-.514329-1.148128-1.148128v-.503915c0-.634105.513717-1.148129 1.148128-1.148129h32.441071c.634105 0 1.148129.514024 1.148129 1.148129v.503915c0 .633799-.514024 1.148128-1.148129 1.148128m37.361605 0h-8.667637c-.773179 0-1.399933-.627059-1.399933-1.399933 0-.773485.626754-1.400239 1.399933-1.400239h8.667637c.77318 0 1.399933.626754 1.399933 1.400239 0 .772874-.626753 1.399933-1.399933 1.399933m109.250396 0h-81.388178c-.773179 0-1.399933-.627059-1.399933-1.399933 0-.773485.626754-1.400239 1.399933-1.400239h81.388178c.773179 0 1.399933.626754 1.399933 1.400239 0 .772874-.626754 1.399933-1.399933 1.399933m-194.826241 8.57727h-39.858877c-.700579 0-1.268517-.567938-1.268517-1.268517v-.263138c0-.70058.567938-1.268517 1.268517-1.268517h39.858877c.700579 0 1.268517.567937 1.268517 1.268517v.263138c0 .700579-.567938 1.268517-1.268517 1.268517m60.447142 0H167.30935c-.738871 0-1.337748-.598877-1.337748-1.337748v-.124677c0-.73887.598877-1.337747 1.337748-1.337747h44.484476c.738564 0 1.337441.598877 1.337441 1.337747v.124677c0 .738871-.598877 1.337748-1.337441 1.337748m25.128703 0h-8.667637c-.773179 0-1.399933-.62706-1.399933-1.399933 0-.773486.626754-1.400239 1.399933-1.400239h8.667637c.77318 0 1.399933.626753 1.399933 1.400239 0 .772873-.626753 1.399933-1.399933 1.399933m109.250396 0h-81.388178c-.773179 0-1.399933-.62706-1.399933-1.399933 0-.773486.626754-1.400239 1.399933-1.400239h81.388178c.773179 0 1.399933.626753 1.399933 1.400239 0 .772873-.626754 1.399933-1.399933 1.399933M156.6297 181.041803h-45.064054c-.743466 0-1.346325-.602859-1.346325-1.346325v-.107522c0-.743772.602859-1.346325 1.346325-1.346325H156.6297c.743465 0 1.346325.602553 1.346325 1.346325v.107522c0 .743466-.60286 1.346325-1.346325 1.346325m42.931224 0h-32.441071c-.634411 0-1.148128-.51433-1.148128-1.148129v-.503914c0-.634106.513717-1.148129 1.148128-1.148129h32.441071c.634105 0 1.148129.514023 1.148129 1.148129v.503914c0 .633799-.514024 1.148129-1.148129 1.148129m37.361605 0h-8.667637c-.773179 0-1.399933-.62706-1.399933-1.399933 0-.773486.626754-1.400239 1.399933-1.400239h8.667637c.77318 0 1.399933.626753 1.399933 1.400239 0 .772873-.626753 1.399933-1.399933 1.399933m109.250396 0h-81.388178c-.773179 0-1.399933-.62706-1.399933-1.399933 0-.773486.626754-1.400239 1.399933-1.400239h81.388178c.773179 0 1.399933.626753 1.399933 1.400239 0 .772873-.626754 1.399933-1.399933 1.399933m-185.696749 8.577269h-48.856739c-.773486 0-1.400239-.627059-1.400239-1.399932 0-.773486.626753-1.40024 1.400239-1.40024h48.856739c.77318 0 1.399933.626754 1.399933 1.40024 0 .772873-.626753 1.399932-1.399933 1.399932m51.31765 0H167.30935c-.738871 0-1.337748-.598877-1.337748-1.337747v-.124677c0-.73887.598877-1.337748 1.337748-1.337748h44.484476c.738564 0 1.337441.598878 1.337441 1.337748v.124677c0 .73887-.598877 1.337747-1.337441 1.337747m25.128703 0h-8.667637c-.773179 0-1.399933-.627059-1.399933-1.399932 0-.773486.626754-1.40024 1.399933-1.40024h8.667637c.77318 0 1.399933.626754 1.399933 1.40024 0 .772873-.626753 1.399932-1.399933 1.399932m109.250396 0h-81.388178c-.773179 0-1.399933-.627059-1.399933-1.399932 0-.773486.626754-1.40024 1.399933-1.40024h81.388178c.773179 0 1.399933.626754 1.399933 1.40024 0 .772873-.626754 1.399932-1.399933 1.399932m-194.826241 8.57727h-39.858877c-.700579 0-1.268517-.567938-1.268517-1.268517v-.263138c0-.700579.567938-1.268517 1.268517-1.268517h39.858877c.700579 0 1.268517.567938 1.268517 1.268517v.263138c0 .700579-.567938 1.268517-1.268517 1.268517m65.423214 0h-49.398332c-.77318 0-1.399933-.62706-1.399933-1.399933 0-.773486.626753-1.400239 1.399933-1.400239h49.398332c.773179 0 1.399933.626753 1.399933 1.400239 0 .772873-.626754 1.399933-1.399933 1.399933m20.152631 0h-8.667637c-.773179 0-1.399933-.62706-1.399933-1.399933 0-.773486.626754-1.400239 1.399933-1.400239h8.667637c.77318 0 1.399933.626753 1.399933 1.400239 0 .772873-.626753 1.399933-1.399933 1.399933m109.250396 0h-81.388178c-.773179 0-1.399933-.62706-1.399933-1.399933 0-.773486.626754-1.400239 1.399933-1.400239h81.388178c.773179 0 1.399933.626753 1.399933 1.400239 0 .772873-.626754 1.399933-1.399933 1.399933M156.6297 206.773611h-45.064054c-.743466 0-1.346325-.602859-1.346325-1.346325v-.107522c0-.743772.602859-1.346325 1.346325-1.346325H156.6297c.743465 0 1.346325.602553 1.346325 1.346325v.107522c0 .743466-.60286 1.346325-1.346325 1.346325m55.164126 0H167.30935c-.738871 0-1.337748-.598877-1.337748-1.337747v-.124677c0-.738871.598877-1.337748 1.337748-1.337748h44.484476c.738564 0 1.337441.598877 1.337441 1.337748v.124677c0 .73887-.598877 1.337747-1.337441 1.337747m25.128703 0h-8.667637c-.773179 0-1.399933-.627059-1.399933-1.399933 0-.773486.626754-1.400239 1.399933-1.400239h8.667637c.77318 0 1.399933.626753 1.399933 1.400239 0 .772874-.626753 1.399933-1.399933 1.399933m109.250396 0h-81.388178c-.773179 0-1.399933-.627059-1.399933-1.399933 0-.773486.626754-1.400239 1.399933-1.400239h81.388178c.773179 0 1.399933.626753 1.399933 1.400239 0 .772874-.626754 1.399933-1.399933 1.399933m-204.321891 8.57727h-30.517005c-.615726 0-1.114739-.49932-1.114739-1.114739v-.570695c0-.615725.499013-1.114739 1.114739-1.114739h30.517005c.615725 0 1.114739.499014 1.114739 1.114739v.570695c0 .615419-.499014 1.114739-1.114739 1.114739m74.918864 0h-49.398332c-.77318 0-1.399933-.62706-1.399933-1.399933 0-.773486.626753-1.40024 1.399933-1.40024h49.398332c.773179 0 1.399933.626754 1.399933 1.40024 0 .772873-.626754 1.399933-1.399933 1.399933m20.152631 0h-8.667637c-.773179 0-1.399933-.62706-1.399933-1.399933 0-.773486.626754-1.40024 1.399933-1.40024h8.667637c.77318 0 1.399933.626754 1.399933 1.40024 0 .772873-.626753 1.399933-1.399933 1.399933m109.250396 0h-81.388178c-.773179 0-1.399933-.62706-1.399933-1.399933 0-.773486.626754-1.40024 1.399933-1.40024h81.388178c.773179 0 1.399933.626754 1.399933 1.40024 0 .772873-.626754 1.399933-1.399933 1.399933M152.554057 241.38902h-41.048054c-.710382 0-1.286591-.576209-1.286591-1.286591v-.226991c0-.710688.576209-1.28659 1.286591-1.28659h41.048054c.710382 0 1.286284.575902 1.286284 1.28659v.226991c0 .710382-.575902 1.286591-1.286284 1.286591m38.431099 0h-24.02003c-.548639 0-.993432-.444793-.993432-.993432v-.813309c0-.548332.444793-.993431.993432-.993431h24.02003c.548639 0 .993431.445099.993431.993431v.813309c0 .548639-.444792.993432-.993431.993432m45.937373 0h-8.667637c-.773179 0-1.399933-.62706-1.399933-1.399933 0-.773486.626754-1.400239 1.399933-1.400239h8.667637c.77318 0 1.399933.626753 1.399933 1.400239 0 .772873-.626753 1.399933-1.399933 1.399933m109.250396 0h-81.388178c-.773179 0-1.399933-.62706-1.399933-1.399933 0-.773486.626754-1.400239 1.399933-1.400239h81.388178c.773179 0 1.399933.626753 1.399933 1.400239 0 .772873-.626754 1.399933-1.399933 1.399933"/>
      <g transform="translate(109.973 247.515)">
        <mask id="j" fill="#fff">
          <use xlink:href="#i"/>
        </mask>
        <path fill="#F4F1F9" d="M37.0005327 3.06346366H1.44683218c-.66320672 0-1.20020505-.53730466-1.20020505-1.20020505v-.4000683c0-.66259406.53699833-1.19989872 1.20020505-1.19989872H37.0005327c.6625941 0 1.1998987.53730466 1.1998987 1.19989872v.40006835c0 .6629004-.5373046 1.20020506-1.1998987 1.20020506" mask="url(#j)"/>
      </g>
      <g transform="translate(165.725 247.515)">
        <mask id="l" fill="#fff">
          <use xlink:href="#k"/>
        </mask>
        <path fill="#F4F1F9" d="M46.0687282 3.06346366H1.5842523c-.7388705 0-1.3377477-.5988772-1.3377477-1.3377477v-.12467673c0-.7388705.5988772-1.3377477 1.3377477-1.3377477h44.4844759c.7385642 0 1.3374414.5988772 1.3374414 1.3377477v.12467673c0 .7388705-.5988772 1.3377477-1.3374414 1.3377477" mask="url(#l)"/>
      </g>
      <g transform="translate(226.685 247.515)">
        <mask id="n" fill="#fff">
          <use xlink:href="#m"/>
        </mask>
        <path fill="#F4F1F9" d="M10.237553 3.06346366H1.569916c-.77317958 0-1.3999329-.62705966-1.3999329-1.3999329 0-.7734859.62675332-1.40023922 1.3999329-1.40023922h8.667637c.7731796 0 1.3999329.62675332 1.3999329 1.40023922 0 .77287324-.6267533 1.3999329-1.3999329 1.3999329" mask="url(#n)"/>
      </g>
      <g transform="translate(263.138 247.515)">
        <mask id="p" fill="#fff">
          <use xlink:href="#o"/>
        </mask>
        <path fill="#F4F1F9" d="M83.0345536 3.06346366H1.64637622c-.77317957 0-1.3999329-.62705966-1.3999329-1.3999329 0-.7734859.62675333-1.40023922 1.3999329-1.40023922H83.0345536c.7731796 0 1.3999329.62675332 1.3999329 1.40023922 0 .77287324-.6267533 1.3999329-1.3999329 1.3999329" mask="url(#p)"/>
      </g>
      <path fill="#F4F1F9" d="M30.1601604 116.747572H11.7735582c-.7832885 0-1.4180065-.634718-1.4180065-1.418006 0-.782982.634718-1.4177 1.4180065-1.4177h18.3866022c.7829822 0 1.4177001.634718 1.4177001 1.4177 0 .783288-.6347179 1.418006-1.4177001 1.418006m1.3303038 10.26209H11.7734663c-.7832885 0-1.4180065-.634718-1.4180065-1.418006 0-.782982.634718-1.4177 1.4180065-1.4177h19.7169979c.7829822 0 1.4177001.634718 1.4177001 1.4177 0 .783288-.6347179 1.418006-1.4177001 1.418006m-5.6380842 10.26209h-9.5468071c-.5881556 0-1.0651131-.476957-1.0651131-1.065113v-.705786c0-.588156.4769575-1.064807 1.0651131-1.064807H25.85238c.5881556 0 1.0651131.476651 1.0651131 1.064807v.705786c0 .588156-.4769575 1.065113-1.0651131 1.065113m30.3471142 10.823595H16.5749604c-.7367262 0-1.3343781-.597345-1.3343781-1.334378v-.166644c0-.737339.5976519-1.334684 1.3343781-1.334684h39.6245338c.7370326 0 1.3343781.597345 1.3343781 1.334684v.166644c0 .737033-.5973455 1.334378-1.3343781 1.334378m-16.4967234 10.415256H16.658405c-.7829822 0-1.4177001-.634718-1.4177001-1.418006 0-.782983.6347179-1.4177 1.4177001-1.4177h23.0443658c.7829822 0 1.4177001.634717 1.4177001 1.4177 0 .783288-.6347179 1.418006-1.4177001 1.418006m-5.1815897 10.415256H16.658405c-.7829822 0-1.4177001-.634718-1.4177001-1.418007 0-.782982.6347179-1.4177 1.4177001-1.4177h17.8627761c.7829822 0 1.4177001.634718 1.4177001 1.4177 0 .783289-.6347179 1.418007-1.4177001 1.418007m21.5394839 10.415255H16.6585275c-.7832885 0-1.4180064-.634718-1.4180064-1.418006 0-.782982.6347179-1.4177 1.4180064-1.4177H56.060665c.7832885 0 1.4180064.634718 1.4180064 1.4177 0 .783288-.6347179 1.418006-1.4180064 1.418006M34.5211811 189.75637H16.658405c-.7829822 0-1.4177001-.634718-1.4177001-1.418006 0-.782983.6347179-1.4177 1.4177001-1.4177h17.8627761c.7829822 0 1.4177001.634717 1.4177001 1.4177 0 .783288-.6347179 1.418006-1.4177001 1.418006m24.3548194 10.415256H23.7042948c-.7832885 0-1.4180064-.634718-1.4180064-1.418007 0-.782982.6347179-1.4177 1.4180064-1.4177h35.1717057c.7829822 0 1.4177001.634718 1.4177001 1.4177 0 .783289-.6347179 1.418007-1.4177001 1.418007"/>
      <path fill="#C4C8D8" d="M378.092099 93.5400238H205.538883l8.262361-15.9126727-8.262361-15.6238025h172.553216l8.262361 15.6238025"/>
      <path fill="#C4C8D8" fill-opacity=".6" d="M205.541514 93.5400238h-92.729472l8.262361-15.9126727-8.262361-15.6238025h92.729472l8.262361 15.6238025"/>
      <path fill="#C4C8D8" fill-opacity=".3" d="M112.804962 93.5400238H81.1291065c-1.7767201 0-3.2170887-1.3846163-3.2170887-3.0924119V65.0959606c0-1.708102 1.4403686-3.092412 3.2170887-3.092412h31.6758555l8.262361 15.6238025-8.262361 15.9126727z"/>
      <mask id="r" fill="#fff">
        <use xlink:href="#q"/>
      </mask>
      <path fill="#326DE2" fill-opacity=".5" d="M65.0020294 180.113161h4.5949658v-4.594966h-4.5949658" mask="url(#r)"/>
      <path fill="#FA6D62" fill-opacity=".5" d="M65.0020294 149.030668h4.5949658v-4.594966h-4.5949658" mask="url(#r)"/>
      <path fill="#326DE2" d="M342.530189 24.1009016h35.093898V7.957868h-35.093898" mask="url(#r)"/>
      <path fill="#FFF" d="M78.2164257 24.1009016H342.372429V7.957868H78.2164257m283.3346853 9.5468378c-1.078285 1.0782853-2.829274 1.0782853-3.907559 0-1.077979-1.0782853-1.077979-2.8292736 0-3.9075589 1.078285-1.077979 2.829274-1.077979 3.907559 0 1.078285 1.0782853 1.081042 2.8265166 0 3.9075589m-4.729445-4.7294451c-1.531043 1.5307363-1.531043 4.0147747.002757 5.5485743 1.533799 1.5337996 4.015081 1.5307362 5.545817 0 1.531043-1.5307363 1.531043-4.0150811-.003063-5.5485743-1.5338-1.5341059-4.011712-1.5341059-5.545511 0" mask="url(#r)"/>
      <path fill="#FFF" d="M364.307784 20.2613789c-.230974.2306673-.605004.2306673-.835977 0l-1.700138-1.70075c-.097413-.0968006-.097413-.2545611 0-.3513617l.484003-.4840031c.096801-.0974133.254561-.0974133.351362 0l1.70075 1.7001373c.230667.2309737.230667.6050039 0 .8359775" mask="url(#r)"/>
      <path fill="#F4F1F9" d="M104.491481 51.4353419H79.1719948c-.6212394 0-1.1245413-.5033019-1.1245413-1.124235v-8.7785288c0-.6209331.5033019-1.1245413 1.1245413-1.1245413h25.3194862c.620933 0 1.124542.5036082 1.124542 1.1245413v8.7785288c0 .6209331-.503609 1.124235-1.124542 1.124235m8.681484 0c-.62124 0-1.124235-.5033019-1.124235-1.124235v-8.7785288c0-.6209331.502995-1.1245413 1.124235-1.1245413h25.319486c.620933 0 1.124541.5036082 1.124541 1.1245413v8.7785288c0 .6209331-.503608 1.124235-1.124541 1.124235h-25.319486zm100.847428 0H148.09305c-.620933 0-1.124541-.5033019-1.124541-1.124235v-8.7785288c0-.6209331.503608-1.1245413 1.124541-1.1245413h65.927343c.620933 0 1.124541.5036082 1.124541 1.1245413v8.7785288c0 .6209331-.503608 1.124235-1.124541 1.124235m56.73588 0h-48.12277c-.620933 0-1.124541-.5033019-1.124541-1.124235v-8.7785288c0-.6209331.503608-1.1245413 1.124541-1.1245413h48.12277c.620933 0 1.124541.5036082 1.124541 1.1245413v8.7785288c0 .6209331-.503608 1.124235-1.124541 1.124235m36.744746 0h-27.88991c-.620933 0-1.124541-.5033019-1.124541-1.124235v-8.7785288c0-.6209331.503608-1.1245413 1.124541-1.1245413h27.88991c.620627 0 1.124235.5036082 1.124235 1.1245413v8.7785288c0 .6209331-.503608 1.124235-1.124235 1.124235m34.941498 0h-25.474796c-.620933 0-1.124542-.5033019-1.124542-1.124235v-8.7785288c0-.6209331.503609-1.1245413 1.124542-1.1245413h25.474796c.620933 0 1.124541.5036082 1.124541 1.1245413v8.7785288c0 .6209331-.503608 1.124235-1.124541 1.124235" mask="url(#r)"/>
      <path fill="#326DE2" d="M376.955917 51.4353419h-25.475102c-.620933 0-1.124542-.5033019-1.124542-1.124235v-8.7785288c0-.6209331.503609-1.1245413 1.124542-1.1245413h25.475102c.620933 0 1.124542.5036082 1.124542 1.1245413v8.7785288c0 .6209331-.503609 1.124235-1.124542 1.124235" mask="url(#r)"/>
      <path fill="#FA6D62" fill-opacity=".5" d="M384.914827 113.384517H79.3012052c-.6212393 0-1.1245412-.503608-1.1245412-1.124542v-11.229789c0-.620933.5033019-1.1242354 1.1245412-1.1242354H384.914827c.620933 0 1.124541.5033024 1.124541 1.1242354v11.229789c0 .620934-.503608 1.124542-1.124541 1.124542" mask="url(#r)"/>
      <path fill="#FCBF6E" fill-opacity=".5" d="M384.914827 148.918918H79.3012052c-.6212393 0-1.1245412-.503608-1.1245412-1.124541v-11.22979c0-.620933.5033019-1.124235 1.1245412-1.124235H384.914827c.620933 0 1.124541.503302 1.124541 1.124235v11.22979c0 .620933-.503608 1.124541-1.124541 1.124541" mask="url(#r)"/>
      <path fill="#44DB99" fill-opacity=".5" d="M384.914827 234.385281H79.3012052c-.6212393 0-1.1245412-.503608-1.1245412-1.124541v-11.22979c0-.620933.5033019-1.124235 1.1245412-1.124235H384.914827c.620933 0 1.124541.503302 1.124541 1.124235v11.22979c0 .620933-.503608 1.124541-1.124541 1.124541" mask="url(#r)"/>
      <path fill="#FCA724" d="M23.8965175 24.2011944H9.1028722c-.38628347 0-.6993538-.3130703-.6993538-.6996601V8.70788893c0-.38628345.31307033-.69935378.6993538-.69935378h14.7936453c.3865898 0 .6996602.31307033.6996602.69935378V23.5015343c0 .3865898-.3130704.6996601-.6996602.6996601" mask="url(#r)"/>
      <path fill="#FFF" d="M20.7171382 20.5781864h-2.6500699v-2.7067411h-1.1845822v2.7067411h-4.5107247v-2.7909821h-1.1842758v3.3831201c0 .3268552.2649764.5921379.5918316.5921379h9.5299589c.3268553 0 .5918316-.2652827.5918316-.5921379v-3.3831201h-1.1839695v2.7909821zm-8.345438-8.3457443h8.3453767v2.6785587h1.1839695v-3.2706966c0-.3268553-.2649763-.5918316-.5918315-.5918316h-9.529959c-.3268552 0-.5918316.2649763-.5918316.5918316v3.2706966h1.1842759v-2.6785587zm-1.184184 4.7085839H21.985992v-1.1839695H11.1875162" mask="url(#r)"/>
      <path fill="#2D2D2D" d="M29.4876412 18.1729976c.1136488.1899252.2649764.3437034.45337.4616409.1883936.1176311.4092582.2049354.663513.261913.2542548.0569776.5167805.0854664.7884961.0854664.184105 0 .3810759-.0131723.591219-.0398231.2104494-.0266508.4074203-.077808.5915252-.1537781.1837986-.0759701.3369642-.180429.4598029-.313683.1225324-.1326414.184105-.3017361.184105-.5069779 0-.220252-.0811778-.398843-.2429205-.5354667-.1626618-.1366236-.3746429-.2505788-.637475-.3418654-.2631383-.0909804-.5605858-.1709328-.8935676-.2392446-.3329819-.0683118-.6702524-.1442819-1.0118115-.2282166-.350749-.0756638-.6923082-.1687884-1.0249837-.2790676-.3329818-.1099729-.6304293-.2524168-.8935676-.4270255-.2628321-.174915-.4754258-.3930227-.637475-.6552421-.1617427-.2622194-.2429205-.579272-.2429205-.9514642 0-.4178356.1029273-.7805316.3087817-1.0883943.2058545-.3078627.4751195-.5642618.8084077-.7691972.3326755-.2052418.7094627-.3568757 1.1297489-.4558206.4202862-.0983323.8408787-.1482643 1.2614712-.1482643.490436 0 .9612669.0477877 1.4127988.142444.4509193.0952689.8516003.2490471 1.2020431.4616409.3501364.2129001.6282849.4843094.8344457.8148406.2058545.3302248.3087817.7312122.3087817 1.202043h-1.9972784c-.0174609-.2429205-.0768891-.44418-.1773657-.6040848-.1007829-.1592922-.2343432-.2845816-.400681-.3758682-.1663378-.0909803-.357182-.1556162-.5719201-.1936012-.2144317-.0379851-.4487749-.0569776-.7030297-.0569776-.1660314 0-.3326755.0153165-.4990133.0456433-.1663378.0303268-.3176653.0836284-.45337.1592921-.1357046.0762765-.2475154.1709328-.3351261.2848879-.0876107.1139552-.1311097.2585434-.1311097.4328458 0 .1599048.0346154.2891765.1047652.3878151.0701498.0986386.2079988.1899253.4141596.2732473.2055481.0839347.490436.1672568.854051.2508851.3636149.0836284.838428.1899253 1.4256647.319197.1752213.0300204.4181418.08516.7290679.1651124.310926.0799524.620014.2070798.9266514.3816885.306331.1746087.5716137.4083393.7946227.7008854.2236217.2922399.3351262.6665764.3351262 1.122397 0 .3721922-.0830157.7177337-.2493535 1.0369306-.1666441.3188906-.4141596.5942822-.7425465.8261748-.3283868.2315863-.7355008.4120153-1.2219545.541287-.4861474.1289654-1.0491838.1939076-1.6884967.1939076-.5170869 0-1.0182445-.055446-1.5043918-.1654188-.4864537-.1102792-.9156235-.2830499-1.2878158-.5186185-.3724985-.2352622-.668108-.535773-.8871347-.9000006-.2190267-.3648403-.3237919-.7979924-.3152146-1.2994563h1.9969721c0 .2735536.0569776.5054462.1709327.6953715m10.2818485-3.8856868v1.0822676h-1.3665428v2.9174969c0 .2732473.0526889.4555142.1580668.5468009.1047652.0912866.3152147.1366236.6304293.1366236.1050716 0 .2058545-.0036759.3023488-.0113342.0961879-.007352.1883936-.0189925.2756979-.0340028v1.2532004c-.1574542.0229748-.3329818.037985-.5253577.0456433-.1929886.0073519-.3810759.0113342-.5651808.0113342-.2888702 0-.5627302-.0171545-.8212736-.0511572-.2582371-.0340028-.4861474-.1004766-.6834245-.1994216-.1966646-.0989449-.3525871-.2395508-.4662359-.4215115-.1139552-.182267-.1709327-.4218178-.1709327-.71804v-3.475632h-1.1297489v-1.0822676h1.1297489v-1.7663049h1.8658624v1.7663049h1.3665428zm2.4862441 0v1.0939081h.0263444c.0873044-.1822669.2055482-.3513617.3547314-.5072842.1488769-.1556162.3198096-.2885638.5124918-.398843.1923759-.1099729.3985367-.1951329.6175634-.2563991.2187204-.0606535.4466307-.0909803.6831183-.0909803.1225324 0 .258237.0189925.4074203.0569776v1.5040854c-.0876107-.0150102-.1926823-.0284888-.3152147-.039823-.1228387-.0113343-.2410825-.0171546-.3547313-.0171546-.3418655 0-.631042.0496257-.8672232.1482643-.2367939.0986386-.4273319.2334242-.5719201.4043569-.1442819.1709328-.2475155.3703543-.3084754.5982646-.0615725.2279103-.0918993.4748131-.0918993.7404021v2.6552776h-1.8661687v-5.8910524h1.7739631zm7.240073 1.378796c-.2233153-.2125937-.5630364-.3191969-1.0182444-.3191969-.2980601 0-.5452692.0441116-.7425464.1311096-.1972772.0873044-.3547314.1957456-.4732815.324711-.1182438.1292717-.2012595.2658953-.2493535.4101772-.0484003.1445883-.0768891.27386-.0857727.3875088h3.0354344c-.0876107-.4101773-.2429205-.7217159-.4662359-.9343097m-2.1090892 3.0994576c.2802929.2355685.6834245.3531997 1.2090886.3531997.3764809 0 .7005791-.0814841.9722948-.2450649.2714093-.1632744.437747-.3360451.4990132-.5186184h1.6428535c-.2628321.7067057-.6659637 1.2118456-1.2090887 1.5160323-.5431249.3035741-1.200205.4555143-1.970934.4555143-.5342413 0-1.0164064-.0741321-1.4452698-.2223964-.4291698-.1479578-.7930911-.3590199-1.0908449-.6322672-.2977538-.2735537-.5275021-.6001026-.6898575-.9799531-.1620492-.3798505-.2432269-.797686-.2432269-1.2535066 0-.4405041.0833221-.8509877.2499661-1.2305318.1663378-.3798505.402519-.7082374.7094628-.9857734.3066373-.2772296.6723966-.4956436 1.0972778-.6552421.4245748-.1595984.8954056-.2392445 1.4124924-.2392445.5780467 0 1.081655.0968006 1.5111311.2907081.4291698.1936013.7817568.4539827 1.0577611.7805316s.4751195.6987411.5979582 1.1165766c.1225324.4178356.1663378.8546637.1311097 1.3101779h-4.9012968c.0263445.5244388.17951.9045956.4601093 1.1398579m9.4502516-1.4699908c-.0790335.0606535-.1773657.1084411-.2959158.1424439-.1182438.0340027-.2453712.0624915-.3807695.08516-.136011.0229749-.2781486.0422737-.4273318.0572839-.1488769.0150103-.2977538.0340028-.4466307.0566713-.1402996.0229748-.2781486.0533016-.4138533.0912866-.1357046.0382914-.2542547.0894487-.3547313.1537782-.1007829.0646359-.1819607.1467326-.2429205.2450649-.0615726.0989449-.0922057.2242343-.0922057.3758682 0 .1445882.0306331.266508.0922057.3651466.0609598.0986386.1442819.1764466.2493534.2334242.1050716.0569776.227604.0968006.3679036.1194691.1399933.0226685.2845816.0343091.4337648.0343091.3679036 0 .6521788-.0529953.854051-.1595985.2015658-.1062968.3501363-.2337306.4466306-.3816885.0964943-.1482642.1553099-.2980601.177672-.4500003.0217495-.1519402.0327775-.2735536.0327775-.3645339v-.6040848zm-4.3097716-1.1965291c.0260382-.3798505.1353984-.6950652.3280806-.9459503.1926822-.2505788.4380534-.4518383.7361135-.6037785.2977538-.1519402.6328799-.2600751 1.0050722-.3247109.3721922-.0643295.7468351-.097107 1.1236223-.097107.3415591 0 .6877132.0214432 1.0378495.0627979.3504428.0419674.6702524.1237578.9594289.2450649.2888702.1216134.5256641.2904018.7094627.5069778.184105.2165761.2760043.503302.2760043.860484v3.0654548c0 .2658953.0171545.5201501.0526889.7630706.0346154.2432269.0958816.4258002.1837986.5471073h-1.8922068c-.0352281-.0912867-.0634106-.1837987-.0854664-.2790676-.0220558-.0949627-.0373724-.1920696-.0459497-.2907082-.2977537.2658954-.6481965.4521446-1.0513281.5584415-.4028253.1062969-.8145343.1595985-1.2351268.1595985-.3240983 0-.626447-.0343091-.9064336-.1026209-.2805992-.0683118-.5259704-.1746087-.7358072-.3188906-.2104494-.144282-.3746428-.3268553-.4928866-.5474136-.1182438-.2199457-.1773657-.4821651-.1773657-.7860455 0-.3342072.0676992-.6095988.2037101-.8261748.1357047-.2162698.3109261-.3893468.5256641-.5186185.2144318-.1289654.4598029-.225766.7355009-.2904018.2763106-.0646359.5541528-.1157932.8347521-.1537782.2799866-.0379851.5559908-.0683118.8277065-.0912867.2714093-.0226685.5124918-.0569775.7226349-.1026209.2101431-.0456433.3767872-.1121171.4993196-.1994215.1228388-.086998.17951-.2141254.1709328-.3813821 0-.1749151-.0327775-.313683-.0986386-.4163039-.0655549-.1023146-.1531656-.1819607-.2628321-.2392446-.1096665-.0569776-.2364875-.0946563-.3810758-.1139551-.1445883-.0186862-.2998981-.0284888-.4662359-.0284888-.3679035 0-.6573864.0686181-.8672232.2052418-.2104494.13693-.3329818.3648403-.3682099.6837309h-1.8655561zm9.3133829-4.0565583v4.3642985l2.3520098-2.1195046h2.2077279L63.837859 16.452428l2.8513294 3.7262109h-2.2601105l-1.8661688-2.6323027-.7223286.6037785v2.0285242h-1.8661687v-8.1361527" mask="url(#r)"/>
    </g>
  </g>
</svg>