<?xml version="1.0" encoding="utf-8"?>
<!-- Generator: Adobe Illustrator 19.0.0, SVG Export Plug-In . SVG Version: 6.00 Build 0)  -->
<svg version="1.1" id="Layer_1" xmlns="http://www.w3.org/2000/svg" xmlns:xlink="http://www.w3.org/1999/xlink" x="0px" y="0px"
	 viewBox="-25 237 560 320" style="enable-background:new -25 237 560 320;" xml:space="preserve">
<style type="text/css">
	.st0{fill:url(#SVGID_1_);}
	.st1{fill:url(#SVGID_2_);}
	.st2{opacity:0.9;fill:url(#SVGID_3_);enable-background:new    ;}
	.st3{opacity:0.4;fill:url(#SVGID_4_);enable-background:new    ;}
	.st4{opacity:0.2;fill:url(#SVGID_5_);enable-background:new    ;}
	.st5{opacity:0.9;fill:url(#SVGID_6_);enable-background:new    ;}
	.st6{fill:url(#SVGID_7_);}
	.st7{opacity:0.2;fill:url(#SVGID_8_);enable-background:new    ;}
	.st8{opacity:0.4;fill:url(#SVGID_9_);enable-background:new    ;}
	.st9{opacity:0.264;fill:url(#SVGID_10_);fill-opacity:0.8;enable-background:new    ;}
	.st10{opacity:0.9;fill:url(#SVGID_11_);enable-background:new    ;}
	.st11{opacity:0.9;fill:url(#SVGID_12_);enable-background:new    ;}
	.st12{opacity:0.2;fill:url(#SVGID_13_);enable-background:new    ;}
	.st13{opacity:0.3;fill:url(#SVGID_14_);enable-background:new    ;}
	.st14{opacity:0.9;fill:url(#SVGID_15_);enable-background:new    ;}
	.st15{opacity:0.4;fill:url(#SVGID_16_);enable-background:new    ;}
	.st16{opacity:0.2;fill:url(#SVGID_17_);enable-background:new    ;}
</style>
<g>
	<linearGradient id="SVGID_1_" gradientUnits="userSpaceOnUse" x1="-25" y1="397" x2="535" y2="397">
		<stop  offset="0" style="stop-color:#10638B"/>
		<stop  offset="1" style="stop-color:#219CD8"/>
	</linearGradient>
	<path class="st0" d="M-19,237h548c3.3,0,6,2.7,6,6v308c0,3.3-2.7,6-6,6H-19c-3.3,0-6-2.7-6-6V243C-25,239.7-22.3,237-19,237z"/>
	
		<linearGradient id="SVGID_2_" gradientUnits="userSpaceOnUse" x1="-49.875" y1="786.1563" x2="-48.875" y2="786.1563" gradientTransform="matrix(200 0 0 -32 9950 25698)">
		<stop  offset="0" style="stop-color:#FFFFFF;stop-opacity:0"/>
		<stop  offset="1" style="stop-color:#FFFFFF"/>
	</linearGradient>
	<path class="st1" d="M-25,525h184c8.8,0,16,7.2,16,16c0,8.8-7.2,16-16,16H-25V525z"/>
	
		<linearGradient id="SVGID_3_" gradientUnits="userSpaceOnUse" x1="-49.9233" y1="786.1563" x2="-48.9233" y2="786.1563" gradientTransform="matrix(326 0 0 -32 16250 25442)">
		<stop  offset="0" style="stop-color:#FFFFFF;stop-opacity:0"/>
		<stop  offset="1" style="stop-color:#FFFFFF"/>
	</linearGradient>
	<path class="st2" d="M-25,269h310c8.8,0,16,7.2,16,16c0,8.8-7.2,16-16,16H-25V269z"/>
	
		<linearGradient id="SVGID_4_" gradientUnits="userSpaceOnUse" x1="-49.8894" y1="786.1563" x2="-48.8894" y2="786.1563" gradientTransform="matrix(226 0 0 -32 11250 25410)">
		<stop  offset="0" style="stop-color:#FFFFFF;stop-opacity:0"/>
		<stop  offset="1" style="stop-color:#FFFFFF"/>
	</linearGradient>
	<path class="st3" d="M-25,237h210c8.8,0,16,7.2,16,16c0,8.8-7.2,16-16,16H-25V237z"/>
	
		<linearGradient id="SVGID_5_" gradientUnits="userSpaceOnUse" x1="-49.6968" y1="786.1563" x2="-48.9554" y2="786.1563" gradientTransform="matrix(560 0 0 -32 27950 25602)">
		<stop  offset="0" style="stop-color:#FFFFFF;stop-opacity:0"/>
		<stop  offset="1" style="stop-color:#FFFFFF"/>
	</linearGradient>
	<path class="st4" d="M-25,429h560v32H-25V429z"/>
	
		<linearGradient id="SVGID_6_" gradientUnits="userSpaceOnUse" x1="-49.9554" y1="786.1563" x2="-48.9554" y2="786.1563" gradientTransform="matrix(560 0 0 -32 27950 25570)">
		<stop  offset="0" style="stop-color:#FFFFFF;stop-opacity:0"/>
		<stop  offset="1" style="stop-color:#FFFFFF"/>
	</linearGradient>
	<path class="st5" d="M-25,397h560v32H-25V397z"/>
	
		<linearGradient id="SVGID_7_" gradientUnits="userSpaceOnUse" x1="-49.9554" y1="786.1563" x2="-48.9554" y2="786.1563" gradientTransform="matrix(560 0 0 -32 27950 25538)">
		<stop  offset="0" style="stop-color:#FFFFFF;stop-opacity:0"/>
		<stop  offset="1" style="stop-color:#FFFFFF"/>
	</linearGradient>
	<path class="st6" d="M-25,365h560v32H-25V365z"/>
	
		<linearGradient id="SVGID_8_" gradientUnits="userSpaceOnUse" x1="-49.9554" y1="786.1563" x2="-48.9554" y2="786.1563" gradientTransform="matrix(560 0 0 -32 27950 25506)">
		<stop  offset="0" style="stop-color:#FFFFFF;stop-opacity:0"/>
		<stop  offset="1" style="stop-color:#FFFFFF"/>
	</linearGradient>
	<path class="st7" d="M-25,333h560v32H-25V333z"/>
	
		<linearGradient id="SVGID_9_" gradientUnits="userSpaceOnUse" x1="-49.9554" y1="786.1563" x2="-48.9554" y2="786.1563" gradientTransform="matrix(560 0 0 -32 27950 25474)">
		<stop  offset="0" style="stop-color:#FFFFFF;stop-opacity:0"/>
		<stop  offset="1" style="stop-color:#FFFFFF"/>
	</linearGradient>
	<path class="st8" d="M-25,301h560v32H-25V301z"/>
	
		<linearGradient id="SVGID_10_" gradientUnits="userSpaceOnUse" x1="-49.948" y1="786.1563" x2="-48.948" y2="786.1563" gradientTransform="matrix(481 0 0 -32 24000 25538)">
		<stop  offset="0" style="stop-color:#FFFFFF;stop-opacity:0"/>
		<stop  offset="1" style="stop-color:#FFFFFF"/>
	</linearGradient>
	<path class="st9" d="M-25,365h465c8.8,0,16,7.2,16,16c0,8.8-7.2,16-16,16H-25V365z"/>
	
		<linearGradient id="SVGID_11_" gradientUnits="userSpaceOnUse" x1="-49.9554" y1="789.8281" x2="-48.9554" y2="789.8281" gradientTransform="matrix(560 0 0 -64 27950 50882)">
		<stop  offset="0" style="stop-color:#FFFFFF;stop-opacity:0"/>
		<stop  offset="1" style="stop-color:#FFFFFF"/>
	</linearGradient>
	<path class="st10" d="M-25,301h537c8.8,0,16,7.2,16,16c0,8.8-7.2,16-16,16H-25V301z M-25,333h560v32H-25V333z"/>
	
		<linearGradient id="SVGID_12_" gradientUnits="userSpaceOnUse" x1="-49.9554" y1="786.1563" x2="-49.1287" y2="786.1563" gradientTransform="matrix(560 0 0 -32 27950 25634)">
		<stop  offset="0" style="stop-color:#FFFFFF;stop-opacity:0"/>
		<stop  offset="1" style="stop-color:#FFFFFF"/>
	</linearGradient>
	<path class="st11" d="M-25,461h560v32H-25V461z"/>
	
		<linearGradient id="SVGID_13_" gradientUnits="userSpaceOnUse" x1="-49.915" y1="786.1563" x2="-48.915" y2="786.1563" gradientTransform="matrix(294 0 0 -32 14650 25506)">
		<stop  offset="0" style="stop-color:#FFFFFF;stop-opacity:0"/>
		<stop  offset="1" style="stop-color:#FFFFFF"/>
	</linearGradient>
	<path class="st12" d="M-25,333h278c8.8,0,16,7.2,16,16c0,8.8-7.2,16-16,16H-25V333z"/>
	
		<linearGradient id="SVGID_14_" gradientUnits="userSpaceOnUse" x1="-49.8958" y1="786.1563" x2="-48.8958" y2="786.1563" gradientTransform="matrix(240 0 0 -32 11950 25634)">
		<stop  offset="0" style="stop-color:#FFFFFF;stop-opacity:0"/>
		<stop  offset="1" style="stop-color:#FFFFFF"/>
	</linearGradient>
	<path class="st13" d="M-25,461h224c8.8,0,16,7.2,16,16c0,8.8-7.2,16-16,16H-25V461z"/>
	
		<linearGradient id="SVGID_15_" gradientUnits="userSpaceOnUse" x1="-49.9375" y1="786.1563" x2="-48.9375" y2="786.1563" gradientTransform="matrix(400 0 0 -32 19950 25666)">
		<stop  offset="0" style="stop-color:#FFFFFF;stop-opacity:0"/>
		<stop  offset="1" style="stop-color:#FFFFFF"/>
	</linearGradient>
	<path class="st14" d="M-25,493h384c8.8,0,16,7.2,16,16c0,8.8-7.2,16-16,16H-25V493z"/>
	
		<linearGradient id="SVGID_16_" gradientUnits="userSpaceOnUse" x1="-49.9554" y1="786.1563" x2="-48.9554" y2="786.1563" gradientTransform="matrix(560 0 0 -32 27950 25666)">
		<stop  offset="0" style="stop-color:#FFFFFF;stop-opacity:0"/>
		<stop  offset="1" style="stop-color:#FFFFFF"/>
	</linearGradient>
	<path class="st15" d="M-25,493h560v32H-25V493z"/>
	
		<linearGradient id="SVGID_17_" gradientUnits="userSpaceOnUse" x1="-49.9554" y1="786.1563" x2="-48.9554" y2="786.1563" gradientTransform="matrix(560 0 0 -32 27950 25666)">
		<stop  offset="0" style="stop-color:#FFFFFF;stop-opacity:0"/>
		<stop  offset="1" style="stop-color:#FFFFFF"/>
	</linearGradient>
	<path class="st16" d="M-25,493h560v32H-25V493z"/>
</g>
</svg>
