<?xml version="1.0" encoding="UTF-8"?>
<svg width="59px" height="94px" viewBox="0 0 59 94" version="1.1" xmlns="http://www.w3.org/2000/svg" xmlns:xlink="http://www.w3.org/1999/xlink">
    <!-- Generator: Sketch 42 (36781) - http://www.bohemiancoding.com/sketch -->
    <title>logo-meta-white</title>
    <desc>Created with Sketch.</desc>
    <defs></defs>
    <g id="Page-1" stroke="none" stroke-width="1" fill="none" fill-rule="evenodd">
        <g id="logo-meta-white" fill="#FFFFFF">
            <g id="Page-1">
                <g id="enterprise-v1-copy-3">
                    <g id="Success-Stories">
                        <g id="Group-48">
                            <g id="Group-98">
                                <g id="Meta" transform="translate(0.000000, 75.000000)">
                                    <path d="M7.54882812,18 L3.42382812,4.55859375 L3.31835938,4.55859375 C3.46679762,7.29298242 3.54101562,9.11718293 3.54101562,10.03125 L3.54101562,18 L0.294921875,18 L0.294921875,0.8671875 L5.24023438,0.8671875 L9.29492188,13.96875 L9.36523438,13.96875 L13.6660156,0.8671875 L18.6113281,0.8671875 L18.6113281,18 L15.2246094,18 L15.2246094,9.890625 C15.2246094,9.50781059 15.2304687,9.06640875 15.2421875,8.56640625 C15.2539063,8.06640375 15.3066402,6.73829203 15.4003906,4.58203125 L15.2949219,4.58203125 L10.8769531,18 L7.54882812,18 Z M28.0683594,7.1953125 C27.3105431,7.1953125 26.716799,7.43554447 26.2871094,7.91601562 C25.8574197,8.39648678 25.6113284,9.07812059 25.5488281,9.9609375 L30.5644531,9.9609375 C30.548828,9.07812059 30.3183616,8.39648678 29.8730469,7.91601562 C29.4277321,7.43554447 28.8261757,7.1953125 28.0683594,7.1953125 Z M28.5722656,18.234375 C26.4628801,18.234375 24.8144591,17.6523496 23.6269531,16.4882812 C22.4394472,15.3242129 21.8457031,13.6757919 21.8457031,11.5429688 C21.8457031,9.34764527 22.3945258,7.65039662 23.4921875,6.45117188 C24.5898492,5.25194713 26.1074122,4.65234375 28.0449219,4.65234375 C29.8964936,4.65234375 31.3378855,5.17968223 32.3691406,6.234375 C33.4003958,7.28906777 33.9160156,8.74608445 33.9160156,10.6054688 L33.9160156,12.3398438 L25.4667969,12.3398438 C25.5058596,13.3554738 25.8066378,14.1484346 26.3691406,14.71875 C26.9316434,15.2890654 27.720698,15.5742188 28.7363281,15.5742188 C29.5253946,15.5742188 30.2714809,15.4921883 30.9746094,15.328125 C31.6777379,15.1640617 32.4121055,14.9023455 33.1777344,14.5429688 L33.1777344,17.3085938 C32.5527313,17.6210953 31.8847692,17.8535149 31.1738281,18.0058594 C30.4628871,18.1582039 29.5957082,18.234375 28.5722656,18.234375 Z M42.3417969,15.3867188 C42.9668,15.3867188 43.7167925,15.2500014 44.5917969,14.9765625 L44.5917969,17.6367188 C43.7011674,18.0351582 42.6074284,18.234375 41.3105469,18.234375 C39.8808522,18.234375 38.839847,17.8730505 38.1875,17.1503906 C37.535153,16.4277308 37.2089844,15.3437572 37.2089844,13.8984375 L37.2089844,7.58203125 L35.4980469,7.58203125 L35.4980469,6.0703125 L37.4667969,4.875 L38.4980469,2.109375 L40.7832031,2.109375 L40.7832031,4.8984375 L44.4511719,4.8984375 L44.4511719,7.58203125 L40.7832031,7.58203125 L40.7832031,13.8984375 C40.7832031,14.4062525 40.9257798,14.7812488 41.2109375,15.0234375 C41.4960952,15.2656262 41.8730445,15.3867188 42.3417969,15.3867188 Z M55.5605469,18 L54.8691406,16.21875 L54.7753906,16.21875 C54.1738251,16.9765663 53.5546907,17.5019517 52.9179688,17.7949219 C52.2812468,18.0878921 51.451177,18.234375 50.4277344,18.234375 C49.1699156,18.234375 48.1796911,17.8750036 47.4570313,17.15625 C46.7343714,16.4374964 46.3730469,15.4140691 46.3730469,14.0859375 C46.3730469,12.6953055 46.8593701,11.6699252 47.8320313,11.0097656 C48.8046924,10.3496061 50.2714746,9.98437535 52.2324219,9.9140625 L54.5058594,9.84375 L54.5058594,9.26953125 C54.5058594,7.94139961 53.8261787,7.27734375 52.4667969,7.27734375 C51.4199166,7.27734375 50.1894602,7.59374684 48.7753906,8.2265625 L47.5917969,5.8125 C49.0996169,5.02343355 50.7714752,4.62890625 52.6074219,4.62890625 C54.3652432,4.62890625 55.7128859,5.01171492 56.6503906,5.77734375 C57.5878953,6.54297258 58.0566406,7.70702344 58.0566406,9.26953125 L58.0566406,18 L55.5605469,18 Z M54.5058594,11.9296875 L53.1230469,11.9765625 C52.0839792,12.0078127 51.3105494,12.1953108 50.8027344,12.5390625 C50.2949193,12.8828142 50.0410156,13.4062465 50.0410156,14.109375 C50.0410156,15.1171925 50.6191348,15.6210938 51.7753906,15.6210938 C52.6035198,15.6210938 53.2656225,15.3828149 53.7617188,14.90625 C54.257815,14.4296851 54.5058594,13.7968789 54.5058594,13.0078125 L54.5058594,11.9296875 Z"></path>
                                </g>
                                <polygon id="Shape-Copy-15" fill-rule="nonzero" points="28.4819277 16.0706292 28.393302 16.0692021 35.8335716 0 20.9530325 0 9 28.2295636 19.2791505 28.3123357 23.8247907 28.3494404 11.8803349 57 26.8209108 37.9995243 44 16.1534013 28.4819277 16.0692021"></polygon>
                            </g>
                        </g>
                    </g>
                </g>
            </g>
        </g>
    </g>
</svg>